time,streamBufferSize,counter,trieNodeNumber,trieSize,memory
1,0,0,1,0,18
2,2,15,114,15,158
3,2,30,239,29,344
4,0,48,343,40,36
5,1,63,419,51,115
6,0,80,517,63,218
7,6,91,565,70,308
8,11,102,599,77,401
9,2,127,686,91,495
10,3,142,752,100,568
11,3,158,818,110,131
12,3,174,891,119,311
13,1,192,954,129,517
14,17,192,954,129,269
15,14,211,1022,140,123
16,9,232,1091,152,54
17,4,253,1156,162,57
18,20,253,1156,162,111
19,14,275,1238,173,228
20,6,299,1315,185,142
21,22,299,1315,185,148
22,13,324,1400,197,237
23,3,351,1450,209,82
24,19,351,1450,209,83
25,7,379,1517,221,164
26,23,379,1517,221,72
27,10,408,1607,234,236
28,27,408,1607,234,150
29,12,439,1675,247,145
30,28,439,1675,247,141
31,11,471,1745,260,87
32,27,471,1745,260,31
33,10,504,1847,272,26
34,26,504,1847,272,61
35,7,539,1963,286,173
36,23,539,1963,286,170
37,5,573,2065,298,138
38,21,573,2065,298,154
39,2,608,2126,309,117
40,19,608,2126,309,189
41,35,608,2126,309,126
42,13,646,2225,322,64
43,29,646,2225,322,155
44,8,684,2347,333,190
45,24,684,2347,333,163
46,1,723,2449,344,78
47,17,723,2449,344,217
48,33,723,2449,344,81
49,10,762,2508,354,199
50,26,762,2508,354,199
51,1,803,2573,364,171
52,16,803,2573,364,162
53,32,803,2573,364,127
54,6,845,2671,374,80
55,22,845,2671,374,244
56,38,845,2671,374,66
57,10,889,2742,385,198
58,26,889,2742,385,113
59,42,889,2742,385,137
60,14,933,2787,394,186
61,30,933,2787,394,223
62,46,933,2787,394,235
63,15,980,2839,407,102
64,31,980,2839,407,185
65,1,1026,2883,418,166
66,17,1026,2883,418,157
67,33,1026,2883,418,168
68,0,1075,2962,429,78
69,16,1075,2962,429,225
70,32,1075,2962,429,78
71,0,1123,3009,439,52
72,16,1123,3009,439,167
73,32,1123,3009,439,219
74,49,1123,3009,439,178
75,13,1175,3099,452,142
76,29,1175,3099,452,169
77,45,1175,3099,452,78
78,10,1226,3147,464,77
79,26,1226,3147,464,210
80,42,1226,3147,464,155
81,3,1281,3246,478,105
82,18,1281,3246,478,48
83,35,1281,3246,478,147
84,51,1281,3246,478,74
85,14,1334,3289,489,103
86,30,1334,3289,489,68
87,46,1334,3289,489,130
88,9,1387,3331,498,143
89,25,1387,3331,498,70
90,41,1387,3331,498,183
91,2,1442,3394,509,118
92,18,1442,3394,509,136
93,34,1442,3394,509,142
94,50,1442,3394,509,203
95,12,1497,3426,517,152
96,28,1497,3426,517,205
97,44,1497,3426,517,121
98,5,1552,3487,526,147
99,21,1552,3487,526,107
100,37,1552,3487,526,120
101,53,1552,3487,526,217
102,12,1609,3530,534,180
103,28,1609,3530,534,233
104,44,1609,3530,534,169
105,5,1664,3583,541,51
106,21,1664,3583,541,74
107,37,1664,3583,541,111
108,53,1664,3583,541,54
109,12,1721,3596,546,215
110,28,1721,3596,546,64
111,44,1721,3596,546,194
112,4,1777,3628,551,61
113,20,1777,3628,551,158
114,36,1777,3628,551,153
115,52,1777,3628,551,114
116,10,1835,3635,554,122
117,27,1835,3635,554,101
118,43,1835,3635,554,177
119,59,1835,3635,554,85
120,16,1894,3662,560,194
121,32,1894,3662,560,213
122,48,1894,3662,560,185
123,3,1954,3741,567,65
124,20,1954,3741,567,71
125,36,1954,3741,567,57
126,52,1954,3741,567,65
127,8,2014,3749,572,76
128,24,2014,3749,572,87
129,40,2014,3749,572,33
130,56,2014,3749,572,101
131,9,2077,3820,580,38
132,25,2077,3820,580,120
133,41,2077,3820,580,44
134,57,2077,3820,580,88
135,11,2139,3914,587,132
136,27,2139,3914,587,37
137,43,2139,3914,587,65
138,59,2139,3914,587,45
139,13,2202,3916,593,49
140,29,2202,3916,593,108
141,45,2202,3916,593,70
142,61,2202,3916,593,75
143,13,2266,3965,602,104
144,29,2266,3965,602,80
145,45,2266,3965,602,68
146,61,2266,3965,602,45
147,13,2330,4037,609,118
148,29,2330,4037,609,93
149,45,2330,4037,609,108
150,61,2330,4037,609,98
151,12,2395,4073,618,123
152,28,2395,4073,618,131
153,44,2395,4073,618,66
154,60,2395,4073,618,84
155,10,2461,4131,626,89
156,26,2461,4131,626,138
157,42,2461,4131,626,58
158,58,2461,4131,626,63
159,9,2526,4112,632,67
160,25,2526,4112,632,94
161,41,2526,4112,632,104
162,57,2526,4112,632,90
163,6,2593,4159,639,124
164,22,2593,4159,639,106
165,38,2593,4159,639,139
166,54,2593,4159,639,105
167,4,2659,4208,645,130
168,20,2659,4208,645,98
169,36,2659,4208,645,161
170,52,2659,4208,645,125
171,0,2727,4282,650,78
172,17,2727,4282,650,198
173,33,2727,4282,650,182
174,49,2727,4282,650,162
175,65,2727,4282,650,82
176,13,2794,4334,655,23
177,29,2794,4334,655,39
178,45,2794,4334,655,54
179,61,2794,4334,655,47
180,7,2864,4410,662,32
181,23,2864,4410,662,68
182,39,2864,4410,662,51
183,55,2864,4410,662,20
184,4,2931,4388,665,43
185,20,2931,4388,665,100
186,36,2931,4388,665,50
187,52,2931,4388,665,63
188,68,2931,4388,665,34
189,14,3001,4418,671,92
190,30,3001,4418,671,68
191,46,3001,4418,671,50
192,62,3001,4418,671,53
193,10,3070,4443,675,121
194,26,3070,4443,675,103
195,42,3070,4443,675,56
196,58,3070,4443,675,88
197,2,3142,4463,681,42
198,18,3142,4463,681,52
199,34,3142,4463,681,80
200,50,3142,4463,681,86
201,66,3142,4463,681,92
202,13,3211,4554,685,128
203,29,3211,4554,685,68
204,45,3211,4554,685,73
205,62,3211,4554,685,97
206,6,3283,4568,690,52
207,22,3283,4568,690,66
208,38,3283,4568,690,128
209,54,3283,4568,690,117
210,1,3352,4611,693,109
211,17,3352,4611,693,118
212,33,3352,4611,693,85
213,49,3352,4611,693,84
214,65,3352,4611,693,90
215,8,3425,4604,698,104
216,24,3425,4604,698,102
217,40,3425,4604,698,91
218,56,3425,4604,698,117
219,0,3497,4604,703,80
220,16,3497,4604,703,97
221,32,3497,4604,703,77
222,48,3497,4604,703,70
223,64,3497,4604,703,115
224,7,3570,4626,706,166
225,23,3570,4626,706,87
226,39,3570,4626,706,74
227,55,3570,4626,706,157
228,72,3570,4626,706,119
229,13,3644,4713,713,93
230,29,3644,4713,713,161
231,45,3644,4713,713,110
232,62,3644,4713,713,114
233,4,3718,4766,717,47
234,19,3718,4766,717,55
235,36,3718,4766,717,18
236,52,3718,4766,717,27
237,68,3718,4766,717,30
238,10,3792,4784,722,121
239,26,3792,4784,722,20
240,42,3792,4784,722,61
241,58,3792,4784,722,29
242,74,3792,4784,722,37
243,15,3867,4784,725,111
244,31,3867,4784,725,46
245,47,3867,4784,725,42
246,63,3867,4784,725,81
247,6,3940,4798,729,99
248,22,3940,4798,729,49
249,39,3940,4798,729,93
250,55,3940,4798,729,88
251,71,3940,4798,729,43
252,12,4015,4810,732,86
253,28,4015,4810,732,122
254,44,4015,4810,732,101
255,60,4015,4810,732,69
256,3,4088,4798,736,71
257,19,4088,4798,736,134
258,35,4088,4798,736,112
259,51,4088,4798,736,108
260,67,4088,4798,736,59
261,8,4163,4790,738,54
262,24,4163,4790,738,129
263,40,4163,4790,738,103
264,56,4163,4790,738,109
265,72,4163,4790,738,52
266,16,4236,4804,739,70
267,32,4236,4804,739,132
268,48,4236,4804,739,114
269,63,4236,4804,739,92
270,4,4312,4843,742,96
271,20,4312,4843,742,153
272,36,4312,4843,742,84
273,52,4312,4843,742,67
274,68,4312,4843,742,107
275,9,4387,4850,743,174
276,25,4387,4850,743,127
277,41,4387,4850,743,88
278,57,4387,4850,743,87
279,73,4387,4850,743,82
280,13,4463,4825,745,106
281,30,4463,4825,745,110
282,46,4463,4825,745,119
283,62,4463,4825,745,93
284,4,4537,4854,745,129
285,20,4537,4854,745,112
286,35,4537,4854,745,89
287,51,4537,4854,745,74
288,68,4537,4854,745,107
289,5,4615,4896,748,98
290,21,4615,4896,748,118
291,38,4615,4896,748,163
292,54,4615,4896,748,101
293,70,4615,4896,748,81
294,9,4692,4918,752,83
295,25,4692,4918,752,129
296,41,4692,4918,752,31
297,57,4692,4918,752,63
298,73,4692,4918,752,71
299,11,4770,4926,755,51
300,27,4770,4926,755,73
301,43,4770,4926,755,46
302,59,4770,4926,755,63
303,75,4770,4926,755,40
304,14,4847,4973,759,60
305,30,4847,4973,759,108
306,46,4847,4973,759,75
307,62,4847,4973,759,38
308,79,4847,4973,759,37
309,15,4927,5065,764,73
310,31,4927,5065,764,40
311,47,4927,5065,764,32
312,63,4927,5065,764,77
313,79,4927,5065,764,72
314,13,5009,5088,773,130
315,29,5009,5088,773,42
316,45,5009,5088,773,79
317,61,5009,5088,773,49
318,77,5009,5088,773,53
319,12,5090,5037,778,122
320,28,5090,5037,778,124
321,44,5090,5037,778,101
322,60,5090,5037,778,84
323,76,5090,5037,778,55
324,12,5170,5037,783,69
325,28,5170,5037,783,99
326,44,5170,5037,783,74
327,60,5170,5037,783,63
328,76,5170,5037,783,87
329,11,5251,5111,788,130
330,27,5251,5111,788,122
331,43,5251,5111,788,88
332,59,5251,5111,788,58
333,76,5251,5111,788,76
334,12,5330,5141,793,105
335,28,5330,5141,793,67
336,44,5330,5141,793,64
337,60,5330,5141,793,79
338,77,5330,5141,793,78
339,11,5412,5152,797,93
340,27,5412,5152,797,103
341,43,5412,5152,797,138
342,59,5412,5152,797,125
343,75,5412,5152,797,66
344,11,5492,5234,800,72
345,27,5492,5234,800,166
346,43,5492,5234,800,151
347,59,5492,5234,800,107
348,75,5492,5234,800,74
349,10,5573,5237,803,137
350,26,5573,5237,803,103
351,42,5573,5237,803,89
352,58,5573,5237,803,105
353,75,5573,5237,803,122
354,10,5654,5274,807,103
355,26,5654,5274,807,129
356,42,5654,5274,807,159
357,58,5654,5274,807,136
358,74,5654,5274,807,145
359,8,5736,5277,809,131
360,24,5736,5277,809,99
361,40,5736,5277,809,83
362,56,5736,5277,809,28
363,72,5736,5277,809,42
364,8,5816,5311,807,93
365,24,5816,5311,807,81
366,40,5816,5311,807,38
367,56,5816,5311,807,52
368,72,5816,5311,807,37
369,6,5898,5384,808,80
370,22,5898,5384,808,98
371,38,5898,5384,808,73
372,54,5898,5384,808,56
373,70,5898,5384,808,51
374,4,5980,5363,810,96
375,21,5980,5363,810,71
376,36,5980,5363,810,41
377,53,5980,5363,810,64
378,69,5980,5363,810,63
379,2,6063,5354,812,38
380,19,6063,5354,812,82
381,35,6063,5354,812,95
382,51,6063,5354,812,56
383,67,6063,5354,812,53
384,1,6145,5414,815,54
385,17,6145,5414,815,124
386,33,6145,5414,815,70
387,49,6145,5414,815,74
388,65,6145,5414,815,43
389,81,6145,5414,815,42
390,14,6228,5409,816,95
391,30,6228,5409,816,122
392,46,6228,5409,816,54
393,62,6228,5409,816,63
394,78,6228,5409,816,57
395,11,6311,5403,819,141
396,27,6311,5403,819,59
397,43,6311,5403,819,57
398,59,6311,5403,819,53
399,75,6311,5403,819,85
400,7,6395,5447,822,155
401,23,6395,5447,822,106
402,39,6395,5447,822,95
403,55,6395,5447,822,69
404,71,6395,5447,822,60
405,7,6475,5421,821,108
406,23,6475,5421,821,118
407,39,6475,5421,821,96
408,55,6475,5421,821,97
409,71,6475,5421,821,88
410,4,6558,5421,822,129
411,20,6558,5421,822,95
412,36,6558,5421,822,87
413,52,6558,5421,822,102
414,68,6558,5421,822,132
415,2,6640,5407,824,87
416,18,6640,5407,824,174
417,34,6640,5407,824,87
418,50,6640,5407,824,108
419,66,6640,5407,824,144
420,0,6722,5385,824,86
421,16,6722,5385,824,129
422,32,6722,5385,824,109
423,48,6722,5385,824,85
424,64,6722,5385,824,158
425,1,6801,5343,821,98
426,17,6801,5343,821,156
427,33,6801,5343,821,172
428,49,6801,5343,821,158
429,65,6801,5343,821,86
430,81,6801,5343,821,135
431,15,6883,5316,820,63
432,31,6883,5316,820,38
433,47,6883,5316,820,27
434,63,6883,5316,820,59
435,79,6883,5316,820,15
436,14,6964,5282,819,96
437,30,6964,5282,819,76
438,46,6964,5282,819,71
439,62,6964,5282,819,56
440,78,6964,5282,819,62
441,12,7046,5265,818,28
442,28,7046,5265,818,105
443,44,7046,5265,818,36
444,60,7046,5265,818,44
445,76,7046,5265,818,71
446,12,7126,5264,815,92
447,28,7126,5264,815,65
448,44,7126,5264,815,70
449,60,7126,5264,815,60
450,76,7126,5264,815,71
451,10,7208,5248,813,60
452,26,7208,5248,813,39
453,42,7208,5248,813,64
454,58,7208,5248,813,62
455,74,7208,5248,813,77
456,10,7288,5222,813,119
457,27,7288,5222,813,109
458,43,7288,5222,813,52
459,59,7288,5222,813,47
460,75,7288,5222,813,75
461,8,7371,5264,813,135
462,24,7371,5264,813,95
463,39,7371,5264,813,69
464,56,7371,5264,813,96
465,71,7371,5264,813,67
466,8,7451,5269,811,57
467,24,7451,5269,811,101
468,40,7451,5269,811,88
469,56,7451,5269,811,61
470,72,7451,5269,811,77
471,5,7534,5257,812,95
472,21,7534,5257,812,107
473,37,7534,5257,812,118
474,53,7534,5257,812,115
475,69,7534,5257,812,70
476,6,7613,5270,812,87
477,23,7613,5270,812,95
478,38,7613,5270,812,117
479,55,7613,5270,812,136
480,71,7613,5270,812,64
481,6,7694,5271,811,141
482,22,7694,5271,811,137
483,38,7694,5271,811,129
484,54,7694,5271,811,94
485,70,7694,5271,811,110
486,6,7774,5247,810,158
487,22,7774,5247,810,158
488,38,7774,5247,810,92
489,54,7774,5247,810,123
490,70,7774,5247,810,127
491,3,7857,5260,811,127
492,19,7857,5260,811,148
493,35,7857,5260,811,89
494,51,7857,5260,811,144
495,67,7857,5260,811,111
496,83,7857,5260,811,109
497,1,7956,5364,830,103
498,16,7956,5364,830,96
499,32,7956,5364,830,128
500,49,7956,5364,830,115
501,65,7956,5364,830,114
502,81,7956,5364,830,97
503,8,8044,5421,836,77
504,24,8044,5421,836,42
505,40,8044,5421,836,53
506,56,8044,5421,836,55
507,72,8044,5421,836,57
508,6,8126,5438,838,70
509,22,8126,5438,838,81
510,38,8126,5438,838,75
511,54,8126,5438,838,20
512,70,8126,5438,838,46
513,4,8209,5375,838,62
514,20,8209,5375,838,72
515,36,8209,5375,838,61
516,52,8209,5375,838,57
517,67,8209,5375,838,69
518,1,8291,5386,840,36
519,18,8291,5386,840,84
520,34,8291,5386,840,89
521,49,8291,5386,840,62
522,66,8291,5386,840,66
523,82,8291,5386,840,39
524,13,8376,5389,842,131
525,29,8376,5389,842,86
526,45,8376,5389,842,41
527,61,8376,5389,842,45
528,77,8376,5389,842,69
529,9,8460,5379,847,130
530,25,8460,5379,847,69
531,41,8460,5379,847,60
532,57,8460,5379,847,45
533,73,8460,5379,847,57
534,4,8545,5443,851,100
535,20,8545,5443,851,87
536,36,8545,5443,851,48
537,52,8545,5443,851,68
538,68,8545,5443,851,67
539,1,8628,5464,854,90
540,17,8628,5464,854,135
541,33,8628,5464,854,60
542,49,8628,5464,854,101
543,65,8628,5464,854,91
544,82,8628,5464,854,71
545,12,8714,5479,857,170
546,28,8714,5479,857,79
547,44,8714,5479,857,130
548,59,8714,5479,857,59
549,76,8714,5479,857,71
550,8,8798,5387,842,125
551,24,8798,5387,842,146
552,40,8798,5387,842,146
553,56,8798,5387,842,76
554,72,8798,5387,842,85
555,2,8884,5342,840,117
556,18,8884,5342,840,153
557,34,8884,5342,840,80
558,50,8884,5342,840,70
559,66,8884,5342,840,107
560,82,8884,5342,840,114
561,15,8967,5367,841,89
562,31,8967,5367,841,169
563,47,8967,5367,841,125
564,63,8967,5367,841,122
565,79,8967,5367,841,109
566,11,9051,5419,842,165
567,27,9051,5419,842,166
568,43,9051,5419,842,150
569,59,9051,5419,842,139
570,76,9051,5419,842,101
571,8,9135,5482,844,190
572,24,9135,5482,844,136
573,40,9135,5482,844,150
574,56,9135,5482,844,156
575,72,9135,5482,844,135
576,3,9221,5482,845,15
577,19,9221,5482,845,114
578,35,9221,5482,845,77
579,51,9221,5482,845,84
580,67,9221,5482,845,67
581,83,9221,5482,845,34
582,16,9304,5489,844,68
583,32,9304,5489,844,87
584,48,9304,5489,844,73
585,64,9304,5489,844,30
586,80,9304,5489,844,28
587,12,9388,5428,843,48
588,28,9388,5428,843,99
589,44,9388,5428,843,93
590,60,9388,5428,843,61
591,76,9388,5428,843,49
592,9,9471,5463,843,68
593,25,9471,5463,843,65
594,42,9471,5463,843,99
595,58,9471,5463,843,88
596,74,9471,5463,843,53
597,6,9555,5434,841,106
598,22,9555,5434,841,113
599,38,9555,5434,841,93
600,54,9555,5434,841,58
601,70,9555,5434,841,82
602,3,9638,5444,840,79
603,19,9638,5444,840,55
604,35,9638,5444,840,87
605,51,9638,5444,840,83
606,67,9638,5444,840,47
607,83,9638,5444,840,66
608,16,9721,5409,837,70
609,33,9721,5409,837,108
610,49,9721,5409,837,104
611,65,9721,5409,837,89
612,81,9721,5409,837,86
613,15,9803,5408,836,76
614,31,9803,5408,836,56
615,47,9803,5408,836,56
616,63,9803,5408,836,103
617,79,9803,5408,836,96
618,13,9885,5405,834,77
619,29,9885,5405,834,100
620,45,9885,5405,834,116
621,61,9885,5405,834,132
622,77,9885,5405,834,107
623,13,9965,5356,830,152
624,29,9965,5356,830,132
625,45,9965,5356,830,116
626,61,9965,5356,830,132
627,77,9965,5356,830,78
628,11,10047,5307,826,165
629,27,10047,5307,826,132
630,43,10047,5307,826,127
631,60,10047,5307,826,80
632,76,10047,5307,826,107
633,11,10128,5326,824,127
634,27,10128,5326,824,150
635,43,10128,5326,824,148
636,59,10128,5326,824,74
637,75,10128,5326,824,135
638,9,10210,5352,822,136
639,25,10210,5352,822,176
640,41,10210,5352,822,108
641,57,10210,5352,822,152
642,74,10210,5352,822,85
643,8,10292,5309,821,194
644,24,10292,5309,821,190
645,40,10292,5309,821,137
646,56,10292,5309,821,87
647,72,10292,5309,821,87
648,5,10375,5307,820,33
649,21,10375,5307,820,75
650,37,10375,5307,820,84
651,52,10375,5307,820,23
652,69,10375,5307,820,76
653,3,10457,5252,819,67
654,19,10457,5252,819,46
655,35,10457,5252,819,41
656,51,10457,5252,819,70
657,67,10457,5252,819,72
658,0,10540,5262,819,44
659,16,10540,5262,819,81
660,32,10540,5262,819,25
661,48,10540,5262,819,33
662,64,10540,5262,819,47
663,80,10540,5262,819,34
664,16,10621,5187,818,77
665,32,10621,5187,818,75
666,48,10621,5187,818,40
667,64,10621,5187,818,67
668,80,10621,5187,818,30
669,14,10703,5155,818,99
670,30,10703,5155,818,54
671,46,10703,5155,818,69
672,62,10703,5155,818,73
673,78,10703,5155,818,56
674,12,10785,5211,820,123
675,28,10785,5211,820,60
676,44,10785,5211,820,47
677,60,10785,5211,820,78
678,76,10785,5211,820,61
679,8,10869,5259,822,82
680,24,10869,5259,822,107
681,40,10869,5259,822,91
682,57,10869,5259,822,79
683,73,10869,5259,822,87
684,6,10952,5262,824,106
685,23,10952,5262,824,116
686,39,10952,5262,824,100
687,55,10952,5262,824,101
688,71,10952,5262,824,84
689,2,11037,5287,827,70
690,18,11037,5287,827,130
691,34,11037,5287,827,114
692,50,11037,5287,827,124
693,66,11037,5287,827,58
694,82,11037,5287,827,85
695,14,11121,5354,829,181
696,31,11121,5354,829,94
697,47,11121,5354,829,114
698,63,11121,5354,829,93
699,79,11121,5354,829,74
700,95,11121,5354,829,102
701,12,11220,5471,845,166
702,28,11220,5471,845,70
703,44,11220,5471,845,122
704,60,11220,5471,845,150
705,76,11220,5471,845,84
706,92,11220,5471,845,97
707,108,11220,5471,845,73
708,16,11328,5640,871,139
709,32,11328,5640,871,145
710,48,11328,5640,871,154
711,64,11328,5640,871,97
712,80,11328,5640,871,129
713,6,11418,5696,878,95
714,22,11418,5696,878,109
715,38,11418,5696,878,123
716,54,11418,5696,878,93
717,70,11418,5696,878,117
718,86,11418,5696,878,126
719,12,11508,5764,887,197
720,28,11508,5764,887,175
721,44,11508,5764,887,161
722,61,11508,5764,887,99
723,77,11508,5764,887,105
724,1,11600,5852,897,100
725,16,11600,5852,897,105
726,32,11600,5852,897,28
727,48,11600,5852,897,90
728,64,11600,5852,897,38
729,80,11600,5852,897,16
730,4,11692,5917,907,25
731,20,11692,5917,907,73
732,37,11692,5917,907,65
733,52,11692,5917,907,31
734,69,11692,5917,907,42
735,85,11692,5917,907,20
736,10,11783,5974,914,72
737,26,11783,5974,914,49
738,42,11783,5974,914,82
739,58,11783,5974,914,72
740,74,11783,5974,914,65
741,90,11783,5974,914,26
742,15,11874,5993,922,37
743,31,11874,5993,922,70
744,47,11874,5993,922,77
745,63,11874,5993,922,31
746,79,11874,5993,922,64
747,2,11967,6023,930,60
748,18,11967,6023,930,87
749,34,11967,6023,930,66
750,50,11967,6023,930,45
751,66,11967,6023,930,71
752,82,11967,6023,930,48
753,4,12061,6064,940,62
754,20,12061,6064,940,117
755,36,12061,6064,940,75
756,52,12061,6064,940,79
757,68,12061,6064,940,46
758,84,12061,6064,940,46
759,7,12154,6006,934,95
760,23,12154,6006,934,68
761,39,12154,6006,934,87
762,55,12154,6006,934,98
763,72,12154,6006,934,84
764,87,12154,6006,934,61
765,12,12245,5980,917,55
766,29,12245,5980,917,132
767,45,12245,5980,917,62
768,60,12245,5980,917,105
769,77,12245,5980,917,91
770,1,12337,5987,919,61
771,16,12337,5987,919,129
772,33,12337,5987,919,151
773,49,12337,5987,919,116
774,65,12337,5987,919,60
775,80,12337,5987,919,72
776,6,12427,5981,919,73
777,22,12427,5981,919,94
778,39,12427,5981,919,86
779,55,12427,5981,919,67
780,71,12427,5981,919,67
781,86,12427,5981,919,79
782,10,12520,5964,920,126
783,25,12520,5964,920,111
784,42,12520,5964,920,117
785,57,12520,5964,920,82
786,74,12520,5964,920,82
787,90,12520,5964,920,76
788,15,12611,5976,919,167
789,30,12611,5976,919,107
790,46,12611,5976,919,158
791,62,12611,5976,919,107
792,78,12611,5976,919,122
793,3,12703,5947,920,143
794,19,12703,5947,920,174
795,35,12703,5947,920,180
796,51,12703,5947,920,171
797,67,12703,5947,920,161
798,83,12703,5947,920,118
799,8,12794,5977,920,101
800,24,12794,5977,920,118
801,40,12794,5977,920,108
802,56,12794,5977,920,101
803,72,12794,5977,920,126
804,88,12794,5977,920,120
805,12,12886,5985,919,80
806,28,12886,5985,919,74
807,44,12886,5985,919,82
808,60,12886,5985,919,43
809,76,12886,5985,919,55
810,2,12976,5941,915,37
811,18,12976,5941,915,101
812,34,12976,5941,915,86
813,50,12976,5941,915,56
814,66,12976,5941,915,47
815,82,12976,5941,915,58
816,7,13067,5928,913,26
817,23,13067,5928,913,66
818,39,13067,5928,913,84
819,55,13067,5928,913,65
820,71,13067,5928,913,37
821,87,13067,5928,913,43
822,13,13157,5876,912,60
823,29,13157,5876,912,70
824,45,13157,5876,912,39
825,61,13157,5876,912,49
826,77,13157,5876,912,77
827,3,13247,5855,910,65
828,19,13247,5855,910,41
829,35,13247,5855,910,69
830,52,13247,5855,910,77
831,68,13247,5855,910,83
832,83,13247,5855,910,61
833,11,13336,5891,909,86
834,27,13336,5891,909,76
835,43,13336,5891,909,92
836,59,13336,5891,909,74
837,74,13336,5891,909,71
838,91,13336,5891,909,83
839,16,13427,5898,907,68
840,32,13427,5898,907,102
841,48,13427,5898,907,86
842,64,13427,5898,907,58
843,80,13427,5898,907,68
844,6,13517,5845,906,91
845,22,13517,5845,906,131
846,38,13517,5845,906,106
847,54,13517,5845,906,71
848,70,13517,5845,906,65
849,86,13517,5845,906,76
850,13,13606,5825,903,146
851,29,13606,5825,903,82
852,45,13606,5825,903,76
853,61,13606,5825,903,100
854,77,13606,5825,903,58
855,6,13693,5761,899,142
856,22,13693,5761,899,65
857,38,13693,5761,899,81
858,55,13693,5761,899,67
859,71,13693,5761,899,68
860,87,13693,5761,899,82
861,14,13782,5775,896,141
862,30,13782,5775,896,135
863,46,13782,5775,896,102
864,62,13782,5775,896,112
865,78,13782,5775,896,90
866,6,13870,5823,894,99
867,22,13870,5823,894,140
868,38,13870,5823,894,140
869,54,13870,5823,894,90
870,70,13870,5823,894,105
871,87,13870,5823,894,90
872,14,13959,5772,892,94
873,30,13959,5772,892,102
874,46,13959,5772,892,146
875,61,13959,5772,892,89
876,78,13959,5772,892,111
877,5,14047,5799,890,87
878,22,14047,5799,890,167
879,37,14047,5799,890,177
880,54,14047,5799,890,103
881,69,14047,5799,890,90
882,85,14047,5799,890,131
883,12,14137,5796,890,147
884,28,14137,5796,890,182
885,44,14137,5796,890,108
886,60,14137,5796,890,161
887,75,14137,5796,890,98
888,3,14226,5812,890,56
889,19,14226,5812,890,57
890,35,14226,5812,890,77
891,51,14226,5812,890,43
892,67,14226,5812,890,68
893,83,14226,5812,890,55
894,10,14315,5798,888,118
895,26,14315,5798,888,82
896,42,14315,5798,888,85
897,58,14315,5798,888,61
898,74,14315,5798,888,53
899,3,14402,5699,885,52
900,19,14402,5699,885,65
901,35,14402,5699,885,70
902,51,14402,5699,885,68
903,67,14402,5699,885,39
904,83,14402,5699,885,43
905,10,14491,5679,885,37
906,26,14491,5679,885,73
907,42,14491,5679,885,31
908,58,14491,5679,885,64
909,74,14491,5679,885,52
910,2,14579,5706,886,73
911,18,14579,5706,886,37
912,34,14579,5706,886,63
913,50,14579,5706,886,43
914,66,14579,5706,886,37
915,83,14579,5706,886,69
916,7,14670,5691,888,61
917,23,14670,5691,888,56
918,39,14670,5691,888,43
919,55,14670,5691,888,87
920,71,14670,5691,888,78
921,0,14757,5667,887,70
922,17,14757,5667,887,120
923,33,14757,5667,887,86
924,48,14757,5667,887,64
925,64,14757,5667,887,52
926,81,14757,5667,887,71
927,6,14847,5647,888,107
928,23,14847,5647,888,134
929,38,14847,5647,888,84
930,55,14847,5647,888,102
931,70,14847,5647,888,62
932,86,14847,5647,888,57
933,15,14935,5582,888,72
934,31,14935,5582,888,101
935,46,14935,5582,888,79
936,63,14935,5582,888,102
937,79,14935,5582,888,90
938,4,15025,5603,888,73
939,20,15025,5603,888,110
940,36,15025,5603,888,103
941,52,15025,5603,888,66
942,68,15025,5603,888,76
943,84,15025,5603,888,102
944,12,15114,5574,888,207
945,28,15114,5574,888,79
946,44,15114,5574,888,80
947,60,15114,5574,888,152
948,76,15114,5574,888,83
949,2,15204,5594,889,92
950,18,15204,5594,889,112
951,34,15204,5594,889,90
952,50,15204,5594,889,79
953,66,15204,5594,889,89
954,82,15204,5594,889,82
955,10,15292,5604,890,196
956,26,15292,5604,890,81
957,42,15292,5604,890,157
958,58,15292,5604,890,113
959,74,15292,5604,890,139
960,90,15292,5604,890,100
961,14,15384,5611,893,108
962,30,15384,5611,893,163
963,46,15384,5611,893,136
964,62,15384,5611,893,124
965,78,15384,5611,893,144
966,5,15473,5634,894,159
967,21,15473,5634,894,190
968,37,15473,5634,894,111
969,53,15473,5634,894,144
970,69,15473,5634,894,100
971,85,15473,5634,894,126
972,10,15564,5645,894,89
973,26,15564,5645,894,67
974,42,15564,5645,894,65
975,58,15564,5645,894,19
976,74,15564,5645,894,30
977,3,15651,5675,894,44
978,19,15651,5675,894,56
979,35,15651,5675,894,69
980,51,15651,5675,894,28
981,67,15651,5675,894,57
982,83,15651,5675,894,50
983,10,15740,5732,893,54
984,26,15740,5732,893,72
985,42,15740,5732,893,56
986,58,15740,5732,893,35
987,74,15740,5732,893,26
988,3,15827,5781,892,71
989,19,15827,5781,892,68
990,35,15827,5781,892,64
991,51,15827,5781,892,75
992,67,15827,5781,892,41
993,83,15827,5781,892,34
994,9,15917,5811,892,67
995,25,15917,5811,892,36
996,41,15917,5811,892,65
997,57,15917,5811,892,79
998,73,15917,5811,892,47
999,2,16004,5826,890,45
1000,18,16004,5826,890,57
1001,34,16004,5826,890,86
1002,50,16004,5826,890,75
1003,66,16004,5826,890,70
1004,82,16004,5826,890,83
1005,9,16093,5815,889,132
1006,25,16093,5815,889,78
1007,41,16093,5815,889,67
1008,57,16093,5815,889,57
1009,73,16093,5815,889,54
1010,1,16181,5859,889,77
1011,17,16181,5859,889,110
1012,33,16181,5859,889,92
1013,49,16181,5859,889,61
1014,65,16181,5859,889,78
1015,81,16181,5859,889,73
1016,6,16272,5862,888,117
1017,22,16272,5862,888,127
1018,38,16272,5862,888,131
1019,54,16272,5862,888,86
1020,70,16272,5862,888,67
1021,86,16272,5862,888,73
1022,12,16362,5847,889,147
1023,28,16362,5847,889,122
1024,44,16362,5847,889,124
1025,60,16362,5847,889,88
1026,76,16362,5847,889,77
1027,0,16454,5846,890,85
1028,16,16454,5846,890,94
1029,32,16454,5846,890,156
1030,48,16454,5846,890,75
1031,64,16454,5846,890,119
1032,80,16454,5846,890,108
1033,7,16543,5804,892,97
1034,24,16543,5804,892,111
1035,40,16543,5804,892,107
1036,56,16543,5804,892,121
1037,72,16543,5804,892,110
1038,87,16543,5804,892,114
1039,12,16635,5743,895,117
1040,28,16635,5743,895,92
1041,44,16635,5743,895,83
1042,60,16635,5743,895,105
1043,76,16635,5743,895,90
1044,3,16724,5725,897,135
1045,19,16724,5725,897,137
1046,35,16724,5725,897,110
1047,51,16724,5725,897,87
1048,67,16724,5725,897,90
1049,83,16724,5725,897,145
1050,7,16816,5738,899,154
1051,23,16816,5738,899,168
1052,39,16816,5738,899,131
1053,55,16816,5738,899,118
1054,71,16816,5738,899,122
1055,87,16816,5738,899,112
1056,13,16906,5692,902,91
1057,29,16906,5692,902,104
1058,45,16906,5692,902,33
1059,61,16906,5692,902,75
1060,77,16906,5692,902,40
1061,3,16996,5670,903,78
1062,19,16996,5670,903,95
1063,35,16996,5670,903,28
1064,51,16996,5670,903,31
1065,67,16996,5670,903,35
1066,83,16996,5670,903,58
1067,13,17082,5695,901,43
1068,29,17082,5695,901,86
1069,45,17082,5695,901,75
1070,61,17082,5695,901,46
1071,77,17082,5695,901,53
1072,3,17172,5757,900,75
1073,19,17172,5757,900,46
1074,35,17172,5757,900,45
1075,51,17172,5757,900,87
1076,67,17172,5757,900,59
1077,83,17172,5757,900,60
1078,11,17260,5734,898,97
1079,27,17260,5734,898,37
1080,43,17260,5734,898,95
1081,59,17260,5734,898,69
1082,75,17260,5734,898,63
1083,91,17260,5734,898,61
1084,16,17351,5726,897,70
1085,32,17351,5726,897,77
1086,48,17351,5726,897,65
1087,64,17351,5726,897,46
1088,80,17351,5726,897,84
1089,7,17440,5803,897,119
1090,23,17440,5803,897,122
1091,39,17440,5803,897,118
1092,55,17440,5803,897,80
1093,71,17440,5803,897,62
1094,87,17440,5803,897,71
1095,12,17531,5791,896,61
1096,28,17531,5791,896,115
1097,44,17531,5791,896,75
1098,60,17531,5791,896,95
1099,76,17531,5791,896,69
1100,3,17620,5794,896,69
1101,19,17620,5794,896,89
1102,35,17620,5794,896,73
1103,51,17620,5794,896,100
1104,67,17620,5794,896,103
1105,83,17620,5794,896,93
1106,8,17711,5803,895,106
1107,24,17711,5803,895,152
1108,40,17711,5803,895,127
1109,56,17711,5803,895,84
1110,72,17711,5803,895,90
1111,88,17711,5803,895,69
1112,16,17799,5768,893,174
1113,32,17799,5768,893,132
1114,48,17799,5768,893,117
1115,64,17799,5768,893,71
1116,80,17799,5768,893,98
1117,6,17889,5774,893,108
1118,22,17889,5774,893,81
1119,38,17889,5774,893,127
1120,54,17889,5774,893,98
1121,70,17889,5774,893,112
1122,86,17889,5774,893,116
1123,13,17978,5716,896,168
1124,29,17978,5716,896,134
1125,45,17978,5716,896,131
1126,61,17978,5716,896,83
1127,77,17978,5716,896,106
1128,3,18068,5681,896,140
1129,19,18068,5681,896,100
1130,36,18068,5681,896,166
1131,51,18068,5681,896,150
1132,67,18068,5681,896,112
1133,83,18068,5681,896,94
1134,11,18157,5703,897,187
1135,27,18157,5703,897,134
1136,43,18157,5703,897,93
1137,59,18157,5703,897,136
1138,75,18157,5703,897,147
1139,1,18246,5719,895,31
1140,17,18246,5719,895,21
1141,33,18246,5719,895,27
1142,49,18246,5719,895,62
1143,65,18246,5719,895,72
1144,81,18246,5719,895,41
1145,10,18333,5665,893,24
1146,26,18333,5665,893,19
1147,42,18333,5665,893,52
1148,58,18333,5665,893,58
1149,74,18333,5665,893,39
1150,2,18421,5695,890,47
1151,18,18421,5695,890,40
1152,34,18421,5695,890,65
1153,50,18421,5695,890,60
1154,66,18421,5695,890,63
1155,82,18421,5695,890,32
1156,11,18508,5705,888,113
1157,27,18508,5705,888,97
1158,43,18508,5705,888,43
1159,59,18508,5705,888,34
1160,75,18508,5705,888,40
1161,3,18596,5635,885,97
1162,19,18596,5635,885,74
1163,35,18596,5635,885,43
1164,51,18596,5635,885,79
1165,67,18596,5635,885,53
1166,83,18596,5635,885,45
1167,13,18682,5620,883,43
1168,30,18682,5620,883,104
1169,46,18682,5620,883,100
1170,62,18682,5620,883,72
1171,78,18682,5620,883,79
1172,7,18769,5615,880,109
1173,23,18769,5615,880,78
1174,39,18769,5615,880,89
1175,54,18769,5615,880,95
1176,71,18769,5615,880,52
1177,3,18853,5605,875,75
1178,18,18853,5605,875,54
1179,34,18853,5605,875,65
1180,51,18853,5605,875,95
1181,66,18853,5605,875,70
1182,83,18853,5605,875,63
1183,11,18940,5628,872,141
1184,28,18940,5628,872,107
1185,44,18940,5628,872,99
1186,60,18940,5628,872,66
1187,76,18940,5628,872,99
1188,5,19027,5629,870,96
1189,21,19027,5629,870,114
1190,37,19027,5629,870,122
1191,53,19027,5629,870,92
1192,69,19027,5629,870,76
1193,85,19027,5629,870,99
1194,13,19115,5599,869,84
1195,29,19115,5599,869,157
1196,45,19115,5599,869,136
1197,61,19115,5599,869,138
1198,77,19115,5599,869,115
1199,6,19202,5544,869,111
1200,22,19202,5544,869,129
1201,38,19202,5544,869,92
1202,54,19202,5544,869,143
1203,70,19202,5544,869,119
1204,86,19202,5544,869,87
1205,15,19289,5533,868,95
1206,31,19289,5533,868,180
1207,47,19289,5533,868,107
1208,63,19289,5533,868,141
1209,79,19289,5533,868,109
1210,10,19374,5528,866,135
1211,26,19374,5528,866,212
1212,42,19374,5528,866,95
1213,58,19374,5528,866,185
1214,74,19374,5528,866,96
1215,2,19462,5561,866,144
1216,18,19462,5561,866,199
1217,34,19462,5561,866,187
1218,50,19462,5561,866,159
1219,66,19462,5561,866,144
1220,82,19462,5561,866,163
1221,12,19548,5565,866,61
1222,28,19548,5565,866,93
1223,44,19548,5565,866,45
1224,60,19548,5565,866,27
1225,76,19548,5565,866,21
1226,6,19634,5572,865,58
1227,22,19634,5572,865,44
1228,38,19634,5572,865,109
1229,54,19634,5572,865,30
1230,70,19634,5572,865,66
1231,2,19718,5565,865,52
1232,18,19718,5565,865,76
1233,34,19718,5565,865,34
1234,50,19718,5565,865,26
1235,66,19718,5565,865,30
1236,82,19718,5565,865,39
1237,4,19812,5605,872,78
1238,20,19812,5605,872,51
1239,36,19812,5605,872,103
1240,52,19812,5605,872,52
1241,68,19812,5605,872,65
1242,84,19812,5605,872,54
1243,100,19812,5605,872,35
1244,116,19812,5605,872,55
1245,13,19931,5760,904,110
1246,29,19931,5760,904,60
1247,45,19931,5760,904,60
1248,61,19931,5760,904,52
1249,77,19931,5760,904,69
1250,93,19931,5760,904,70
1251,15,20025,5791,910,98
1252,31,20025,5791,910,78
1253,47,20025,5791,910,64
1254,63,20025,5791,910,56
1255,80,20025,5791,910,70
1256,6,20115,5832,913,97
1257,22,20115,5832,913,128
1258,38,20115,5832,913,103
1259,54,20115,5832,913,105
1260,70,20115,5832,913,51
1261,86,20115,5832,913,70
1262,9,20208,5864,919,102
1263,25,20208,5864,919,53
1264,41,20208,5864,919,58
1265,57,20208,5864,919,103
1266,73,20208,5864,919,89
1267,89,20208,5864,919,56
1268,13,20300,5944,926,163
1269,29,20300,5944,926,79
1270,45,20300,5944,926,118
1271,61,20300,5944,926,84
1272,77,20300,5944,926,112
1273,93,20300,5944,926,87
1274,15,20394,6027,932,135
1275,31,20394,6027,932,121
1276,47,20394,6027,932,121
1277,63,20394,6027,932,84
1278,79,20394,6027,932,65
1279,1,20488,6076,940,89
1280,17,20488,6076,940,139
1281,33,20488,6076,940,111
1282,50,20488,6076,940,113
1283,65,20488,6076,940,130
1284,82,20488,6076,940,71
1285,2,20584,6134,950,122
1286,18,20584,6134,950,126
1287,34,20584,6134,950,177
1288,50,20584,6134,950,125
1289,65,20584,6134,950,91
1290,82,20584,6134,950,99
1291,2,20679,6253,961,92
1292,19,20679,6253,961,103
1293,35,20679,6253,961,119
1294,51,20679,6253,961,136
1295,67,20679,6253,961,96
1296,82,20679,6253,961,119
1297,1,20776,6228,964,92
1298,17,20776,6228,964,88
1299,34,20776,6228,964,104
1300,49,20776,6228,964,118
1301,65,20776,6228,964,128
1302,82,20776,6228,964,122
1303,0,20873,6105,942,128
1304,16,20873,6105,942,123
1305,32,20873,6105,942,162
1306,48,20873,6105,942,183
1307,65,20873,6105,942,98
1308,80,20873,6105,942,145
1309,1,20969,6132,944,14
1310,16,20969,6132,944,67
1311,33,20969,6132,944,26
1312,49,20969,6132,944,24
1313,65,20969,6132,944,53
1314,80,20969,6132,944,18
1315,5,21060,6174,945,55
1316,22,21060,6174,945,91
1317,37,21060,6174,945,51
1318,54,21060,6174,945,52
1319,70,21060,6174,945,52
1320,86,21060,6174,945,29
1321,8,21154,6250,946,82
1322,24,21154,6250,946,32
1323,40,21154,6250,946,32
1324,56,21154,6250,946,31
1325,72,21154,6250,946,31
1326,88,21154,6250,946,45
1327,13,21245,6190,945,83
1328,29,21245,6190,945,117
1329,45,21245,6190,945,77
1330,61,21245,6190,945,63
1331,77,21245,6190,945,60
1332,93,21245,6190,945,48
1333,8,21346,6193,952,116
1334,24,21346,6193,952,79
1335,40,21346,6193,952,74
1336,56,21346,6193,952,98
1337,72,21346,6193,952,36
1338,88,21346,6193,952,61
1339,11,21439,6193,951,66
1340,27,21439,6193,951,58
1341,43,21439,6193,951,72
1342,59,21439,6193,951,44
1343,75,21439,6193,951,78
1344,91,21439,6193,951,71
1345,13,21533,6181,949,65
1346,29,21533,6181,949,114
1347,45,21533,6181,949,60
1348,61,21533,6181,949,66
1349,77,21533,6181,949,70
1350,1,21625,6106,946,71
1351,17,21625,6106,946,106
1352,33,21625,6106,946,98
1353,49,21625,6106,946,61
1354,65,21625,6106,946,63
1355,81,21625,6106,946,82
1356,3,21719,6112,943,110
1357,19,21719,6112,943,85
1358,35,21719,6112,943,73
1359,51,21719,6112,943,105
1360,67,21719,6112,943,63
1361,83,21719,6112,943,88
1362,7,21811,6062,938,118
1363,23,21811,6062,938,89
1364,39,21811,6062,938,65
1365,55,21811,6062,938,65
1366,71,21811,6062,938,105
1367,87,21811,6062,938,100
1368,9,21905,6013,936,116
1369,25,21905,6013,936,127
1370,41,21905,6013,936,143
1371,57,21905,6013,936,121
1372,73,21905,6013,936,83
1373,89,21905,6013,936,71
1374,13,21997,6049,937,162
1375,29,21997,6049,937,152
1376,45,21997,6049,937,142
1377,61,21997,6049,937,139
1378,77,21997,6049,937,120
1379,93,21997,6049,937,110
1380,16,22090,6004,936,108
1381,32,22090,6004,936,86
1382,48,22090,6004,936,82
1383,64,22090,6004,936,95
1384,80,22090,6004,936,135
1385,3,22183,5999,938,106
1386,19,22183,5999,938,158
1387,35,22183,5999,938,128
1388,51,22183,5999,938,114
1389,67,22183,5999,938,137
1390,83,22183,5999,938,103
1391,6,22276,6029,930,105
1392,22,22276,6029,930,154
1393,38,22276,6029,930,114
1394,54,22276,6029,930,125
1395,70,22276,6029,930,116
1396,86,22276,6029,930,144
1397,10,22368,6031,929,137
1398,26,22368,6031,929,185
1399,42,22368,6031,929,102
1400,58,22368,6031,929,121
1401,74,22368,6031,929,101
1402,91,22368,6031,929,131
1403,13,22461,6044,928,39
1404,29,22461,6044,928,97
1405,45,22461,6044,928,89
1406,61,22461,6044,928,57
1407,77,22461,6044,928,18
1408,3,22551,6057,926,49
1409,20,22551,6057,926,24
1410,36,22551,6057,926,72
1411,51,22551,6057,926,65
1412,67,22551,6057,926,21
1413,83,22551,6057,926,45
1414,9,22641,6023,922,38
1415,26,22641,6023,922,57
1416,41,22641,6023,922,42
1417,57,22641,6023,922,78
1418,73,22641,6023,922,46
1419,0,22730,5985,919,49
1420,16,22730,5985,919,98
1421,32,22730,5985,919,90
1422,49,22730,5985,919,62
1423,64,22730,5985,919,40
1424,80,22730,5985,919,49
1425,6,22821,6006,916,79
1426,21,22821,6006,916,88
1427,37,22821,6006,916,40
1428,54,22821,6006,916,60
1429,70,22821,6006,916,71
1430,86,22821,6006,916,66
1431,12,22911,5937,914,92
1432,28,22911,5937,914,61
1433,44,22911,5937,914,58
1434,60,22911,5937,914,79
1435,76,22911,5937,914,90
1436,1,23002,5928,912,72
1437,17,23002,5928,912,107
1438,33,23002,5928,912,88
1439,49,23002,5928,912,48
1440,65,23002,5928,912,60
1441,81,23002,5928,912,81
1442,7,23092,5929,909,112
1443,23,23092,5929,909,86
1444,39,23092,5929,909,57
1445,55,23092,5929,909,62
1446,71,23092,5929,909,105
1447,87,23092,5929,909,61
1448,9,23186,5827,910,60
1449,25,23186,5827,910,84
1450,41,23186,5827,910,65
1451,57,23186,5827,910,96
1452,73,23186,5827,910,63
1453,89,23186,5827,910,95
1454,15,23276,5774,908,100
1455,31,23276,5774,908,111
1456,47,23276,5774,908,68
1457,63,23276,5774,908,67
1458,79,23276,5774,908,79
1459,3,23368,5744,907,133
1460,19,23368,5744,907,117
1461,35,23368,5744,907,98
1462,51,23368,5744,907,111
1463,67,23368,5744,907,91
1464,83,23368,5744,907,76
1465,9,23458,5698,907,106
1466,25,23458,5698,907,88
1467,42,23458,5698,907,104
1468,57,23458,5698,907,133
1469,74,23458,5698,907,101
1470,89,23458,5698,907,109
1471,15,23549,5675,908,129
1472,31,23549,5675,908,156
1473,46,23549,5675,908,128
1474,62,23549,5675,908,134
1475,78,23549,5675,908,124
1476,6,23638,5725,908,170
1477,22,23638,5725,908,167
1478,38,23638,5725,908,181
1479,54,23638,5725,908,103
1480,70,23638,5725,908,88
1481,85,23638,5725,908,113
1482,11,23729,5704,908,225
1483,26,23729,5704,908,106
1484,43,23729,5704,908,116
1485,59,23729,5704,908,134
1486,75,23729,5704,908,159
1487,2,23817,5695,906,163
1488,18,23817,5695,906,136
1489,35,23817,5695,906,136
1490,50,23817,5695,906,112
1491,66,23817,5695,906,183
1492,83,23817,5695,906,110
1493,7,23908,5738,906,110
1494,23,23908,5738,906,27
1495,39,23908,5738,906,70
1496,55,23908,5738,906,72
1497,71,23908,5738,906,47
1498,87,23908,5738,906,43
1499,15,23996,5729,904,29
1500,31,23996,5729,904,37
1501,47,23996,5729,904,76
1502,63,23996,5729,904,36
1503,79,23996,5729,904,61
1504,5,24086,5778,900,79
1505,21,24086,5778,900,79
1506,37,24086,5778,900,93
1507,53,24086,5778,900,26
1508,69,24086,5778,900,25
1509,85,24086,5778,900,69
1510,12,24175,5744,899,123
1511,28,24175,5744,899,39
1512,44,24175,5744,899,61
1513,60,24175,5744,899,43
1514,76,24175,5744,899,39
1515,92,24175,5744,899,41
1516,14,24269,5758,901,111
1517,30,24269,5758,901,87
1518,46,24269,5758,901,59
1519,62,24269,5758,901,76
1520,78,24269,5758,901,45
1521,4,24359,5778,901,87
1522,20,24359,5778,901,43
1523,36,24359,5778,901,76
1524,52,24359,5778,901,65
1525,68,24359,5778,901,60
1526,84,24359,5778,901,65
1527,9,24450,5809,901,135
1528,25,24450,5809,901,106
1529,41,24450,5809,901,111
1530,57,24450,5809,901,86
1531,73,24450,5809,901,53
1532,89,24450,5809,901,84
1533,15,24540,5768,902,146
1534,32,24540,5768,902,121
1535,48,24540,5768,902,122
1536,64,24540,5768,902,77
1537,80,24540,5768,902,55
1538,5,24631,5752,902,104
1539,21,24631,5752,902,138
1540,37,24631,5752,902,122
1541,53,24631,5752,902,127
1542,69,24631,5752,902,97
1543,85,24631,5752,902,83
1544,12,24720,5747,903,160
1545,28,24720,5747,903,96
1546,44,24720,5747,903,136
1547,60,24720,5747,903,121
1548,76,24720,5747,903,103
1549,0,24812,5735,904,84
1550,16,24812,5735,904,161
1551,32,24812,5735,904,85
1552,48,24812,5735,904,125
1553,64,24812,5735,904,106
1554,80,24812,5735,904,79
1555,7,24901,5739,905,133
1556,23,24901,5739,905,77
1557,39,24901,5739,905,115
1558,55,24901,5739,905,98
1559,71,24901,5739,905,130
1560,87,24901,5739,905,123
1561,13,24991,5729,905,174
1562,29,24991,5729,905,169
1563,45,24991,5729,905,96
1564,61,24991,5729,905,126
1565,77,24991,5729,905,127
1566,4,25080,5762,905,91
1567,20,25080,5762,905,134
1568,36,25080,5762,905,133
1569,52,25080,5762,905,142
1570,68,25080,5762,905,133
1571,84,25080,5762,905,129
1572,10,25170,5718,901,191
1573,26,25170,5718,901,149
1574,43,25170,5718,901,131
1575,59,25170,5718,901,124
1576,75,25170,5718,901,139
1577,0,25260,5690,901,116
1578,17,25260,5690,901,212
1579,32,25260,5690,901,133
1580,49,25260,5690,901,158
1581,65,25260,5690,901,175
1582,81,25260,5690,901,153
1583,6,25351,5714,901,70
1584,22,25351,5714,901,24
1585,38,25351,5714,901,53
1586,54,25351,5714,901,24
1587,70,25351,5714,901,28
1588,86,25351,5714,901,19
1589,14,25440,5688,900,77
1590,29,25440,5688,900,64
1591,46,25440,5688,900,82
1592,61,25440,5688,900,44
1593,78,25440,5688,900,33
1594,4,25530,5708,899,45
1595,20,25530,5708,899,35
1596,36,25530,5708,899,101
1597,52,25530,5708,899,30
1598,68,25530,5708,899,31
1599,84,25530,5708,899,48
1600,12,25618,5717,898,104
1601,28,25618,5717,898,85
1602,44,25618,5717,898,43
1603,60,25618,5717,898,41
1604,76,25618,5717,898,55
1605,2,25708,5694,896,74
1606,18,25708,5694,896,53
1607,34,25708,5694,896,69
1608,50,25708,5694,896,49
1609,66,25708,5694,896,81
1610,82,25708,5694,896,67
1611,11,25795,5712,894,95
1612,27,25795,5712,894,109
1613,43,25795,5712,894,84
1614,59,25795,5712,894,48
1615,75,25795,5712,894,81
1616,3,25883,5740,892,86
1617,19,25883,5740,892,100
1618,35,25883,5740,892,51
1619,51,25883,5740,892,54
1620,67,25883,5740,892,49
1621,83,25883,5740,892,55
1622,12,25970,5731,890,66
1623,28,25970,5731,890,76
1624,44,25970,5731,890,105
1625,60,25970,5731,890,78
1626,76,25970,5731,890,64
1627,4,26058,5764,888,78
1628,20,26058,5764,888,133
1629,36,26058,5764,888,114
1630,52,26058,5764,888,124
1631,68,26058,5764,888,91
1632,84,26058,5764,888,67
1633,14,26144,5714,884,87
1634,30,26144,5714,884,96
1635,46,26144,5714,884,114
1636,62,26144,5714,884,88
1637,78,26144,5714,884,79
1638,7,26231,5676,880,97
1639,23,26231,5676,880,96
1640,39,26231,5676,880,114
1641,55,26231,5676,880,111
1642,71,26231,5676,880,89
1643,0,26318,5718,878,85
1644,16,26318,5718,878,136
1645,32,26318,5718,878,127
1646,48,26318,5718,878,120
1647,64,26318,5718,878,91
1648,80,26318,5718,878,122
1649,9,26405,5722,875,117
1650,25,26405,5722,875,148
1651,41,26405,5722,875,129
1652,57,26405,5722,875,109
1653,73,26405,5722,875,110
1654,0,26494,5711,876,113
1655,16,26494,5711,876,103
1656,32,26494,5711,876,150
1657,48,26494,5711,876,164
1658,64,26494,5711,876,106
1659,80,26494,5711,876,96
1660,9,26581,5737,873,158
1661,25,26581,5737,873,106
1662,41,26581,5737,873,139
1663,57,26581,5737,873,156
1664,73,26581,5737,873,166
1665,2,26668,5667,873,133
1666,18,26668,5667,873,197
1667,34,26668,5667,873,193
1668,50,26668,5667,873,154
1669,66,26668,5667,873,133
1670,83,26668,5667,873,147
1671,10,26756,5635,873,86
1672,26,26756,5635,873,88
1673,42,26756,5635,873,20
1674,58,26756,5635,873,72
1675,74,26756,5635,873,16
1676,3,26843,5634,873,26
1677,19,26843,5634,873,43
1678,35,26843,5634,873,22
1679,51,26843,5634,873,28
1680,67,26843,5634,873,69
1681,83,26843,5634,873,63
1682,11,26931,5607,873,50
1683,27,26931,5607,873,102
1684,43,26931,5607,873,88
1685,59,26931,5607,873,45
1686,75,26931,5607,873,47
1687,4,27018,5634,874,97
1688,20,27018,5634,874,117
1689,36,27018,5634,874,94
1690,52,27018,5634,874,93
1691,68,27018,5634,874,71
1692,84,27018,5634,874,62
1693,10,27108,5635,877,54
1694,26,27108,5635,877,103
1695,42,27108,5635,877,86
1696,58,27108,5635,877,37
1697,74,27108,5635,877,84
1698,2,27196,5618,878,91
1699,18,27196,5618,878,62
1700,34,27196,5618,878,58
1701,50,27196,5618,878,65
1702,66,27196,5618,878,62
1703,82,27196,5618,878,75
1704,7,27287,5617,882,59
1705,23,27287,5617,882,99
1706,39,27287,5617,882,101
1707,55,27287,5617,882,99
1708,71,27287,5617,882,50
1709,87,27287,5617,882,66
1710,13,27377,5600,883,134
1711,29,27377,5600,883,102
1712,45,27377,5600,883,110
1713,61,27377,5600,883,80
1714,77,27377,5600,883,67
1715,2,27468,5624,887,61
1716,18,27468,5624,887,96
1717,34,27468,5624,887,131
1718,50,27468,5624,887,117
1719,66,27468,5624,887,74
1720,82,27468,5624,887,105
1721,8,27558,5627,890,139
1722,24,27558,5627,890,85
1723,40,27558,5627,890,111
1724,56,27558,5627,890,72
1725,72,27558,5627,890,79
1726,88,27558,5627,890,93
1727,12,27650,5649,894,101
1728,28,27650,5649,894,95
1729,44,27650,5649,894,123
1730,60,27650,5649,894,113
1731,76,27650,5649,894,89
1732,1,27741,5686,898,120
1733,17,27741,5686,898,163
1734,33,27741,5686,898,137
1735,49,27741,5686,898,117
1736,65,27741,5686,898,133
1737,81,27741,5686,898,89
1738,4,27834,5662,903,112
1739,20,27834,5662,903,109
1740,36,27834,5662,903,140
1741,52,27834,5662,903,85
1742,68,27834,5662,903,136
1743,84,27834,5662,903,100
1744,9,27925,5685,907,190
1745,25,27925,5685,907,114
1746,41,27925,5685,907,146
1747,57,27925,5685,907,110
1748,73,27925,5685,907,128
1749,89,27925,5685,907,98
1750,13,28017,5729,909,99
1751,29,28017,5729,909,93
1752,45,28017,5729,909,125
1753,61,28017,5729,909,129
1754,77,28017,5729,909,117
1755,1,28109,5763,913,148
1756,17,28109,5763,913,151
1757,33,28109,5763,913,112
1758,49,28109,5763,913,170
1759,65,28109,5763,913,137
1760,81,28109,5763,913,159
1761,5,28202,5774,915,13
1762,21,28202,5774,915,104
1763,37,28202,5774,915,45
1764,53,28202,5774,915,16
1765,69,28202,5774,915,25
1766,85,28202,5774,915,23
1767,9,28294,5742,917,39
1768,25,28294,5742,917,31
1769,41,28294,5742,917,50
1770,57,28294,5742,917,23
1771,73,28294,5742,917,52
1772,89,28294,5742,917,35
1773,14,28385,5738,917,86
1774,30,28385,5738,917,48
1775,46,28385,5738,917,59
1776,62,28385,5738,917,57
1777,78,28385,5738,917,45
1778,4,28475,5759,917,73
1779,20,28475,5759,917,81
1780,36,28475,5759,917,72
1781,52,28475,5759,917,82
1782,68,28475,5759,917,82
1783,84,28475,5759,917,44
1784,8,28567,5770,917,76
1785,24,28567,5770,917,38
1786,40,28567,5770,917,111
1787,56,28567,5770,917,73
1788,72,28567,5770,917,78
1789,88,28567,5770,917,54
1790,12,28659,5799,918,139
1791,28,28659,5799,918,77
1792,44,28659,5799,918,63
1793,60,28659,5799,918,73
1794,76,28659,5799,918,43
1795,2,28750,5807,916,79
1796,18,28750,5807,916,61
1797,34,28750,5807,916,76
1798,50,28750,5807,916,115
1799,66,28750,5807,916,57
1800,82,28750,5807,916,72
1801,7,28840,5790,915,129
1802,24,28840,5790,915,68
1803,40,28840,5790,915,113
1804,55,28840,5790,915,108
1805,71,28840,5790,915,59
1806,88,28840,5790,915,69
1807,13,28931,5856,914,149
1808,29,28931,5856,914,115
1809,45,28931,5856,914,124
1810,61,28931,5856,914,115
1811,77,28931,5856,914,77
1812,1,29023,5828,914,103
1813,17,29023,5828,914,125
1814,33,29023,5828,914,74
1815,49,29023,5828,914,125
1816,65,29023,5828,914,117
1817,81,29023,5828,914,111
1818,7,29113,5848,911,78
1819,23,29113,5848,911,132
1820,39,29113,5848,911,108
1821,55,29113,5848,911,129
1822,71,29113,5848,911,81
1823,87,29113,5848,911,124
1824,13,29203,5879,909,99
1825,29,29203,5879,909,137
1826,45,29203,5879,909,93
1827,61,29203,5879,909,139
1828,77,29203,5879,909,103
1829,2,29294,5921,909,136
1830,18,29294,5921,909,106
1831,34,29294,5921,909,105
1832,50,29294,5921,909,116
1833,66,29294,5921,909,137
1834,82,29294,5921,909,114
1835,8,29384,5956,909,115
1836,24,29384,5956,909,122
1837,40,29384,5956,909,125
1838,56,29384,5956,909,150
1839,72,29384,5956,909,133
1840,88,29384,5956,909,123
1841,15,29474,5971,907,149
1842,31,29474,5971,907,98
1843,47,29474,5971,907,176
1844,63,29474,5971,907,144
1845,79,29474,5971,907,155
1846,5,29564,5927,905,103
1847,21,29564,5927,905,200
1848,37,29564,5927,905,122
1849,53,29564,5927,905,147
1850,69,29564,5927,905,134
1851,85,29564,5927,905,130
1852,10,29655,5915,905,34
1853,26,29655,5915,905,73
1854,42,29655,5915,905,96
1855,58,29655,5915,905,41
1856,74,29655,5915,905,77
1857,1,29744,5936,904,41
1858,17,29744,5936,904,64
1859,33,29744,5936,904,60
1860,49,29744,5936,904,80
1861,65,29744,5936,904,24
1862,81,29744,5936,904,43
1863,9,29832,5875,901,114
1864,25,29832,5875,901,49
1865,41,29832,5875,901,26
1866,57,29832,5875,901,37
1867,73,29832,5875,901,69
1868,2,29919,5865,896,51
1869,18,29919,5865,896,72
1870,34,29919,5865,896,64
1871,50,29919,5865,896,72
1872,66,29919,5865,896,66
1873,82,29919,5865,896,76
1874,9,30008,5888,895,94
1875,25,30008,5888,895,47
1876,41,30008,5888,895,40
1877,57,30008,5888,895,67
1878,73,30008,5888,895,56
1879,1,30096,5884,893,58
1880,17,30096,5884,893,120
1881,33,30096,5884,893,44
1882,49,30096,5884,893,80
1883,65,30096,5884,893,48
1884,81,30096,5884,893,72
1885,8,30185,5823,891,72
1886,24,30185,5823,891,47
1887,40,30185,5823,891,70
1888,56,30185,5823,891,78
1889,72,30185,5823,891,70
1890,88,30185,5823,891,60
1891,15,30274,5775,890,106
1892,31,30274,5775,890,73
1893,47,30274,5775,890,75
1894,63,30274,5775,890,107
1895,79,30274,5775,890,90
1896,7,30362,5756,888,91
1897,23,30362,5756,888,120
1898,39,30362,5756,888,97
1899,55,30362,5756,888,70
1900,71,30362,5756,888,82
1901,87,30362,5756,888,68
1902,15,30450,5740,886,118
1903,32,30450,5740,886,84
1904,48,30450,5740,886,72
1905,64,30450,5740,886,101
1906,80,30450,5740,886,75
1907,8,30538,5738,883,160
1908,24,30538,5738,883,166
1909,40,30538,5738,883,71
1910,56,30538,5738,883,105
1911,72,30538,5738,883,83
1912,1,30625,5731,881,78
1913,17,30625,5731,881,90
1914,33,30625,5731,881,98
1915,49,30625,5731,881,118
1916,65,30625,5731,881,95
1917,81,30625,5731,881,79
1918,10,30712,5715,880,114
1919,26,30712,5715,880,87
1920,42,30712,5715,880,92
1921,58,30712,5715,880,127
1922,74,30712,5715,880,130
1923,3,30799,5677,880,128
1924,19,30799,5677,880,188
1925,35,30799,5677,880,121
1926,51,30799,5677,880,153
1927,67,30799,5677,880,135
1928,83,30799,5677,880,108
1929,10,30888,5673,880,106
1930,26,30888,5673,880,147
1931,42,30888,5673,880,147
1932,58,30888,5673,880,152
1933,74,30888,5673,880,96
1934,3,30975,5660,879,144
1935,19,30975,5660,879,111
1936,35,30975,5660,879,199
1937,52,30975,5660,879,173
1938,68,30975,5660,879,156
1939,84,30975,5660,879,117
1940,13,31062,5612,877,208
1941,29,31062,5612,877,149
1942,45,31062,5612,877,113
1943,61,31062,5612,877,172
1944,77,31062,5612,877,164
1945,6,31148,5601,874,50
1946,22,31148,5601,874,15
1947,38,31148,5601,874,68
1948,54,31148,5601,874,29
1949,70,31148,5601,874,36
1950,0,31234,5585,872,32
1951,16,31234,5585,872,69
1952,32,31234,5585,872,47
1953,48,31234,5585,872,54
1954,64,31234,5585,872,26
1955,80,31234,5585,872,56
1956,10,31320,5605,870,77
1957,26,31320,5605,870,85
1958,42,31320,5605,870,36
1959,58,31320,5605,870,85
1960,74,31320,5605,870,72
1961,3,31407,5582,869,52
1962,19,31407,5582,869,106
1963,35,31407,5582,869,59
1964,51,31407,5582,869,63
1965,67,31407,5582,869,58
1966,83,31407,5582,869,61
1967,12,31494,5534,869,107
1968,28,31494,5534,869,86
1969,44,31494,5534,869,54
1970,60,31494,5534,869,65
1971,76,31494,5534,869,76
1972,4,31582,5518,870,94
1973,20,31582,5518,870,76
1974,37,31582,5518,870,52
1975,53,31582,5518,870,71
1976,69,31582,5518,870,81
1977,85,31582,5518,870,50
1978,13,31670,5620,871,90
1979,29,31670,5620,871,115
1980,45,31670,5620,871,81
1981,61,31670,5620,871,76
1982,77,31670,5620,871,86
1983,3,31760,5590,872,82
1984,19,31760,5590,872,52
1985,35,31760,5590,872,83
1986,51,31760,5590,872,78
1987,67,31760,5590,872,61
1988,83,31760,5590,872,70
1989,9,31850,5631,875,58
1990,25,31850,5631,875,60
1991,41,31850,5631,875,76
1992,57,31850,5631,875,110
1993,73,31850,5631,875,80
1994,89,31850,5631,875,61
1995,15,31940,5631,878,114
1996,31,31940,5631,878,66
1997,47,31940,5631,878,135
1998,63,31940,5631,878,71
1999,79,31940,5631,878,111
2000,6,32029,5691,881,157
2001,22,32029,5691,881,123
2002,38,32029,5691,881,148
2003,54,32029,5691,881,116
2004,70,32029,5691,881,122
2005,86,32029,5691,881,89
2006,12,32119,5741,885,153
2007,28,32119,5741,885,152
2008,44,32119,5741,885,151
2009,60,32119,5741,885,100
2010,76,32119,5741,885,82
2011,3,32208,5747,888,117
2012,19,32208,5747,888,82
2013,35,32208,5747,888,89
2014,51,32208,5747,888,105
2015,67,32208,5747,888,92
2016,83,32208,5747,888,85
2017,9,32299,5764,892,175
2018,24,32299,5764,892,144
2019,41,32299,5764,892,141
2020,57,32299,5764,892,111
2021,73,32299,5764,892,112
2022,88,32299,5764,892,125
2023,15,32389,5805,895,128
2024,31,32389,5805,895,156
2025,47,32389,5805,895,168
2026,63,32389,5805,895,162
2027,79,32389,5805,895,113
2028,3,32481,5865,899,113
2029,19,32481,5865,899,200
2030,35,32481,5865,899,193
2031,51,32481,5865,899,99
2032,67,32481,5865,899,116
2033,83,32481,5865,899,107
2034,11,32569,5826,899,148
2035,27,32569,5826,899,127
2036,43,32569,5826,899,109
2037,59,32569,5826,899,169
2038,75,32569,5826,899,119
2039,91,32569,5826,899,136
2040,15,32660,5791,900,82
2041,31,32660,5791,900,33
2042,47,32660,5791,900,15
2043,63,32660,5791,900,78
2044,79,32660,5791,900,24
2045,8,32747,5794,897,43
2046,25,32747,5794,897,53
2047,41,32747,5794,897,72
2048,57,32747,5794,897,53
2049,73,32747,5794,897,25
2050,89,32747,5794,897,54
2051,16,32836,5751,896,119
2052,32,32836,5751,896,99
2053,48,32836,5751,896,36
2054,64,32836,5751,896,82
2055,80,32836,5751,896,56
2056,9,32923,5703,894,39
2057,25,32923,5703,894,65
2058,41,32923,5703,894,33
2059,57,32923,5703,894,89
2060,73,32923,5703,894,31
2061,0,33012,5693,893,37
2062,16,33012,5693,893,49
2063,32,33012,5693,893,68
2064,48,33012,5693,893,55
2065,64,33012,5693,893,37
2066,80,33012,5693,893,66
2067,9,33099,5653,891,97
2068,25,33099,5653,891,109
2069,41,33099,5653,891,68
2070,57,33099,5653,891,65
2071,73,33099,5653,891,55
2072,0,33188,5692,889,55
2073,16,33188,5692,889,120
2074,32,33188,5692,889,91
2075,48,33188,5692,889,90
2076,64,33188,5692,889,80
2077,80,33188,5692,889,92
2078,8,33276,5637,887,118
2079,24,33276,5637,887,110
2080,40,33276,5637,887,123
2081,56,33276,5637,887,71
2082,72,33276,5637,887,77
2083,88,33276,5637,887,96
2084,14,33366,5613,885,114
2085,30,33366,5613,885,82
2086,46,33366,5613,885,85
2087,62,33366,5613,885,105
2088,78,33366,5613,885,110
2089,6,33454,5621,885,83
2090,22,33454,5621,885,65
2091,38,33454,5621,885,137
2092,54,33454,5621,885,85
2093,70,33454,5621,885,72
2094,86,33454,5621,885,75
2095,12,33544,5660,884,160
2096,28,33544,5660,884,82
2097,44,33544,5660,884,131
2098,60,33544,5660,884,112
2099,76,33544,5660,884,77
2100,4,33632,5651,885,146
2101,20,33632,5651,885,137
2102,36,33632,5651,885,84
2103,52,33632,5651,885,133
2104,68,33632,5651,885,79
2105,84,33632,5651,885,100
2106,11,33721,5726,885,134
2107,27,33721,5726,885,123
2108,43,33721,5726,885,138
2109,59,33721,5726,885,97
2110,76,33721,5726,885,104
2111,1,33812,5722,889,121
2112,17,33812,5722,889,156
2113,33,33812,5722,889,119
2114,49,33812,5722,889,85
2115,65,33812,5722,889,139
2116,81,33812,5722,889,87
2117,7,33902,5714,890,157
2118,23,33902,5714,890,130
2119,39,33902,5714,890,157
2120,55,33902,5714,890,102
2121,71,33902,5714,890,146
2122,87,33902,5714,890,104
2123,14,33991,5752,892,171
2124,30,33991,5752,892,189
2125,47,33991,5752,892,194
2126,63,33991,5752,892,171
2127,78,33991,5752,892,105
2128,6,34080,5751,892,119
2129,21,34080,5751,892,145
2130,38,34080,5751,892,114
2131,54,34080,5751,892,176
2132,70,34080,5751,892,152
2133,86,34080,5751,892,103
2134,14,34168,5806,892,115
2135,29,34168,5806,892,15
2136,46,34168,5806,892,31
2137,62,34168,5806,892,15
2138,78,34168,5806,892,52
2139,7,34255,5883,889,55
2140,23,34255,5883,889,57
2141,39,34255,5883,889,85
2142,55,34255,5883,889,80
2143,71,34255,5883,889,52
2144,2,34340,5902,886,36
2145,18,34340,5902,886,100
2146,34,34340,5902,886,52
2147,50,34340,5902,886,48
2148,66,34340,5902,886,40
2149,82,34340,5902,886,47
2150,12,34426,5834,882,45
2151,28,34426,5834,882,58
2152,44,34426,5834,882,46
2153,60,34426,5834,882,41
2154,76,34426,5834,882,63
2155,5,34513,5811,881,66
2156,21,34513,5811,881,90
2157,37,34513,5811,881,68
2158,53,34513,5811,881,86
2159,69,34513,5811,881,51
2160,85,34513,5811,881,40
2161,12,34602,5754,881,98
2162,28,34602,5754,881,80
2163,44,34602,5754,881,77
2164,60,34602,5754,881,62
2165,76,34602,5754,881,67
2166,6,34688,5808,876,95
2167,22,34688,5808,876,61
2168,38,34688,5808,876,55
2169,54,34688,5808,876,87
2170,70,34688,5808,876,60
2171,86,34688,5808,876,63
2172,11,34779,5835,877,95
2173,27,34779,5835,877,96
2174,43,34779,5835,877,79
2175,59,34779,5835,877,57
2176,75,34779,5835,877,73
2177,3,34867,5834,876,75
2178,19,34867,5834,876,125
2179,35,34867,5834,876,121
2180,52,34867,5834,876,83
2181,68,34867,5834,876,86
2182,83,34867,5834,876,92
2183,11,34956,5763,876,116
2184,27,34956,5763,876,95
2185,43,34956,5763,876,118
2186,59,34956,5763,876,106
2187,75,34956,5763,876,94
2188,3,35044,5736,876,125
2189,19,35044,5736,876,93
2190,35,35044,5736,876,100
2191,51,35044,5736,876,104
2192,67,35044,5736,876,77
2193,83,35044,5736,876,109
2194,7,35136,5761,881,137
2195,23,35136,5761,881,154
2196,39,35136,5761,881,126
2197,55,35136,5761,881,86
2198,71,35136,5761,881,95
2199,87,35136,5761,881,108
2200,14,35225,5788,885,117
2201,30,35225,5788,885,115
2202,46,35225,5788,885,132
2203,62,35225,5788,885,98
2204,78,35225,5788,885,122
2205,1,35318,5861,892,103
2206,17,35318,5861,892,140
2207,33,35318,5861,892,99
2208,49,35318,5861,892,157
2209,65,35318,5861,892,92
2210,81,35318,5861,892,138
2211,7,35408,5841,895,176
2212,23,35408,5841,895,131
2213,39,35408,5841,895,171
2214,55,35408,5841,895,142
2215,71,35408,5841,895,110
2216,87,35408,5841,895,134
2217,11,35500,5917,898,121
2218,27,35500,5917,898,114
2219,43,35500,5917,898,120
2220,59,35500,5917,898,139
2221,75,35500,5917,898,111
2222,1,35590,5889,902,148
2223,17,35590,5889,902,158
2224,33,35590,5889,902,134
2225,49,35590,5889,902,105
2226,65,35590,5889,902,164
2227,81,35590,5889,902,112
2228,4,35683,5897,904,29
2229,20,35683,5897,904,82
2230,36,35683,5897,904,72
2231,52,35683,5897,904,83
2232,68,35683,5897,904,50
2233,84,35683,5897,904,29
2234,11,35772,5857,905,105
2235,27,35772,5857,905,27
2236,43,35772,5857,905,54
2237,59,35772,5857,905,29
2238,75,35772,5857,905,56
2239,91,35772,5857,905,37
2240,15,35864,5918,908,77
2241,31,35864,5918,908,65
2242,47,35864,5918,908,26
2243,63,35864,5918,908,28
2244,79,35864,5918,908,30
2245,6,35953,5911,909,82
2246,22,35953,5911,909,72
2247,38,35953,5911,909,62
2248,54,35953,5911,909,32
2249,70,35953,5911,909,65
2250,86,35953,5911,909,54
2251,10,36045,5911,909,105
2252,26,36045,5911,909,37
2253,42,36045,5911,909,95
2254,58,36045,5911,909,57
2255,74,36045,5911,909,65
2256,90,36045,5911,909,73
2257,15,36136,5928,911,75
2258,31,36136,5928,911,77
2259,48,36136,5928,911,100
2260,64,36136,5928,911,76
2261,80,36136,5928,911,93
2262,5,36227,5919,909,79
2263,21,36227,5919,909,112
2264,37,36227,5919,909,65
2265,53,36227,5919,909,118
2266,69,36227,5919,909,113
2267,85,36227,5919,909,97
2268,11,36317,5880,909,138
2269,27,36317,5880,909,67
2270,43,36317,5880,909,96
2271,59,36317,5880,909,66
2272,75,36317,5880,909,81
2273,91,36317,5880,909,98
2274,16,36408,5843,908,136
2275,32,36408,5843,908,74
2276,48,36408,5843,908,66
2277,64,36408,5843,908,82
2278,80,36408,5843,908,92
2279,7,36497,5833,907,112
2280,23,36497,5833,907,116
2281,39,36497,5833,907,85
2282,55,36497,5833,907,68
2283,71,36497,5833,907,90
2284,87,36497,5833,907,92
2285,16,36584,5781,901,134
2286,32,36584,5781,901,96
2287,48,36584,5781,901,91
2288,64,36584,5781,901,111
2289,80,36584,5781,901,111
2290,11,36669,5742,897,121
2291,27,36669,5742,897,107
2292,43,36669,5742,897,104
2293,59,36669,5742,897,123
2294,75,36669,5742,897,80
2295,4,36756,5682,892,107
2296,20,36756,5682,892,100
2297,36,36756,5682,892,119
2298,52,36756,5682,892,146
2299,68,36756,5682,892,108
2300,84,36756,5682,892,118
2301,16,36841,5678,888,181
2302,32,36841,5678,888,121
2303,48,36841,5678,888,160
2304,64,36841,5678,888,146
2305,80,36841,5678,888,114
2306,10,36927,5619,882,148
2307,26,36927,5619,882,164
2308,42,36927,5619,882,158
2309,57,36927,5619,882,152
2310,73,36927,5619,882,158
2311,7,37010,5518,874,149
2312,23,37010,5518,874,186
2313,39,37010,5518,874,139
2314,55,37010,5518,874,173
2315,71,37010,5518,874,138
2316,3,37094,5501,867,145
2317,19,37094,5501,867,139
2318,35,37094,5501,867,146
2319,51,37094,5501,867,150
2320,67,37094,5501,867,169
2321,83,37094,5501,867,155
2322,15,37178,5526,861,53
2323,31,37178,5526,861,64
2324,47,37178,5526,861,58
2325,63,37178,5526,861,81
2326,79,37178,5526,861,15
2327,12,37261,5502,853,97
2328,28,37261,5502,853,51
2329,44,37261,5502,853,59
2330,60,37261,5502,853,35
2331,76,37261,5502,853,24
2332,11,37342,5453,845,50
2333,27,37342,5453,845,26
2334,43,37342,5453,845,35
2335,59,37342,5453,845,65
2336,75,37342,5453,845,52
2337,8,37425,5411,841,49
2338,24,37425,5411,841,83
2339,40,37425,5411,841,71
2340,56,37425,5411,841,45
2341,72,37425,5411,841,69
2342,7,37506,5464,837,94
2343,23,37506,5464,837,82
2344,39,37506,5464,837,66
2345,55,37506,5464,837,77
2346,71,37506,5464,837,79
2347,4,37589,5499,833,54
2348,20,37589,5499,833,124
2349,36,37589,5499,833,81
2350,52,37589,5499,833,76
2351,68,37589,5499,833,47
2352,1,37672,5460,831,79
2353,17,37672,5460,831,127
2354,33,37672,5460,831,78
2355,49,37672,5460,831,52
2356,65,37672,5460,831,72
2357,81,37672,5460,831,47
2358,14,37755,5433,828,116
2359,30,37755,5433,828,111
2360,46,37755,5433,828,76
2361,62,37755,5433,828,81
2362,78,37755,5433,828,91
2363,11,37838,5469,828,124
2364,27,37838,5469,828,132
2365,43,37838,5469,828,83
2366,59,37838,5469,828,68
2367,75,37838,5469,828,72
2368,8,37921,5472,827,78
2369,24,37921,5472,827,149
2370,40,37921,5472,827,137
2371,56,37921,5472,827,97
2372,72,37921,5472,827,104
2373,4,38005,5433,827,78
2374,20,38005,5433,827,124
2375,36,38005,5433,827,126
2376,52,38005,5433,827,136
2377,68,38005,5433,827,114
2378,84,38005,5433,827,98
2379,15,38090,5426,829,83
2380,32,38090,5426,829,87
2381,48,38090,5426,829,120
2382,64,38090,5426,829,104
2383,80,38090,5426,829,103
2384,12,38174,5459,832,131
2385,28,38174,5459,832,91
2386,45,38174,5459,832,91
2387,60,38174,5459,832,98
2388,77,38174,5459,832,112
2389,7,38260,5495,835,175
2390,23,38260,5495,835,118
2391,39,38260,5495,835,137
2392,55,38260,5495,835,158
2393,71,38260,5495,835,108
2394,3,38344,5486,838,95
2395,19,38344,5486,838,107
2396,35,38344,5486,838,154
2397,51,38344,5486,838,114
2398,67,38344,5486,838,105
2399,83,38344,5486,838,144
2400,14,38429,5519,840,151
2401,30,38429,5519,840,102
2402,46,38429,5519,840,150
2403,62,38429,5519,840,110
2404,78,38429,5519,840,114
2405,9,38514,5510,842,170
2406,25,38514,5510,842,137
2407,41,38514,5510,842,103
2408,57,38514,5510,842,155
2409,73,38514,5510,842,166
2410,3,38600,5534,845,139
2411,19,38600,5534,845,213
2412,35,38600,5534,845,213
2413,51,38600,5534,845,197
2414,68,38600,5534,845,187
2415,83,38600,5534,845,116
2416,15,38684,5514,846,130
2417,31,38684,5514,846,23
2418,47,38684,5514,846,34
2419,63,38684,5514,846,53
2420,80,38684,5514,846,57
2421,9,38770,5548,849,119
2422,25,38770,5548,849,23
2423,42,38770,5548,849,51
2424,58,38770,5548,849,89
2425,73,38770,5548,849,23
2426,6,38853,5533,848,90
2427,22,38853,5533,848,47
2428,39,38853,5533,848,101
2429,55,38853,5533,848,70
2430,71,38853,5533,848,34
2431,2,38938,5504,848,66
2432,18,38938,5504,848,109
2433,34,38938,5504,848,89
2434,50,38938,5504,848,39
2435,66,38938,5504,848,36
2436,82,38938,5504,848,31
2437,16,39020,5485,846,87
2438,32,39020,5485,846,66
2439,48,39020,5485,846,67
2440,64,39020,5485,846,63
2441,80,39020,5485,846,59
2442,12,39104,5479,844,74
2443,28,39104,5479,844,107
2444,44,39104,5479,844,43
2445,60,39104,5479,844,89
2446,77,39104,5479,844,81
2447,10,39186,5475,842,126
2448,27,39186,5475,842,55
2449,43,39186,5475,842,97
2450,59,39186,5475,842,57
2451,75,39186,5475,842,66
2452,6,39271,5418,842,76
2453,22,39271,5418,842,57
2454,38,39271,5418,842,116
2455,54,39271,5418,842,118
2456,70,39271,5418,842,82
2457,3,39354,5370,840,103
2458,19,39354,5370,840,59
2459,35,39354,5370,840,86
2460,51,39354,5370,840,66
2461,67,39354,5370,840,92
2462,83,39354,5370,840,66
2463,14,39439,5409,839,130
2464,30,39439,5409,839,78
2465,46,39439,5409,839,135
2466,63,39439,5409,839,65
2467,78,39439,5409,839,105
2468,10,39523,5445,839,152
2469,27,39523,5445,839,93
2470,43,39523,5445,839,132
2471,59,39523,5445,839,100
2472,75,39523,5445,839,117
2473,7,39607,5328,837,145
2474,23,39607,5328,837,91
2475,39,39607,5328,837,114
2476,54,39607,5328,837,88
2477,71,39607,5328,837,103
2478,5,39689,5312,836,146
2479,21,39689,5312,836,152
2480,37,39689,5312,836,137
2481,53,39689,5312,836,80
2482,69,39689,5312,836,132
2483,1,39773,5356,835,86
2484,17,39773,5356,835,197
2485,33,39773,5356,835,93
2486,49,39773,5356,835,110
2487,65,39773,5356,835,137
2488,81,39773,5356,835,120
2489,14,39856,5352,836,167
2490,30,39856,5352,836,166
2491,46,39856,5352,836,133
2492,62,39856,5352,836,131
2493,78,39856,5352,836,114
2494,9,39941,5378,837,111
2495,25,39941,5378,837,133
2496,41,39941,5378,837,161
2497,57,39941,5378,837,128
2498,73,39941,5378,837,131
2499,4,40026,5386,840,154
2500,21,40026,5386,840,140
2501,36,40026,5386,840,156
2502,53,40026,5386,840,159
2503,68,40026,5386,840,107
2504,84,40026,5386,840,110
2505,15,40111,5400,840,178
2506,31,40111,5400,840,206
2507,47,40111,5400,840,113
2508,63,40111,5400,840,129
2509,79,40111,5400,840,164
2510,11,40195,5471,841,97
2511,27,40195,5471,841,21
2512,43,40195,5471,841,63
2513,59,40195,5471,841,31
2514,75,40195,5471,841,62
2515,8,40278,5450,839,98
2516,24,40278,5450,839,41
2517,40,40278,5450,839,20
2518,56,40278,5450,839,31
2519,72,40278,5450,839,66
2520,5,40361,5443,838,56
2521,21,40361,5443,838,39
2522,37,40361,5443,838,24
2523,53,40361,5443,838,27
2524,69,40361,5443,838,73
2525,1,40445,5496,838,60
2526,17,40445,5496,838,77
2527,33,40445,5496,838,102
2528,49,40445,5496,838,91
2529,65,40445,5496,838,47
2530,81,40445,5496,838,57
2531,12,40530,5538,841,61
2532,28,40530,5538,841,124
2533,44,40530,5538,841,96
2534,60,40530,5538,841,89
2535,76,40530,5538,841,78
2536,6,40616,5479,843,42
2537,22,40616,5479,843,95
2538,38,40616,5479,843,65
2539,54,40616,5479,843,68
2540,70,40616,5479,843,89
2541,2,40700,5474,844,52
2542,18,40700,5474,844,59
2543,34,40700,5474,844,99
2544,50,40700,5474,844,67
2545,66,40700,5474,844,70
2546,82,40700,5474,844,78
2547,13,40785,5475,844,60
2548,29,40785,5475,844,88
2549,45,40785,5475,844,123
2550,61,40785,5475,844,75
2551,77,40785,5475,844,56
2552,6,40872,5558,846,68
2553,22,40872,5558,846,118
2554,38,40872,5558,846,72
2555,54,40872,5558,846,122
2556,70,40872,5558,846,74
2557,0,40958,5540,847,90
2558,16,40958,5540,847,122
2559,32,40958,5540,847,134
2560,48,40958,5540,847,66
2561,64,40958,5540,847,104
2562,80,40958,5540,847,104
2563,12,41043,5503,848,164
2564,28,41043,5503,848,88
2565,44,41043,5503,848,118
2566,60,41043,5503,848,130
2567,76,41043,5503,848,99
2568,7,41128,5486,850,128
2569,23,41128,5486,850,97
2570,39,41128,5486,850,155
2571,55,41128,5486,850,135
2572,71,41128,5486,850,128
2573,4,41211,5512,850,104
2574,20,41211,5512,850,127
2575,36,41211,5512,850,151
2576,52,41211,5512,850,110
2577,68,41211,5512,850,95
2578,84,41211,5512,850,125
2579,14,41297,5533,852,144
2580,30,41297,5533,852,106
2581,46,41297,5533,852,94
2582,62,41297,5533,852,107
2583,78,41297,5533,852,101
2584,10,41381,5539,851,149
2585,26,41381,5539,851,121
2586,42,41381,5539,851,92
2587,58,41381,5539,851,146
2588,74,41381,5539,851,91
2589,5,41466,5567,850,103
2590,21,41466,5567,850,142
2591,37,41466,5567,850,106
2592,53,41466,5567,850,163
2593,69,41466,5567,850,130
2594,85,41466,5567,850,137
2595,16,41551,5524,851,197
2596,32,41551,5524,851,180
2597,48,41551,5524,851,150
2598,64,41551,5524,851,145
2599,80,41551,5524,851,121
2600,11,41636,5467,851,136
2601,27,41636,5467,851,206
2602,43,41636,5467,851,220
2603,59,41636,5467,851,196
2604,75,41636,5467,851,181
2605,9,41718,5367,846,63
2606,25,41718,5367,846,81
2607,41,41718,5367,846,67
2608,57,41718,5367,846,45
2609,73,41718,5367,846,57
2610,6,41801,5324,843,39
2611,22,41801,5324,843,50
2612,38,41801,5324,843,65
2613,55,41801,5324,843,33
2614,70,41801,5324,843,25
2615,5,41883,5316,840,27
2616,21,41883,5316,840,72
2617,37,41883,5316,840,98
2618,53,41883,5316,840,44
2619,69,41883,5316,840,48
2620,2,41966,5294,838,56
2621,18,41966,5294,838,93
2622,34,41966,5294,838,31
2623,50,41966,5294,838,90
2624,66,41966,5294,838,35
2625,1,42047,5262,836,54
2626,17,42047,5262,836,40
2627,33,42047,5262,836,58
2628,49,42047,5262,836,90
2629,65,42047,5262,836,48
2630,81,42047,5262,836,59
2631,15,42129,5272,832,45
2632,31,42129,5272,832,42
2633,47,42129,5272,832,61
2634,63,42129,5272,832,52
2635,79,42129,5272,832,42
2636,13,42211,5249,830,89
2637,29,42211,5249,830,51
2638,45,42211,5249,830,106
2639,61,42211,5249,830,87
2640,77,42211,5249,830,59
2641,10,42294,5237,828,89
2642,26,42294,5237,828,62
2643,42,42294,5237,828,62
2644,58,42294,5237,828,76
2645,74,42294,5237,828,72
2646,9,42375,5238,824,78
2647,25,42375,5238,824,95
2648,41,42375,5238,824,58
2649,57,42375,5238,824,105
2650,73,42375,5238,824,86
2651,7,42457,5271,821,131
2652,23,42457,5271,821,150
2653,39,42457,5271,821,75
2654,55,42457,5271,821,119
2655,72,42457,5271,821,64
2656,6,42539,5338,821,132
2657,22,42539,5338,821,136
2658,38,42539,5338,821,97
2659,54,42539,5338,821,141
2660,70,42539,5338,821,134
2661,3,42622,5325,821,90
2662,19,42622,5325,821,126
2663,35,42622,5325,821,99
2664,51,42622,5325,821,115
2665,67,42622,5325,821,81
2666,2,42703,5284,820,109
2667,18,42703,5284,820,179
2668,34,42703,5284,820,102
2669,50,42703,5284,820,117
2670,66,42703,5284,820,79
2671,82,42703,5284,820,84
2672,15,42786,5333,820,183
2673,31,42786,5333,820,142
2674,47,42786,5333,820,104
2675,63,42786,5333,820,135
2676,79,42786,5333,820,119
2677,12,42869,5340,822,206
2678,28,42869,5340,822,199
2679,44,42869,5340,822,169
2680,60,42869,5340,822,123
2681,76,42869,5340,822,119
2682,7,42954,5361,825,154
2683,23,42954,5361,825,149
2684,39,42954,5361,825,179
2685,55,42954,5361,825,188
2686,71,42954,5361,825,98
2687,2,43039,5408,828,137
2688,18,43039,5408,828,195
2689,34,43039,5408,828,161
2690,50,43039,5408,828,202
2691,67,43039,5408,828,140
2692,83,43039,5408,828,102
2693,12,43125,5393,831,124
2694,29,43125,5393,831,138
2695,44,43125,5393,831,136
2696,61,43125,5393,831,119
2697,76,43125,5393,831,126
2698,10,43208,5393,833,119
2699,25,43208,5393,833,200
2700,41,43208,5393,833,208
2701,58,43208,5393,833,178
2702,74,43208,5393,833,154
2703,4,43294,5458,837,91
2704,20,43294,5458,837,42
2705,36,43294,5458,837,48
2706,52,43294,5458,837,42
2707,68,43294,5458,837,50
2708,1,43377,5424,838,33
2709,17,43377,5424,838,48
2710,33,43377,5424,838,61
2711,49,43377,5424,838,62
2712,65,43377,5424,838,35
2713,81,43377,5424,838,68
2714,8,43466,5482,844,108
2715,24,43466,5482,844,95
2716,40,43466,5482,844,35
2717,56,43466,5482,844,26
2718,72,43466,5482,844,50
2719,4,43550,5527,847,40
2720,20,43550,5527,847,56
2721,36,43550,5527,847,66
2722,52,43550,5527,847,93
2723,68,43550,5527,847,80
2724,84,43550,5527,847,34
2725,13,43637,5568,851,38
2726,29,43637,5568,851,87
2727,45,43637,5568,851,61
2728,61,43637,5568,851,55
2729,77,43637,5568,851,91
2730,9,43721,5588,852,131
2731,25,43721,5588,852,92
2732,41,43721,5588,852,77
2733,57,43721,5588,852,77
2734,73,43721,5588,852,63
2735,2,43808,5589,854,48
2736,18,43808,5589,854,75
2737,34,43808,5589,854,80
2738,50,43808,5589,854,111
2739,66,43808,5589,854,56
2740,82,43808,5589,854,61
2741,14,43892,5572,853,71
2742,30,43892,5572,853,59
2743,46,43892,5572,853,67
2744,62,43892,5572,853,85
2745,78,43892,5572,853,103
2746,6,43980,5563,855,116
2747,22,43980,5563,855,110
2748,38,43980,5563,855,140
2749,54,43980,5563,855,74
2750,70,43980,5563,855,113
2751,1,44065,5663,857,64
2752,17,44065,5663,857,101
2753,33,44065,5663,857,96
2754,49,44065,5663,857,77
2755,65,44065,5663,857,75
2756,81,44065,5663,857,111
2757,9,44153,5633,859,139
2758,26,44153,5633,859,116
2759,41,44153,5633,859,87
2760,57,44153,5633,859,72
2761,74,44153,5633,859,78
2762,3,44239,5684,862,109
2763,20,44239,5684,862,117
2764,36,44239,5684,862,144
2765,52,44239,5684,862,146
2766,68,44239,5684,862,104
2767,84,44239,5684,862,105
2768,11,44328,5653,862,115
2769,27,44328,5653,862,106
2770,43,44328,5653,862,113
2771,59,44328,5653,862,123
2772,75,44328,5653,862,99
2773,4,44415,5662,865,158
2774,20,44415,5662,865,91
2775,36,44415,5662,865,155
2776,53,44415,5662,865,129
2777,68,44415,5662,865,125
2778,84,44415,5662,865,148
2779,11,44504,5634,867,116
2780,28,44504,5634,867,164
2781,44,44504,5634,867,100
2782,60,44504,5634,867,133
2783,76,44504,5634,867,105
2784,5,44590,5644,869,128
2785,21,44590,5644,869,132
2786,38,44590,5644,869,176
2787,54,44590,5644,869,177
2788,70,44590,5644,869,176
2789,86,44590,5644,869,123
2790,14,44678,5641,870,195
2791,30,44678,5641,870,168
2792,46,44678,5641,870,121
2793,62,44678,5641,870,174
2794,78,44678,5641,870,148
2795,6,44766,5633,874,158
2796,22,44766,5633,874,173
2797,38,44766,5633,874,126
2798,54,44766,5633,874,173
2799,70,44766,5633,874,140
2800,86,44766,5633,874,138
2801,14,44854,5658,874,44
2802,30,44854,5658,874,106
2803,46,44854,5658,874,57
2804,62,44854,5658,874,91
2805,78,44854,5658,874,72
2806,8,44940,5600,875,53
2807,24,44940,5600,875,22
2808,40,44940,5600,875,23
2809,56,44940,5600,875,84
2810,72,44940,5600,875,62
2811,2,45026,5553,873,34
2812,18,45026,5553,873,63
2813,34,45026,5553,873,80
2814,50,45026,5553,873,100
2815,66,45026,5553,873,40
2816,82,45026,5553,873,41
2817,13,45111,5546,872,114
2818,29,45111,5546,872,35
2819,45,45111,5546,872,68
2820,61,45111,5546,872,95
2821,77,45111,5546,872,31
2822,6,45198,5576,870,98
2823,22,45198,5576,870,62
2824,38,45198,5576,870,40
2825,54,45198,5576,870,55
2826,70,45198,5576,870,77
2827,0,45284,5574,869,53
2828,16,45284,5574,869,100
2829,32,45284,5574,869,63
2830,48,45284,5574,869,47
2831,64,45284,5574,869,68
2832,80,45284,5574,869,84
2833,8,45372,5562,868,55
2834,25,45372,5562,868,107
2835,40,45372,5562,868,99
2836,56,45372,5562,868,67
2837,72,45372,5562,868,72
2838,2,45458,5594,868,64
2839,18,45458,5594,868,100
2840,35,45458,5594,868,66
2841,51,45458,5594,868,60
2842,67,45458,5594,868,76
2843,83,45458,5594,868,86
2844,10,45547,5610,869,116
2845,26,45547,5610,869,95
2846,42,45547,5610,869,103
2847,58,45547,5610,869,72
2848,74,45547,5610,869,82
2849,4,45633,5616,867,112
2850,20,45633,5616,867,77
2851,36,45633,5616,867,143
2852,52,45633,5616,867,111
2853,68,45633,5616,867,108
2854,84,45633,5616,867,89
2855,11,45722,5640,868,182
2856,27,45722,5640,868,132
2857,43,45722,5640,868,82
2858,59,45722,5640,868,140
2859,75,45722,5640,868,133
2860,5,45808,5663,868,115
2861,21,45808,5663,868,105
2862,37,45808,5663,868,75
2863,53,45808,5663,868,130
2864,69,45808,5663,868,123
2865,85,45808,5663,868,133
2866,11,45898,5702,872,103
2867,27,45898,5702,872,105
2868,43,45898,5702,872,95
2869,59,45898,5702,872,86
2870,75,45898,5702,872,81
2871,4,45985,5687,874,160
2872,20,45985,5687,874,107
2873,36,45985,5687,874,98
2874,52,45985,5687,874,167
2875,68,45985,5687,874,148
2876,84,45985,5687,874,129
2877,10,46075,5682,877,152
2878,26,46075,5682,877,125
2879,42,46075,5682,877,181
2880,58,46075,5682,877,109
2881,74,46075,5682,877,134
2882,3,46162,5648,878,95
2883,19,46162,5648,878,217
2884,35,46162,5648,878,146
2885,51,46162,5648,878,151
2886,67,46162,5648,878,137
2887,83,46162,5648,878,131
2888,8,46253,5658,881,152
2889,24,46253,5658,881,231
2890,40,46253,5658,881,117
2891,56,46253,5658,881,122
2892,72,46253,5658,881,186
2893,88,46253,5658,881,111
2894,15,46342,5630,884,232
2895,31,46342,5630,884,108
2896,47,46342,5630,884,193
2897,63,46342,5630,884,147
2898,79,46342,5630,884,136
2899,5,46432,5637,885,152
2900,21,46432,5637,885,202
2901,37,46432,5637,885,185
2902,53,46432,5637,885,133
2903,69,46432,5637,885,173
2904,85,46432,5637,885,137
2905,14,46519,5680,886,26
2906,30,46519,5680,886,102
2907,46,46519,5680,886,51
2908,62,46519,5680,886,90
2909,78,46519,5680,886,78
2910,5,46608,5685,886,63
2911,21,46608,5685,886,31
2912,37,46608,5685,886,22
2913,53,46608,5685,886,50
2914,69,46608,5685,886,31
2915,85,46608,5685,886,22
2916,15,46694,5671,886,32
2917,31,46694,5671,886,85
2918,47,46694,5671,886,75
2919,63,46694,5671,886,30
2920,79,46694,5671,886,52
2921,6,46783,5630,885,68
2922,22,46783,5630,885,106
2923,38,46783,5630,885,41
2924,54,46783,5630,885,95
2925,70,46783,5630,885,86
2926,0,46869,5603,884,36
2927,16,46869,5603,884,81
2928,32,46869,5603,884,65
2929,48,46869,5603,884,66
2930,64,46869,5603,884,42
2931,81,46869,5603,884,72
2932,8,46957,5566,882,54
2933,25,46957,5566,882,66
2934,40,46957,5566,882,109
2935,56,46957,5566,882,49
2936,73,46957,5566,882,41
2937,3,47043,5564,881,66
2938,19,47043,5564,881,145
2939,35,47043,5564,881,93
2940,51,47043,5564,881,123
2941,67,47043,5564,881,96
2942,83,47043,5564,881,55
2943,12,47130,5535,877,141
2944,28,47130,5535,877,115
2945,44,47130,5535,877,120
2946,60,47130,5535,877,85
2947,76,47130,5535,877,90
2948,7,47215,5537,873,61
2949,23,47215,5537,873,151
2950,39,47215,5537,873,65
2951,55,47215,5537,873,76
2952,71,47215,5537,873,96
2953,87,47215,5537,873,93
2954,15,47303,5550,871,139
2955,31,47303,5550,871,156
2956,47,47303,5550,871,89
2957,63,47303,5550,871,132
2958,79,47303,5550,871,76
2959,9,47389,5491,870,143
2960,25,47389,5491,870,158
2961,41,47389,5491,870,109
2962,57,47389,5491,870,138
2963,73,47389,5491,870,89
2964,1,47477,5447,869,82
2965,17,47477,5447,869,162
2966,33,47477,5447,869,163
2967,49,47477,5447,869,136
2968,65,47477,5447,869,108
2969,81,47477,5447,869,101
2970,12,47562,5469,868,202
2971,28,47562,5469,868,115
2972,44,47562,5469,868,132
2973,60,47562,5469,868,131
2974,76,47562,5469,868,141
2975,3,47651,5516,868,115
2976,19,47651,5516,868,155
2977,35,47651,5516,868,177
2978,51,47651,5516,868,171
2979,67,47651,5516,868,164
2980,83,47651,5516,868,98
2981,12,47738,5534,869,213
2982,28,47738,5534,869,160
2983,44,47738,5534,869,193
2984,60,47738,5534,869,181
2985,76,47738,5534,869,97
2986,2,47828,5573,871,126
2987,18,47828,5573,871,132
2988,34,47828,5573,871,187
2989,50,47828,5573,871,180
2990,66,47828,5573,871,133
2991,82,47828,5573,871,99
2992,10,47916,5633,873,106
2993,26,47916,5633,873,206
2994,42,47916,5633,873,129
2995,58,47916,5633,873,137
2996,74,47916,5633,873,157
2997,1,48005,5604,875,117
2998,17,48005,5604,875,176
2999,33,48005,5604,875,184
3000,49,48005,5604,875,159
3001,65,48005,5604,875,136
3002,81,48005,5604,875,133
3003,10,48092,5626,877,166
3004,26,48092,5626,877,214
3005,42,48092,5626,877,188
3006,58,48092,5626,877,126
3007,74,48092,5626,877,167
3008,90,48092,5626,877,114
3009,15,48183,5585,880,77
3010,31,48183,5585,880,15
3011,47,48183,5585,880,61
3012,63,48183,5585,880,95
3013,79,48183,5585,880,71
3014,8,48270,5602,881,48
3015,24,48270,5602,881,88
3016,40,48270,5602,881,51
3017,56,48270,5602,881,36
3018,72,48270,5602,881,68
3019,88,48270,5602,881,32
3020,15,48359,5613,882,74
3021,31,48359,5613,882,24
3022,47,48359,5613,882,91
3023,63,48359,5613,882,38
3024,79,48359,5613,882,45
3025,8,48446,5597,884,39
3026,24,48446,5597,884,53
3027,40,48446,5597,884,78
3028,56,48446,5597,884,50
3029,72,48446,5597,884,75
3030,88,48446,5597,884,69
3031,15,48535,5608,884,54
3032,31,48535,5608,884,55
3033,47,48535,5608,884,84
3034,63,48535,5608,884,84
3035,80,48535,5608,884,77
3036,10,48621,5643,883,103
3037,26,48621,5643,883,63
3038,42,48621,5643,883,52
3039,58,48621,5643,883,55
3040,74,48621,5643,883,46
3041,2,48709,5693,881,81
3042,18,48709,5693,881,97
3043,34,48709,5693,881,112
3044,50,48709,5693,881,89
3045,66,48709,5693,881,54
3046,82,48709,5693,881,61
3047,11,48796,5665,880,76
3048,27,48796,5665,880,110
3049,43,48796,5665,880,105
3050,59,48796,5665,880,74
3051,75,48796,5665,880,90
3052,3,48884,5674,879,98
3053,19,48884,5674,879,72
3054,35,48884,5674,879,132
3055,51,48884,5674,879,59
3056,67,48884,5674,879,96
3057,83,48884,5674,879,67
3058,12,48971,5703,879,127
3059,28,48971,5703,879,143
3060,44,48971,5703,879,96
3061,60,48971,5703,879,74
3062,76,48971,5703,879,103
3063,4,49059,5674,876,83
3064,20,49059,5674,876,135
3065,36,49059,5674,876,106
3066,52,49059,5674,876,120
3067,68,49059,5674,876,114
3068,84,49059,5674,876,82
3069,15,49144,5645,874,76
3070,31,49144,5645,874,129
3071,47,49144,5645,874,91
3072,63,49144,5645,874,77
3073,79,49144,5645,874,111
3074,7,49232,5623,873,91
3075,23,49232,5623,873,153
3076,39,49232,5623,873,132
3077,55,49232,5623,873,139
3078,71,49232,5623,873,95
3079,2,49317,5641,871,124
3080,18,49317,5641,871,179
3081,34,49317,5641,871,132
3082,50,49317,5641,871,88
3083,66,49317,5641,871,142
3084,82,49317,5641,871,103
3085,9,49405,5603,870,183
3086,26,49405,5603,870,189
3087,42,49405,5603,870,157
3088,58,49405,5603,870,131
3089,73,49405,5603,870,115
3090,4,49491,5571,870,117
3091,19,49491,5571,870,176
3092,35,49491,5571,870,139
3093,51,49491,5571,870,123
3094,68,49491,5571,870,116
3095,84,49491,5571,870,147
3096,8,49582,5543,873,167
3097,25,49582,5543,873,189
3098,40,49582,5543,873,120
3099,56,49582,5543,873,161
3100,73,49582,5543,873,175
3101,1,49669,5548,873,142
3102,18,49669,5548,873,108
3103,34,49669,5548,873,196
3104,50,49669,5548,873,150
3105,66,49669,5548,873,116
3106,82,49669,5548,873,122
3107,8,49759,5552,875,123
3108,23,49759,5552,875,160
3109,40,49759,5552,875,169
3110,55,49759,5552,875,175
3111,72,49759,5552,875,177
3112,0,49846,5581,875,160
3113,16,49846,5581,875,115
3114,32,49846,5581,875,59
3115,48,49846,5581,875,18
3116,64,49846,5581,875,76
3117,80,49846,5581,875,23
3118,7,49935,5568,876,61
3119,23,49935,5568,876,90
3120,39,49935,5568,876,35
3121,55,49935,5568,876,87
3122,71,49935,5568,876,20
3123,0,50022,5646,878,29
3124,16,50022,5646,878,53
3125,32,50022,5646,878,78
3126,48,50022,5646,878,40
3127,64,50022,5646,878,39
3128,80,50022,5646,878,28
3129,6,50112,5680,880,111
3130,22,50112,5680,880,105
3131,38,50112,5680,880,39
3132,54,50112,5680,880,77
3133,70,50112,5680,880,31
3134,86,50112,5680,880,37
3135,12,50202,5679,885,114
3136,28,50202,5679,885,46
3137,44,50202,5679,885,89
3138,60,50202,5679,885,84
3139,76,50202,5679,885,71
3140,1,50293,5766,888,77
3141,18,50293,5766,888,68
3142,34,50293,5766,888,93
3143,50,50293,5766,888,62
3144,66,50293,5766,888,63
3145,82,50293,5766,888,56
3146,7,50384,5805,893,96
3147,23,50384,5805,893,120
3148,39,50384,5805,893,84
3149,55,50384,5805,893,72
3150,71,50384,5805,893,99
3151,87,50384,5805,893,58
3152,12,50475,5865,893,110
3153,28,50475,5865,893,81
3154,44,50475,5865,893,80
3155,60,50475,5865,893,105
3156,76,50475,5865,893,91
3157,2,50565,5872,896,80
3158,17,50565,5872,896,83
3159,34,50565,5872,896,145
3160,49,50565,5872,896,101
3161,66,50565,5872,896,89
3162,82,50565,5872,896,62
3163,7,50656,5877,897,145
3164,23,50656,5877,897,66
3165,39,50656,5877,897,71
3166,54,50656,5877,897,92
3167,71,50656,5877,897,67
3168,87,50656,5877,897,91
3169,12,50747,5838,901,93
3170,28,50747,5838,901,97
3171,44,50747,5838,901,112
3172,60,50747,5838,901,131
3173,76,50747,5838,901,77
3174,0,50838,5892,903,114
3175,17,50838,5892,903,180
3176,33,50838,5892,903,125
3177,49,50838,5892,903,102
3178,64,50838,5892,903,101
3179,81,50838,5892,903,129
3180,5,50929,5842,907,148
3181,22,50929,5842,907,124
3182,38,50929,5842,907,136
3183,54,50929,5842,907,134
3184,70,50929,5842,907,145
3185,86,50929,5842,907,122
3186,10,51021,5851,909,94
3187,26,51021,5851,909,96
3188,42,51021,5851,909,178
3189,58,51021,5851,909,154
3190,74,51021,5851,909,107
3191,90,51021,5851,909,109
3192,16,51111,5824,909,149
3193,33,51111,5824,909,102
3194,48,51111,5824,909,143
3195,65,51111,5824,909,159
3196,80,51111,5824,909,128
3197,6,51202,5804,909,180
3198,21,51202,5804,909,221
3199,37,51202,5804,909,113
3200,54,51202,5804,909,119
3201,70,51202,5804,909,121
3202,86,51202,5804,909,137
3203,10,51294,5875,910,195
3204,26,51294,5875,910,201
3205,42,51294,5875,910,175
3206,58,51294,5875,910,140
3207,74,51294,5875,910,127
3208,90,51294,5875,910,145
3209,13,51387,5872,912,191
3210,29,51387,5872,912,134
3211,45,51387,5872,912,181
3212,61,51387,5872,912,189
3213,77,51387,5872,912,176
3214,2,51478,5882,913,191
3215,18,51478,5882,913,116
3216,34,51478,5882,913,161
3217,50,51478,5882,913,166
3218,66,51478,5882,913,163
3219,82,51478,5882,913,179
3220,5,51571,5858,915,58
3221,21,51571,5858,915,22
3222,37,51571,5858,915,39
3223,53,51571,5858,915,46
3224,69,51571,5858,915,64
3225,85,51571,5858,915,52
3226,10,51662,5911,915,34
3227,26,51662,5911,915,52
3228,42,51662,5911,915,81
3229,58,51662,5911,915,49
3230,74,51662,5911,915,66
3231,90,51662,5911,915,21
3232,14,51754,5908,916,62
3233,30,51754,5908,916,53
3234,46,51754,5908,916,76
3235,62,51754,5908,916,75
3236,78,51754,5908,916,48
3237,3,51845,5881,916,39
3238,19,51845,5881,916,78
3239,35,51845,5881,916,98
3240,51,51845,5881,916,58
3241,67,51845,5881,916,70
3242,83,51845,5881,916,70
3243,8,51937,5863,916,52
3244,23,51937,5863,916,107
3245,40,51937,5863,916,95
3246,56,51937,5863,916,63
3247,71,51937,5863,916,73
3248,87,51937,5863,916,77
3249,13,52028,5870,917,49
3250,29,52028,5870,917,61
3251,44,52028,5870,917,94
3252,61,52028,5870,917,86
3253,76,52028,5870,917,74
3254,1,52120,5840,918,57
3255,17,52120,5840,918,83
3256,32,52120,5840,918,71
3257,48,52120,5840,918,85
3258,65,52120,5840,918,60
3259,81,52120,5840,918,68
3260,7,52210,5798,916,71
3261,23,52210,5798,916,122
3262,39,52210,5798,916,65
3263,55,52210,5798,916,101
3264,71,52210,5798,916,98
3265,87,52210,5798,916,79
3266,12,52301,5765,914,114
3267,28,52301,5765,914,61
3268,44,52301,5765,914,113
3269,60,52301,5765,914,63
3270,76,52301,5765,914,107
3271,2,52391,5765,913,117
3272,18,52391,5765,913,132
3273,34,52391,5765,913,69
3274,50,52391,5765,913,96
3275,66,52391,5765,913,93
3276,82,52391,5765,913,97
3277,6,52483,5843,912,152
3278,22,52483,5843,912,164
3279,38,52483,5843,912,137
3280,54,52483,5843,912,127
3281,70,52483,5843,912,71
3282,86,52483,5843,912,69
3283,12,52573,5848,911,158
3284,28,52573,5848,911,92
3285,44,52573,5848,911,119
3286,60,52573,5848,911,143
3287,76,52573,5848,911,80
3288,1,52664,5844,910,112
3289,17,52664,5844,910,94
3290,33,52664,5844,910,94
3291,49,52664,5844,910,94
3292,65,52664,5844,910,98
3293,81,52664,5844,910,131
3294,7,52754,5883,909,94
3295,23,52754,5883,909,88
3296,40,52754,5883,909,155
3297,56,52754,5883,909,138
3298,72,52754,5883,909,142
3299,88,52754,5883,909,131
3300,11,52847,5934,910,209
3301,26,52847,5934,910,129
3302,42,52847,5934,910,155
3303,59,52847,5934,910,173
3304,74,52847,5934,910,114
3305,1,52937,5949,909,110
3306,17,52937,5949,909,210
3307,33,52937,5949,909,99
3308,49,52937,5949,909,187
3309,64,52937,5949,909,143
3310,80,52937,5949,909,126
3311,4,53030,5939,910,181
3312,20,53030,5939,910,150
3313,35,53030,5939,910,121
3314,52,53030,5939,910,185
3315,67,53030,5939,910,158
3316,84,53030,5939,910,152
3317,9,53121,5871,911,192
3318,24,53121,5871,911,200
3319,40,53121,5871,911,166
3320,57,53121,5871,911,129
3321,73,53121,5871,911,185
3322,89,53121,5871,911,170
3323,13,53213,5904,912,198
3324,29,53213,5904,912,159
3325,45,53213,5904,912,207
3326,61,53213,5904,912,127
3327,77,53213,5904,912,145
3328,3,53302,5943,911,21
3329,19,53302,5943,911,93
3330,35,53302,5943,911,15
3331,51,53302,5943,911,34
3332,67,53302,5943,911,64
3333,83,53302,5943,911,52
3334,10,53391,5890,908,61
3335,26,53391,5890,908,79
3336,42,53391,5890,908,46
3337,58,53391,5890,908,52
3338,74,53391,5890,908,21
3339,2,53479,5758,906,38
3340,18,53479,5758,906,84
3341,34,53479,5758,906,91
3342,50,53479,5758,906,40
3343,66,53479,5758,906,44
3344,82,53479,5758,906,31
3345,8,53569,5739,905,69
3346,24,53569,5739,905,51
3347,40,53569,5739,905,42
3348,56,53569,5739,905,82
3349,72,53569,5739,905,67
3350,88,53569,5739,905,47
3351,15,53658,5763,904,39
3352,31,53658,5763,904,59
3353,47,53658,5763,904,86
3354,64,53658,5763,904,76
3355,79,53658,5763,904,50
3356,6,53747,5678,900,85
3357,23,53747,5678,900,60
3358,39,53747,5678,900,56
3359,55,53747,5678,900,81
3360,71,53747,5678,900,53
3361,87,53747,5678,900,78
3362,15,53835,5653,898,121
3363,31,53835,5653,898,119
3364,47,53835,5653,898,50
3365,63,53835,5653,898,81
3366,79,53835,5653,898,91
3367,5,53925,5658,895,97
3368,21,53925,5658,895,126
3369,37,53925,5658,895,101
3370,53,53925,5658,895,108
3371,69,53925,5658,895,61
3372,85,53925,5658,895,69
3373,13,54013,5726,892,104
3374,29,54013,5726,892,101
3375,45,54013,5726,892,105
3376,61,54013,5726,892,116
3377,77,54013,5726,892,105
3378,3,54103,5664,890,128
3379,19,54103,5664,890,65
3380,35,54103,5664,890,113
3381,51,54103,5664,890,81
3382,67,54103,5664,890,71
3383,83,54103,5664,890,96
3384,10,54192,5625,890,106
3385,26,54192,5625,890,158
3386,42,54192,5625,890,80
3387,58,54192,5625,890,95
3388,74,54192,5625,890,119
3389,0,54282,5677,891,103
3390,16,54282,5677,891,180
3391,32,54282,5677,891,123
3392,48,54282,5677,891,87
3393,64,54282,5677,891,135
3394,81,54282,5677,891,124
3395,6,54372,5767,893,162
3396,23,54372,5767,893,89
3397,38,54372,5767,893,179
3398,55,54372,5767,893,142
3399,71,54372,5767,893,129
3400,87,54372,5767,893,134
3401,13,54462,5753,893,189
3402,29,54462,5753,893,85
3403,45,54462,5753,893,105
3404,61,54462,5753,893,102
3405,77,54462,5753,893,103
3406,4,54551,5787,893,117
3407,20,54551,5787,893,194
3408,36,54551,5787,893,94
3409,52,54551,5787,893,95
3410,68,54551,5787,893,106
3411,84,54551,5787,893,141
3412,8,54643,5798,896,120
3413,24,54643,5798,896,138
3414,40,54643,5798,896,198
3415,56,54643,5798,896,128
3416,72,54643,5798,896,155
3417,88,54643,5798,896,124
3418,14,54733,5828,898,200
3419,30,54733,5828,898,136
3420,46,54733,5828,898,171
3421,62,54733,5828,898,179
3422,78,54733,5828,898,135
3423,1,54826,5849,901,137
3424,17,54826,5849,901,111
3425,33,54826,5849,901,123
3426,49,54826,5849,901,110
3427,65,54826,5849,901,180
3428,81,54826,5849,901,159
3429,6,54917,5842,904,207
3430,22,54917,5842,904,222
3431,38,54917,5842,904,228
3432,54,54917,5842,904,198
3433,70,54917,5842,904,164
3434,86,54917,5842,904,157
3435,8,55011,5879,908,188
3436,24,55011,5879,908,258
3437,40,55011,5879,908,198
3438,56,55011,5879,908,119
3439,72,55011,5879,908,131
3440,88,55011,5879,908,149
3441,12,55103,5907,911,65
3442,28,55103,5907,911,92
3443,44,55103,5907,911,96
3444,60,55103,5907,911,59
3445,76,55103,5907,911,70
3446,1,55194,5939,912,39
3447,17,55194,5939,912,89
3448,33,55194,5939,912,70
3449,49,55194,5939,912,75
3450,65,55194,5939,912,23
3451,81,55194,5939,912,74
3452,5,55286,5963,914,49
3453,21,55286,5963,914,106
3454,37,55286,5963,914,44
3455,53,55286,5963,914,74
3456,69,55286,5963,914,63
3457,85,55286,5963,914,46
3458,9,55378,6014,916,85
3459,25,55378,6014,916,65
3460,41,55378,6014,916,45
3461,57,55378,6014,916,76
3462,73,55378,6014,916,60
3463,89,55378,6014,916,41
3464,15,55468,5937,917,91
3465,31,55468,5937,917,37
3466,47,55468,5937,917,95
3467,63,55468,5937,917,80
3468,79,55468,5937,917,65
3469,3,55560,5957,917,57
3470,19,55560,5957,917,123
3471,35,55560,5957,917,67
3472,51,55560,5957,917,56
3473,68,55560,5957,917,64
3474,83,55560,5957,917,62
3475,11,55649,5937,916,89
3476,26,55649,5937,916,138
3477,43,55649,5937,916,98
3478,59,55649,5937,916,71
3479,74,55649,5937,916,84
3480,90,55649,5937,916,90
3481,14,55741,5940,915,126
3482,30,55741,5940,915,74
3483,46,55741,5940,915,69
3484,62,55741,5940,915,83
3485,78,55741,5940,915,72
3486,5,55831,5968,914,108
3487,20,55831,5968,914,67
3488,37,55831,5968,914,94
3489,53,55831,5968,914,116
3490,69,55831,5968,914,96
3491,85,55831,5968,914,70
3492,9,55923,5896,912,93
3493,25,55923,5896,912,136
3494,41,55923,5896,912,101
3495,57,55923,5896,912,100
3496,73,55923,5896,912,117
3497,89,55923,5896,912,69
3498,15,56013,5910,910,70
3499,31,56013,5910,910,126
3500,47,56013,5910,910,111
3501,63,56013,5910,910,70
3502,80,56013,5910,910,79
3503,6,56103,5872,909,101
3504,22,56103,5872,909,127
3505,38,56103,5872,909,138
3506,54,56103,5872,909,93
3507,70,56103,5872,909,76
3508,86,56103,5872,909,105
3509,14,56191,5807,905,137
3510,30,56191,5807,905,144
3511,46,56191,5807,905,147
3512,62,56191,5807,905,139
3513,78,56191,5807,905,100
3514,3,56282,5808,904,106
3515,19,56282,5808,904,112
3516,35,56282,5808,904,134
3517,51,56282,5808,904,146
3518,67,56282,5808,904,105
3519,83,56282,5808,904,103
3520,9,56372,5786,904,202
3521,26,56372,5786,904,129
3522,42,56372,5786,904,146
3523,58,56372,5786,904,132
3524,74,56372,5786,904,142
3525,90,56372,5786,904,109
3526,15,56463,5774,903,154
3527,31,56463,5774,903,173
3528,47,56463,5774,903,177
3529,63,56463,5774,903,171
3530,79,56463,5774,903,164
3531,5,56553,5850,904,169
3532,21,56553,5850,904,175
3533,37,56553,5850,904,163
3534,53,56553,5850,904,114
3535,69,56553,5850,904,156
3536,85,56553,5850,904,102
3537,8,56646,5846,905,175
3538,24,56646,5846,905,247
3539,40,56646,5846,905,109
3540,56,56646,5846,905,194
3541,72,56646,5846,905,142
3542,88,56646,5846,905,109
3543,14,56736,5812,905,118
3544,30,56736,5812,905,219
3545,46,56736,5812,905,152
3546,62,56736,5812,905,164
3547,78,56736,5812,905,175
3548,2,56828,5838,905,128
3549,18,56828,5838,905,253
3550,34,56828,5838,905,218
3551,50,56828,5838,905,148
3552,66,56828,5838,905,183
3553,82,56828,5838,905,119
3554,8,56918,5817,905,92
3555,24,56918,5817,905,22
3556,40,56918,5817,905,53
3557,56,56918,5817,905,64
3558,72,56918,5817,905,18
3559,88,56918,5817,905,73
3560,14,57008,5783,905,76
3561,30,57008,5783,905,85
3562,47,57008,5783,905,43
3563,63,57008,5783,905,35
3564,79,57008,5783,905,63
3565,6,57097,5828,906,79
3566,22,57097,5828,906,80
3567,38,57097,5828,906,68
3568,54,57097,5828,906,73
3569,70,57097,5828,906,48
3570,86,57097,5828,906,67
3571,12,57187,5803,905,66
3572,28,57187,5803,905,87
3573,44,57187,5803,905,51
3574,60,57187,5803,905,52
3575,76,57187,5803,905,75
3576,3,57276,5809,904,73
3577,19,57276,5809,904,45
3578,35,57276,5809,904,79
3579,51,57276,5809,904,50
3580,67,57276,5809,904,79
3581,83,57276,5809,904,74
3582,9,57366,5813,903,81
3583,25,57366,5813,903,52
3584,41,57366,5813,903,50
3585,57,57366,5813,903,91
3586,73,57366,5813,903,90
3587,2,57453,5716,900,85
3588,18,57453,5716,900,76
3589,34,57453,5716,900,51
3590,50,57453,5716,900,111
3591,66,57453,5716,900,67
3592,82,57453,5716,900,74
3593,10,57541,5694,895,130
3594,26,57541,5694,895,103
3595,42,57541,5694,895,112
3596,58,57541,5694,895,89
3597,75,57541,5694,895,97
3598,3,57628,5674,892,68
3599,20,57628,5674,892,126
3600,36,57628,5674,892,95
