time,streamBufferSize,counter,trieNodeNumber,trieSize,memory
1,0,0,1,0,19
2,2,36,260,36,59
3,9,68,493,68,289
4,16,100,710,98,475
5,15,139,925,127,19
6,6,185,1130,156,98
7,20,209,1251,173,163
8,2,265,1479,209,202
9,11,295,1592,227,231
10,18,325,1726,243,316
11,27,355,1781,255,415
12,1,420,1969,281,559
13,4,455,2078,294,197
14,8,488,2140,303,427
15,10,523,2225,314,208
16,9,559,2243,323,84
17,8,598,2314,333,385
18,7,637,2364,342,366
19,3,679,2390,354,400
20,40,679,2390,354,282
21,36,721,2487,366,231
22,31,765,2551,377,258
23,24,811,2609,391,344
24,16,855,2622,400,206
25,11,900,2689,412,336
26,2,944,2734,421,188
27,40,944,2734,421,80
28,33,987,2815,428,94
29,25,1033,2873,435,64
30,20,1077,2925,440,332
31,11,1122,2995,443,40
32,7,1166,3058,445,155
33,0,1210,3042,445,311
34,39,1210,3042,445,488
35,33,1254,3027,443,197
36,26,1299,3060,444,433
37,17,1347,3123,447,268
38,8,1394,3139,450,121
39,45,1394,3139,450,372
40,36,1441,3141,454,93
41,26,1488,3170,455,347
42,17,1535,3148,458,105
43,4,1584,3195,462,249
44,42,1584,3195,462,29
45,34,1632,3155,466,226
46,23,1681,3212,471,361
47,10,1732,3261,478,497
48,1,1779,3288,480,137
49,36,1779,3288,480,342
50,28,1826,3230,479,50
51,19,1874,3198,480,142
52,8,1922,3197,481,269
53,46,1922,3197,481,408
54,37,1969,3168,481,91
55,27,2016,3219,481,313
56,19,2063,3176,479,556
57,10,2110,3145,478,233
58,1,2156,3140,475,379
59,40,2156,3140,475,539
60,34,2201,3093,469,231
61,26,2248,3064,469,473
62,17,2295,3097,469,229
63,4,2343,3138,469,266
64,42,2343,3138,469,398
65,32,2390,3117,468,524
66,21,2438,3166,469,576
67,13,2483,3122,467,79
68,4,2531,3138,468,199
69,42,2531,3138,468,293
70,33,2580,3170,470,396
71,21,2631,3164,475,501
72,10,2681,3175,480,133
73,1,2726,3180,478,331
74,40,2726,3180,478,559
75,30,2774,3172,479,114
76,23,2821,3166,478,202
77,12,2871,3236,481,338
78,3,2919,3211,481,486
79,42,2919,3211,481,148
80,31,2969,3269,486,290
81,21,3017,3263,486,375
82,7,3068,3276,488,405
83,46,3068,3276,488,478
84,37,3116,3274,485,574
85,28,3165,3280,484,156
86,17,3214,3284,488,332
87,7,3263,3286,489,514
88,46,3263,3286,489,115
89,34,3313,3329,492,199
90,25,3361,3299,490,315
91,15,3409,3302,490,464
92,5,3455,3275,486,114
93,43,3455,3275,486,306
94,34,3503,3270,486,459
95,23,3551,3270,483,450
96,14,3598,3235,482,572
97,5,3646,3254,481,162
98,43,3646,3254,481,329
99,33,3693,3250,479,49
100,26,3739,3194,476,306
101,19,3784,3149,471,77
102,13,3829,3097,468,229
103,7,3872,3090,463,326
104,2,3916,3078,461,442
105,39,3916,3078,461,47
106,34,3960,3056,457,238
107,29,4004,2996,453,446
108,22,4048,2990,450,228
109,17,4092,2952,446,499
110,10,4139,2940,446,158
111,3,4184,2983,445,328
112,41,4184,2983,445,517
113,37,4228,2965,444,167
114,28,4274,2963,445,326
115,20,4320,2969,448,520
116,13,4364,2960,448,278
117,6,4410,3007,450,465
118,46,4410,3007,450,94
119,36,4457,3061,453,189
120,30,4503,3081,455,315
121,22,4551,3131,459,452
122,12,4600,3161,461,128
123,3,4649,3151,465,352
124,42,4649,3151,465,511
125,31,4698,3207,470,125
126,21,4745,3218,471,225
127,10,4792,3218,472,228
128,50,4792,3218,472,389
129,38,4842,3243,478,65
130,28,4891,3219,481,312
131,18,4938,3202,481,119
132,8,4986,3197,483,408
133,43,4986,3197,483,84
134,35,5029,3141,478,275
135,29,5074,3103,474,493
136,19,5120,3123,471,268
137,13,5165,3094,467,56
138,3,5213,3153,468,274
139,41,5213,3153,468,71
140,32,5262,3153,470,293
141,21,5311,3167,469,530
142,9,5360,3172,469,251
143,49,5360,3172,469,440
144,34,5412,3160,474,215
145,20,5462,3192,476,423
146,10,5510,3188,481,565
147,49,5510,3188,481,200
148,35,5561,3204,487,431
149,25,5607,3171,487,226
150,15,5657,3224,492,427
151,4,5707,3221,494,123
152,41,5707,3221,494,121
153,26,5759,3232,497,277
154,16,5807,3213,496,455
155,3,5859,3223,499,195
156,41,5859,3223,499,437
157,31,5909,3244,497,288
158,19,5961,3233,499,141
159,7,6011,3284,501,320
160,46,6011,3284,501,494
161,34,6062,3337,501,176
162,20,6115,3386,508,389
163,7,6166,3409,509,138
164,45,6166,3409,509,391
165,30,6219,3384,512,111
166,17,6270,3376,511,358
167,6,6320,3397,513,135
168,44,6320,3397,513,306
169,30,6372,3403,513,517
170,18,6422,3374,513,85
171,6,6469,3355,508,246
172,45,6469,3355,508,445
173,34,6519,3353,508,194
174,24,6569,3338,507,456
175,14,6618,3367,503,248
176,5,6667,3337,501,413
177,44,6667,3337,501,23
178,33,6716,3326,497,173
179,24,6764,3327,494,356
180,14,6812,3325,492,77
181,2,6863,3342,491,320
182,40,6863,3342,491,89
183,33,6910,3376,488,279
184,20,6961,3391,492,485
185,9,7011,3388,492,78
186,46,7011,3388,492,245
187,37,7058,3342,489,460
188,26,7105,3305,487,230
189,16,7153,3291,486,67
190,4,7200,3295,484,346
191,43,7200,3295,484,66
192,33,7249,3308,485,242
193,24,7297,3273,485,428
194,12,7348,3225,485,190
195,4,7396,3213,486,442
196,43,7396,3213,486,111
197,31,7447,3195,486,289
198,21,7495,3191,484,487
199,12,7543,3222,485,613
200,2,7591,3239,486,275
201,41,7591,3239,486,486
202,32,7639,3231,486,270
203,23,7688,3220,488,543
204,11,7738,3263,489,196
205,0,7787,3259,490,300
206,38,7787,3259,490,441
207,29,7835,3273,487,128
208,17,7882,3224,486,208
209,8,7929,3222,482,378
210,47,7929,3222,482,65
211,38,7976,3198,481,288
212,29,8024,3183,481,90
213,19,8073,3192,482,350
214,9,8122,3206,483,250
215,44,8122,3206,483,211
216,36,8167,3210,479,164
217,27,8216,3183,478,420
218,18,8264,3180,477,88
219,7,8315,3165,480,263
220,44,8315,3165,480,362
221,34,8362,3181,480,481
222,24,8407,3156,478,96
223,15,8452,3137,476,289
224,5,8499,3159,475,484
225,42,8499,3159,475,274
226,36,8544,3132,471,545
227,25,8593,3119,471,199
228,18,8639,3116,472,369
229,6,8687,3114,471,553
230,44,8687,3114,471,283
231,37,8733,3088,469,110
232,26,8783,3120,468,304
233,15,8832,3182,470,533
234,5,8879,3189,472,341
235,42,8879,3189,472,524
236,32,8928,3242,476,197
237,22,8977,3247,478,419
238,11,9027,3312,483,114
239,48,9027,3312,483,160
240,33,9078,3322,485,300
241,26,9125,3301,486,455
242,15,9175,3318,488,118
243,3,9225,3371,492,334
244,42,9225,3371,492,145
245,31,9276,3364,493,428
246,20,9326,3329,494,259
247,6,9378,3366,499,508
248,46,9378,3366,499,201
249,34,9429,3379,501,443
250,20,9480,3382,503,258
251,11,9528,3338,501,83
252,47,9528,3338,501,317
253,38,9577,3317,499,526
254,25,9629,3380,504,225
255,13,9679,3380,504,420
256,52,9679,3380,504,176
257,37,9731,3375,506,430
258,27,9779,3367,503,213
259,14,9829,3359,503,387
260,3,9879,3366,501,575
261,42,9879,3366,501,319
262,29,9929,3337,500,556
263,19,9977,3291,497,246
264,10,10025,3353,497,477
265,47,10025,3353,497,109
266,35,10074,3358,497,315
267,27,10120,3297,491,537
268,14,10170,3297,491,195
269,4,10219,3275,488,87
270,42,10219,3275,488,335
271,33,10265,3260,486,526
272,24,10313,3268,484,269
273,14,10361,3205,482,78
274,5,10408,3189,479,346
275,43,10408,3189,479,112
276,37,10451,3181,474,317
277,31,10496,3147,471,57
278,23,10543,3144,469,252
279,16,10588,3117,468,455
280,8,10634,3085,464,215
281,47,10634,3085,464,485
282,38,10681,3101,462,271
283,28,10728,3149,463,496
284,19,10775,3123,462,229
285,5,10828,3165,467,429
286,41,10828,3165,467,166
287,32,10875,3161,467,347
288,23,10924,3188,473,447
289,11,10973,3175,477,592
290,2,11020,3158,477,251
291,40,11020,3158,477,464
292,32,11066,3202,478,258
293,21,11116,3231,482,530
294,11,11165,3235,484,171
295,2,11214,3233,486,367
296,40,11214,3233,486,552
297,28,11264,3261,489,562
298,18,11313,3224,485,172
299,8,11363,3240,488,353
300,46,11363,3240,488,104
301,38,11410,3235,486,366
302,27,11457,3227,484,147
303,20,11503,3249,483,363
304,11,11551,3246,485,172
305,2,11600,3242,484,60
306,39,11600,3242,484,289
307,30,11648,3236,483,449
308,17,11698,3224,484,511
309,4,11749,3214,485,242
310,44,11749,3214,485,480
311,34,11797,3235,484,325
312,25,11844,3205,481,161
313,18,11889,3173,479,321
314,12,11933,3170,476,516
315,4,11980,3201,477,259
316,42,11980,3201,477,75
317,37,12025,3194,474,283
318,27,12073,3157,473,461
319,19,12119,3136,471,225
320,12,12161,3079,463,384
321,6,12207,3032,458,565
322,44,12207,3032,458,281
323,36,12253,3035,456,514
324,28,12299,3030,455,263
325,21,12345,3032,456,484
326,14,12391,3030,458,288
327,5,12439,3024,459,456
328,43,12439,3024,459,640
329,34,12485,3013,460,34
330,26,12532,3078,459,162
331,13,12584,3145,465,276
332,6,12626,3151,465,499
333,45,12626,3151,465,276
334,37,12671,3166,464,116
335,32,12715,3101,462,41
336,27,12759,3072,460,294
337,19,12806,3077,461,168
338,13,12851,3125,460,471
339,5,12895,3090,456,290
340,42,12895,3090,456,469
341,35,12940,3077,455,194
342,26,12985,3009,453,451
343,20,13028,2956,444,306
344,17,13068,2935,442,162
345,13,13110,2941,439,438
346,6,13154,2976,439,212
347,1,13195,2961,436,447
348,40,13195,2961,436,234
349,33,13241,2963,435,512
350,27,13285,2932,434,287
351,23,13327,2940,432,452
352,19,13371,2945,431,155
353,11,13418,2972,433,377
354,4,13463,2950,435,184
355,42,13463,2950,435,385
356,35,13509,2967,441,134
357,28,13555,2973,445,398
358,20,13602,3013,448,174
359,10,13650,3082,455,254
360,1,13698,3108,457,67
361,40,13698,3108,457,362
362,31,13743,3087,458,289
363,21,13789,3132,462,203
364,14,13836,3108,465,455
365,5,13883,3076,465,277
366,43,13883,3076,465,92
367,34,13930,3072,467,279
368,27,13976,3092,467,484
369,16,14023,3144,468,265
370,7,14067,3097,465,122
371,47,14067,3097,465,362
372,38,14114,3074,464,536
373,28,14162,3056,464,260
374,21,14208,3083,465,493
375,12,14255,3071,466,324
376,4,14302,3143,466,212
377,42,14302,3143,466,450
378,32,14348,3167,465,196
379,22,14395,3185,465,458
380,14,14440,3157,464,119
381,6,14486,3119,463,328
382,43,14486,3119,463,487
383,34,14534,3143,467,267
384,24,14581,3128,467,547
385,16,14627,3106,465,283
386,6,14673,3119,465,539
387,42,14673,3119,465,70
388,33,14721,3116,466,301
389,23,14770,3087,468,114
390,15,14817,3067,469,393
391,6,14863,3020,468,314
392,44,14863,3020,468,114
393,36,14908,3007,468,393
394,27,14954,3030,468,235
395,21,14998,3010,464,78
396,14,15045,3049,464,389
397,4,15093,3054,466,328
398,43,15093,3054,466,116
399,35,15141,3024,468,321
400,25,15190,3046,469,74
401,16,15237,3048,467,329
402,7,15285,3071,468,198
403,44,15285,3071,468,121
404,35,15332,3124,469,107
405,26,15379,3146,471,416
406,16,15426,3106,472,188
407,8,15473,3126,475,422
408,47,15473,3126,475,569
409,37,15520,3117,475,242
410,28,15566,3123,473,488
411,23,15609,3127,468,293
412,15,15656,3085,466,568
413,6,15704,3107,467,319
414,45,15704,3107,467,22
415,35,15752,3099,467,227
416,28,15796,3070,464,457
417,20,15843,3075,464,275
418,12,15890,3102,464,167
419,3,15937,3084,464,120
420,43,15937,3084,464,98
421,31,15987,3114,467,155
422,23,16033,3106,467,144
423,16,16078,3118,469,107
424,7,16123,3101,467,440
425,3,16165,3070,461,299
426,43,16165,3070,461,503
427,36,16210,3061,458,288
428,30,16256,3062,460,125
429,23,16302,3037,459,442
430,14,16348,3019,458,320
431,9,16393,3018,456,101
432,2,16438,2941,451,364
433,41,16438,2941,451,545
434,31,16486,2959,453,275
435,24,16532,2947,454,517
436,15,16580,2959,457,361
437,8,16625,2995,460,593
438,0,16671,2965,461,298
439,36,16671,2965,461,525
440,30,16715,2954,459,349
441,24,16760,2981,458,154
442,16,16808,3004,460,402
443,9,16850,2994,457,174
444,47,16850,2994,457,291
445,39,16897,3031,459,86
446,33,16943,3005,457,383
447,23,16989,3021,457,292
448,19,17032,3038,452,63
449,12,17078,3023,453,235
450,4,17125,3054,454,441
451,42,17125,3054,454,180
452,35,17172,3067,457,437
453,23,17219,3100,459,292
454,15,17264,3092,456,201
455,5,17312,3127,462,450
456,42,17312,3127,462,249
457,37,17356,3145,459,485
458,25,17406,3183,463,318
459,15,17455,3213,466,124
460,3,17505,3236,473,375
461,43,17505,3236,473,222
462,31,17554,3257,476,457
463,19,17605,3259,480,156
464,10,17652,3250,480,359
465,47,17652,3250,480,98
466,34,17700,3264,481,354
467,28,17745,3259,481,202
468,16,17795,3279,483,488
469,5,17842,3297,486,246
470,43,17842,3297,486,454
471,32,17892,3282,486,173
472,23,17940,3299,485,365
473,11,17988,3300,483,578
474,47,17988,3300,483,205
475,38,18036,3269,482,416
476,29,18083,3261,478,174
477,21,18130,3261,478,452
478,10,18179,3260,479,321
479,2,18225,3241,480,253
480,41,18225,3241,480,77
481,28,18276,3252,481,363
482,20,18322,3261,480,238
483,8,18372,3276,480,504
484,47,18372,3276,480,245
485,37,18420,3227,480,453
486,26,18470,3202,482,175
487,15,18520,3226,484,390
488,4,18570,3225,487,200
489,44,18570,3225,487,481
490,33,18619,3210,489,128
491,21,18667,3226,488,278
492,11,18715,3292,490,475
493,50,18715,3292,490,223
494,37,18766,3281,490,495
495,25,18815,3288,493,351
496,14,18863,3262,491,198
497,4,18913,3302,493,374
498,40,18913,3302,493,559
499,29,18962,3312,492,324
500,18,19011,3306,491,575
501,8,19060,3274,490,278
502,45,19060,3274,490,502
503,36,19109,3307,490,297
504,22,19160,3294,493,458
505,4,19217,3335,502,340
506,40,19217,3335,502,128
507,28,19266,3338,500,390
508,13,19318,3381,503,31
509,46,19318,3381,503,111
510,30,19373,3391,510,308
511,16,19425,3361,512,102
512,4,19475,3392,513,406
513,41,19475,3392,513,196
514,31,19524,3407,513,420
515,15,19578,3469,518,307
516,5,19626,3442,517,196
517,45,19626,3442,517,66
518,31,19678,3471,518,367
519,18,19728,3384,511,275
520,8,19777,3357,511,115
521,48,19777,3357,511,294
522,36,19826,3345,508,501
523,27,19873,3337,500,277
524,18,19919,3280,494,524
525,4,19970,3255,495,202
526,44,19970,3255,495,340
527,33,20018,3250,494,503
528,21,20069,3262,491,202
529,12,20115,3252,489,424
530,1,20165,3244,487,236
531,40,20165,3244,487,117
532,32,20212,3264,484,362
533,20,20262,3257,485,611
534,12,20309,3208,483,299
535,3,20356,3216,483,520
536,43,20356,3216,483,316
537,35,20404,3290,485,184
538,25,20453,3284,483,415
539,16,20502,3285,484,137
540,3,20553,3264,484,197
541,40,20553,3264,484,340
542,32,20600,3253,485,27
543,22,20647,3222,482,234
544,14,20693,3187,481,35
545,5,20740,3149,478,321
546,43,20740,3149,478,228
547,37,20784,3151,475,180
548,28,20831,3136,475,473
549,22,20876,3116,472,218
550,14,20922,3106,469,472
551,7,20967,3097,465,332
552,44,20967,3097,465,253
553,35,21013,3048,460,69
554,25,21059,3084,459,360
555,19,21103,3082,456,198
556,10,21150,3077,457,452
557,1,21199,3118,459,104
558,41,21199,3118,459,314
559,32,21248,3134,464,97
560,19,21297,3159,466,359
561,10,21344,3211,468,243
562,48,21344,3211,468,115
563,38,21392,3229,470,383
564,27,21441,3261,474,251
565,16,21487,3281,474,131
566,7,21534,3229,475,351
567,44,21534,3229,475,533
568,37,21579,3245,476,263
569,29,21627,3242,477,507
570,17,21677,3246,478,352
571,7,21726,3251,478,161
572,46,21726,3251,478,375
573,34,21776,3278,479,592
574,26,21823,3220,479,267
575,12,21871,3191,479,276
576,8,21915,3146,474,428
577,47,21915,3146,474,85
578,34,21963,3122,476,302
579,30,22006,3110,472,74
580,22,22052,3102,473,342
581,14,22098,3141,471,231
582,5,22145,3139,468,105
583,44,22145,3139,468,373
584,36,22192,3117,466,105
585,23,22243,3089,467,354
586,13,22292,3122,469,181
587,1,22342,3147,471,81
588,40,22342,3147,471,411
589,29,22390,3172,475,68
590,20,22436,3186,473,384
591,13,22479,3204,473,139
592,4,22526,3223,474,354
593,42,22526,3223,474,127
594,35,22571,3197,473,394
595,26,22619,3208,474,588
596,18,22667,3205,475,196
597,7,22715,3209,472,377
598,44,22715,3209,472,116
599,36,22761,3168,469,345
600,28,22808,3134,466,203
601,18,22855,3120,465,498
602,9,22904,3106,468,222
603,48,22904,3106,468,425
604,37,22952,3141,473,196
605,28,23000,3137,474,457
606,19,23046,3162,475,258
607,10,23094,3152,475,474
608,1,23142,3173,475,228
609,41,23142,3173,475,457
610,34,23188,3149,473,259
611,26,23235,3211,474,489
612,17,23282,3190,474,184
613,5,23330,3214,475,231
614,41,23330,3214,475,437
615,36,23372,3173,468,203
616,30,23417,3163,465,38
617,21,23463,3157,463,341
618,14,23508,3141,462,198
619,7,23554,3137,460,479
620,45,23554,3137,460,187
621,37,23601,3077,459,438
622,27,23648,3096,460,246
623,20,23695,3065,460,143
624,11,23743,3078,461,445
625,3,23789,3056,459,280
626,42,23789,3056,459,69
627,34,23836,3126,464,356
628,26,23883,3128,466,192
629,17,23931,3138,468,475
630,7,23980,3148,472,298
631,44,23980,3148,472,133
632,36,24027,3116,473,407
633,23,24076,3183,475,247
634,16,24119,3138,471,516
635,4,24169,3125,474,207
636,40,24169,3125,474,441
637,29,24217,3179,474,189
638,18,24266,3169,477,396
639,7,24316,3143,480,185
640,45,24316,3143,480,388
641,32,24367,3165,484,145
642,22,24417,3163,486,314
643,10,24468,3182,488,484
644,48,24468,3182,488,214
645,38,24517,3226,490,470
646,26,24567,3259,491,210
647,16,24615,3297,496,415
648,3,24665,3318,496,189
649,41,24665,3318,496,450
650,31,24713,3292,496,22
651,18,24763,3318,497,209
652,7,24811,3302,495,432
653,45,24811,3302,495,235
654,33,24861,3290,494,106
655,22,24909,3289,492,40
656,11,24958,3284,490,295
657,2,25006,3289,489,162
658,41,25006,3289,489,92
659,30,25055,3260,488,433
660,20,25102,3253,487,267
661,11,25148,3221,483,476
662,2,25195,3211,482,248
663,40,25195,3211,482,93
664,31,25242,3223,479,369
665,20,25291,3241,480,217
666,10,25339,3234,478,446
667,49,25339,3234,478,249
668,37,25389,3221,480,433
669,29,25435,3206,477,175
670,21,25482,3182,476,424
671,12,25530,3194,475,275
672,3,25576,3220,474,558
673,43,25576,3220,474,353
674,32,25624,3238,476,194
675,22,25670,3265,475,407
676,14,25717,3233,475,210
677,4,25764,3235,473,481
678,43,25764,3235,473,242
679,33,25813,3266,474,507
680,22,25863,3265,474,349
681,13,25911,3289,476,172
682,52,25911,3289,476,378
683,38,25964,3356,482,553
684,26,26013,3346,483,248
685,14,26064,3332,488,483
686,51,26064,3332,488,112
687,37,26116,3359,492,322
688,24,26166,3345,496,92
689,16,26213,3373,496,361
690,4,26263,3381,499,247
691,41,26263,3381,499,189
692,30,26309,3345,496,457
693,21,26356,3297,493,330
694,10,26406,3304,495,200
695,48,26406,3304,495,54
696,39,26454,3246,490,350
697,30,26501,3227,488,276
698,18,26548,3201,484,204
699,11,26593,3173,477,93
700,3,26639,3176,473,333
701,41,26639,3176,473,132
702,32,26686,3189,473,302
703,22,26733,3168,470,518
704,16,26779,3192,470,285
705,7,26826,3213,470,485
706,44,26826,3213,470,212
707,35,26872,3183,466,467
708,29,26917,3121,463,221
709,18,26965,3134,464,433
710,10,27010,3140,462,212
711,2,27056,3171,463,484
712,40,27056,3171,463,376
713,31,27101,3141,462,147
714,26,27142,3108,456,378
715,20,27187,3099,454,527
716,12,27233,3073,454,177
717,5,27276,3035,450,382
718,45,27276,3035,450,166
719,36,27322,3018,450,422
720,31,27366,3018,449,198
721,23,27412,3018,447,430
722,18,27457,2986,447,176
723,10,27504,3010,448,387
724,3,27548,3036,447,581
725,38,27548,3036,447,299
726,36,27588,3003,446,546
727,28,27633,3038,446,116
728,24,27676,3024,443,332
729,19,27718,3020,442,84
730,13,27762,3000,440,327
731,7,27807,3072,441,192
732,3,27848,3044,436,112
733,42,27848,3044,436,452
734,39,27891,3016,434,241
735,35,27934,2939,430,471
736,26,27977,2895,429,266
737,25,28014,2898,426,153
738,22,28054,2827,421,85
739,15,28099,2871,423,429
740,12,28140,2896,422,259
741,5,28185,2903,423,540
742,44,28185,2903,423,228
743,35,28231,2880,424,479
744,31,28274,2871,426,325
745,23,28320,2889,429,152
746,16,28364,2908,430,390
747,10,28408,2959,431,172
748,3,28454,2999,440,450
749,43,28454,2999,440,155
750,33,28501,3074,447,400
751,28,28545,3066,446,207
752,19,28592,3064,452,487
753,12,28636,3063,451,238
754,4,28683,3075,452,466
755,42,28683,3075,452,314
756,34,28729,3057,455,530
757,27,28775,3033,455,267
758,20,28819,3044,455,503
759,15,28860,2998,452,223
760,10,28905,2989,451,431
761,2,28949,2939,448,190
762,41,28949,2939,448,444
763,34,28994,2925,449,631
764,29,29039,2957,447,366
765,20,29085,2992,449,168
766,16,29128,2952,445,450
767,8,29173,2956,444,156
768,1,29219,2971,444,394
769,37,29219,2971,444,41
770,29,29265,2971,446,268
771,26,29308,3023,448,65
772,15,29356,3071,451,345
773,10,29400,3070,451,250
774,3,29446,3043,452,196
775,40,29446,3043,452,60
776,35,29488,3039,449,373
777,29,29532,2991,447,263
778,23,29575,2962,447,117
779,17,29621,2950,448,406
780,8,29668,2974,449,305
781,1,29714,3002,449,69
782,39,29714,3002,449,318
783,31,29758,2985,450,185
784,26,29801,2939,445,489
785,19,29843,2930,443,290
786,13,29888,2925,442,151
787,8,29932,2917,444,461
788,3,29976,2924,444,248
789,42,29976,2924,444,99
790,35,30022,2992,447,317
791,30,30067,3017,446,102
792,22,30113,3028,445,372
793,17,30155,2998,441,272
794,9,30200,3007,442,117
795,2,30246,3025,445,395
796,42,30246,3025,445,202
797,33,30293,3060,450,468
798,26,30336,3043,448,307
799,20,30379,3052,447,574
800,15,30421,3031,445,236
801,10,30465,3007,443,441
802,3,30511,3011,444,211
803,42,30511,3011,444,475
804,35,30557,2971,444,165
805,26,30602,2994,447,388
806,21,30643,2976,443,198
807,12,30690,2992,444,382
808,2,30738,3011,445,576
809,38,30738,3011,445,326
810,32,30783,3036,447,577
811,21,30833,3060,454,234
812,15,30878,3064,457,471
813,4,30928,3063,463,258
814,43,30928,3063,463,136
815,34,30975,3056,464,53
816,24,31024,3111,467,61
817,17,31070,3090,468,369
818,5,31120,3147,477,284
819,41,31120,3147,477,246
820,33,31166,3152,476,136
821,22,31214,3111,476,91
822,12,31263,3156,480,94
823,50,31263,3156,480,68
824,39,31313,3160,480,393
825,25,31365,3230,487,389
826,13,31415,3271,487,361
827,0,31466,3291,491,317
828,37,31466,3291,491,324
829,26,31515,3254,491,275
830,12,31565,3298,495,232
831,49,31565,3298,495,208
832,37,31614,3330,494,163
833,22,31664,3352,498,150
834,11,31714,3405,500,138
835,50,31714,3405,500,497
836,36,31766,3400,503,414
837,24,31818,3426,505,398
838,10,31868,3383,503,288
839,46,31868,3383,503,507
840,38,31915,3338,500,281
841,24,31964,3333,498,551
842,16,32011,3351,496,323
843,4,32061,3361,496,545
844,42,32061,3361,496,350
845,34,32109,3349,495,639
846,22,32160,3385,496,367
847,9,32211,3343,497,590
848,47,32211,3343,497,406
849,35,32261,3283,495,205
850,24,32312,3290,494,425
851,10,32364,3350,496,465
852,45,32364,3350,496,68
853,35,32412,3385,497,287
854,25,32462,3390,498,27
855,14,32512,3391,501,281
856,2,32559,3351,498,113
857,40,32559,3351,498,420
858,31,32607,3316,498,355
859,20,32657,3293,497,338
860,10,32705,3282,494,292
861,1,32752,3289,491,230
862,40,32752,3289,491,241
863,31,32800,3216,488,152
864,20,32849,3186,485,394
865,12,32895,3153,483,91
866,5,32941,3140,479,287
867,43,32941,3140,479,503
868,35,32986,3125,474,277
869,26,33033,3157,474,120
870,20,33079,3200,472,424
871,9,33128,3184,471,327
872,47,33128,3184,471,308
873,38,33176,3206,471,350
874,29,33225,3236,473,279
875,17,33275,3269,475,209
876,10,33321,3249,472,512
877,1,33365,3251,470,328
878,39,33365,3251,470,187
879,30,33413,3266,472,432
880,18,33461,3228,475,211
881,9,33506,3201,473,488
882,1,33553,3154,474,357
883,41,33553,3154,474,284
884,31,33601,3172,473,485
885,19,33650,3151,474,299
886,11,33697,3133,472,156
887,2,33743,3102,468,361
888,40,33743,3102,468,591
889,31,33791,3130,470,422
890,20,33840,3167,475,308
891,11,33887,3155,474,555
892,46,33887,3155,474,147
893,39,33933,3179,472,346
894,31,33981,3220,475,54
895,21,34031,3238,478,288
896,9,34080,3186,479,109
897,49,34080,3186,479,409
898,38,34129,3244,479,320
899,28,34178,3234,481,312
900,19,34226,3257,483,344
901,8,34275,3248,484,341
902,45,34275,3248,484,325
903,38,34320,3223,480,352
904,29,34367,3210,480,306
905,20,34414,3192,481,301
906,10,34463,3166,482,265
907,49,34463,3166,482,228
908,38,34513,3199,482,87
909,21,34567,3283,487,362
910,12,34613,3214,484,261
911,2,34663,3222,485,166
912,38,34663,3222,485,84
913,29,34710,3239,484,434
914,18,34758,3221,483,407
915,8,34807,3274,487,285
916,46,34807,3274,487,195
917,34,34857,3297,490,520
918,21,34909,3334,495,315
919,10,34959,3383,496,146
920,47,34959,3383,496,426
921,38,35008,3346,495,349
922,22,35059,3281,492,172
923,12,35106,3322,493,465
924,0,35156,3335,493,372
925,37,35156,3335,493,292
926,27,35205,3344,495,569
927,15,35256,3349,498,293
928,3,35307,3391,500,524
929,43,35307,3391,500,342
930,30,35359,3434,502,526
931,18,35410,3429,501,257
932,7,35461,3437,502,509
933,45,35461,3437,502,330
934,31,35513,3435,505,520
935,21,35562,3460,503,268
936,7,35613,3477,507,324
937,44,35613,3477,507,507
938,34,35659,3477,503,226
939,24,35706,3523,501,22
940,14,35753,3542,497,287
941,4,35802,3533,495,181
942,43,35802,3533,495,133
943,29,35852,3501,493,131
944,19,35900,3473,490,173
945,9,35948,3459,487,265
946,48,35948,3459,487,59
947,34,35997,3464,484,139
948,27,36044,3411,482,131
949,15,36092,3355,479,432
950,7,36139,3338,480,351
951,45,36139,3338,480,323
952,33,36187,3301,481,289
953,26,36231,3241,478,211
954,16,36279,3149,477,171
955,6,36325,3130,473,112
956,45,36325,3130,473,355
957,37,36373,3126,473,108
958,27,36421,3115,473,361
959,19,36469,3120,472,211
960,12,36515,3103,471,514
961,4,36561,3107,469,310
962,40,36561,3107,469,172
963,33,36606,3088,467,444
964,25,36651,3099,464,313
965,19,36696,3131,465,186
966,11,36743,3134,464,480
967,5,36785,3109,460,338
968,44,36785,3109,460,517
969,37,36830,3129,457,276
970,33,36874,3087,453,542
971,23,36921,3094,452,382
972,16,36968,3117,453,201
973,4,37014,3121,453,434
974,41,37014,3121,453,235
975,34,37061,3124,455,479
976,23,37110,3102,459,633
977,13,37158,3122,462,334
978,3,37207,3143,464,558
979,41,37207,3143,464,346
980,29,37257,3151,472,200
981,21,37305,3161,475,432
982,7,37354,3201,480,421
983,44,37354,3201,480,552
984,35,37402,3181,481,184
985,26,37451,3190,483,372
986,15,37499,3219,485,117
987,5,37546,3225,485,357
988,43,37546,3225,485,201
989,35,37592,3250,482,119
990,26,37638,3231,480,76
991,19,37683,3248,476,99
992,12,37729,3245,472,163
993,5,37775,3216,470,56
994,43,37775,3216,470,341
995,35,37821,3186,467,244
996,29,37866,3152,464,500
997,23,37911,3110,460,317
998,16,37957,3122,458,213
999,10,38002,3144,456,88
1000,2,38049,3115,457,361
1001,40,38049,3115,457,239
1002,31,38094,3067,456,182
1003,27,38137,3024,454,454
1004,16,38185,3052,456,350
1005,10,38231,3074,456,260
1006,3,38278,3076,457,557
1007,40,38278,3076,457,305
1008,32,38325,3136,459,138
1009,22,38373,3118,462,414
1010,10,38421,3133,464,247
1011,0,38471,3160,469,498
1012,37,38471,3160,469,342
1013,28,38519,3203,470,266
1014,18,38567,3225,473,220
1015,6,38615,3271,478,167
1016,45,38615,3271,478,445
1017,35,38663,3270,478,216
1018,26,38712,3261,481,417
1019,12,38762,3311,484,182
1020,3,38809,3293,484,445
1021,42,38809,3293,484,218
1022,30,38860,3340,487,443
1023,20,38910,3336,489,664
1024,6,38962,3308,491,291
1025,44,38962,3308,491,494
1026,33,39011,3292,492,238
1027,23,39061,3332,494,500
1028,9,39113,3382,498,46
1029,46,39113,3382,498,252
1030,33,39161,3408,498,474
1031,26,39207,3383,495,296
1032,15,39256,3385,494,188
1033,6,39304,3412,495,117
1034,44,39304,3412,495,91
1035,33,39353,3392,493,125
1036,23,39400,3343,490,190
1037,14,39447,3321,485,241
1038,3,39495,3296,484,72
1039,43,39495,3296,484,340
1040,32,39544,3300,483,219
1041,20,39595,3233,482,164
1042,11,39643,3252,482,174
1043,1,39692,3264,485,468
1044,39,39692,3264,485,274
1045,25,39742,3263,486,516
1046,17,39788,3255,484,344
1047,8,39835,3207,482,244
1048,47,39835,3207,482,195
1049,37,39883,3193,483,206
1050,28,39930,3250,483,124
1051,19,39979,3266,484,420
1052,8,40028,3255,484,296
1053,46,40028,3255,484,206
1054,32,40077,3188,482,169
1055,27,40122,3154,479,483
1056,15,40172,3206,480,342
1057,5,40221,3169,479,534
1058,41,40221,3169,479,287
1059,32,40268,3152,480,552
1060,22,40314,3172,479,400
1061,10,40365,3237,482,235
1062,49,40365,3237,482,467
1063,36,40415,3253,485,281
1064,25,40463,3253,484,160
1065,13,40513,3253,485,406
1066,2,40564,3322,487,201
1067,40,40564,3322,487,441
1068,30,40612,3331,490,275
1069,17,40664,3329,492,166
1070,7,40712,3344,491,495
1071,44,40712,3344,491,321
1072,33,40760,3352,492,555
1073,22,40809,3382,495,357
1074,12,40858,3386,493,194
1075,1,40904,3320,489,239
1076,37,40904,3320,489,51
1077,32,40948,3291,485,363
1078,24,40995,3264,482,268
1079,13,41043,3225,479,230
1080,5,41088,3200,476,168
1081,41,41088,3200,476,74
1082,34,41134,3136,470,48
1083,25,41182,3154,470,77
1084,15,41232,3216,472,408
1085,5,41279,3223,470,376
1086,45,41279,3223,470,390
1087,36,41327,3208,469,359
1088,24,41377,3222,473,364
1089,16,41425,3224,477,347
1090,5,41473,3243,478,360
1091,40,41473,3243,478,338
1092,33,41518,3204,475,215
1093,23,41566,3204,478,429
1094,12,41614,3203,480,219
1095,2,41663,3244,481,482
1096,40,41663,3244,481,362
1097,29,41712,3218,480,159
1098,18,41760,3181,481,447
1099,7,41809,3167,482,343
1100,45,41809,3167,482,289
1101,34,41858,3149,481,198
1102,23,41908,3202,483,486
1103,11,41959,3200,486,171
1104,51,41959,3200,486,391
1105,35,42011,3240,493,179
1106,25,42059,3239,493,447
1107,13,42108,3262,494,249
1108,1,42158,3257,495,468
1109,39,42158,3257,495,609
1110,25,42209,3254,497,245
1111,15,42258,3283,498,450
1112,4,42307,3296,498,213
1113,43,42307,3296,498,474
1114,33,42355,3326,497,349
1115,25,42402,3302,494,587
1116,15,42450,3281,491,373
1117,4,42496,3264,485,219
1118,42,42496,3264,485,519
1119,34,42543,3291,484,300
1120,22,42593,3298,485,531
1121,13,42638,3211,480,304
1122,2,42687,3148,478,562
1123,38,42687,3148,478,169
1124,30,42734,3125,476,408
1125,18,42783,3122,476,238
1126,11,42826,3058,471,135
1127,3,42874,3042,472,89
1128,41,42874,3042,472,86
1129,33,42920,3046,470,125
1130,21,42969,3083,473,219
1131,16,43012,3041,469,68
1132,7,43058,3055,465,188
1133,43,43058,3055,465,276
1134,37,43103,3077,465,254
1135,29,43151,3088,464,128
1136,18,43200,3079,466,309
1137,9,43247,3065,464,518
1138,46,43247,3065,464,330
1139,39,43294,3096,468,200
1140,29,43343,3118,469,138
1141,21,43390,3107,470,125
1142,12,43436,3063,467,151
1143,5,43483,3077,471,472
1144,42,43483,3077,471,271
1145,33,43530,3089,472,107
1146,26,43577,3147,474,395
1147,17,43624,3160,473,228
1148,9,43670,3173,470,489
1149,0,43717,3204,470,197
1150,39,43717,3204,470,423
1151,29,43765,3220,471,248
1152,21,43811,3232,468,143
1153,12,43858,3255,468,438
1154,2,43907,3277,471,226
1155,39,43907,3277,471,515
1156,29,43954,3279,471,328
1157,17,44002,3275,472,570
1158,8,44051,3272,474,366
1159,46,44051,3272,474,151
1160,36,44099,3285,475,443
1161,26,44145,3251,475,286
1162,19,44191,3236,474,505
1163,13,44236,3187,471,295
1164,4,44284,3201,473,567
1165,43,44284,3201,473,446
1166,37,44329,3167,471,229
1167,27,44375,3165,468,398
1168,22,44418,3150,464,581
1169,17,44463,3141,461,306
1170,10,44510,3129,459,544
1171,1,44558,3175,459,365
1172,41,44558,3175,459,656
1173,29,44607,3181,462,134
1174,20,44654,3166,463,364
1175,14,44698,3160,462,162
1176,6,44745,3101,461,443
1177,45,44745,3101,461,339
1178,37,44790,3098,461,273
1179,30,44835,3060,460,263
1180,25,44878,3068,460,286
1181,18,44923,3060,460,260
1182,11,44968,3046,458,92
1183,3,45014,2988,456,371
1184,43,45014,2988,456,280
1185,33,45058,2945,451,256
1186,30,45100,2942,446,129
1187,22,45144,2975,446,430
1188,15,45189,2997,444,364
1189,8,45235,3056,445,350
1190,2,45278,3076,443,394
1191,39,45278,3076,443,274
1192,33,45321,3064,443,524
1193,24,45367,3081,444,376
1194,17,45411,3068,443,265
1195,9,45456,3044,442,161
1196,3,45500,3040,442,452
1197,42,45500,3040,442,298
1198,36,45544,3045,444,482
1199,27,45590,3028,446,192
1200,22,45633,2992,444,440
1201,18,45675,2983,440,264
1202,12,45720,2988,442,156
1203,5,45763,2965,442,374
1204,44,45763,2965,442,175
1205,34,45810,2955,443,441
1206,27,45855,2970,444,253
1207,20,45901,3018,445,483
1208,12,45947,3037,447,306
1209,5,45994,3067,450,170
1210,43,45994,3067,450,394
1211,35,46040,3057,450,585
1212,27,46087,3098,454,333
1213,18,46134,3071,459,581
1214,11,46180,3019,460,402
1215,3,46227,3091,464,300
1216,42,46227,3091,464,538
1217,33,46275,3123,465,297
1218,26,46321,3114,466,565
1219,16,46369,3164,468,332
1220,9,46415,3202,468,500
1221,1,46459,3173,465,199
1222,38,46459,3173,465,426
1223,32,46504,3173,464,228
1224,23,46553,3183,466,502
1225,11,46602,3240,468,82
1226,1,46648,3248,468,322
1227,40,46648,3248,468,147
1228,30,46697,3232,470,35
1229,20,46745,3213,470,368
1230,10,46792,3245,471,214
1231,47,46792,3245,471,188
1232,36,46843,3240,474,244
1233,25,46892,3209,477,194
1234,14,46938,3255,479,196
1235,7,46980,3240,476,183
1236,46,46980,3240,476,87
1237,38,47027,3193,474,362
1238,26,47076,3160,474,277
1239,11,47127,3209,479,116
1240,50,47127,3209,479,332
1241,29,47188,3278,491,145
1242,5,47251,3383,506,361
1243,44,47251,3383,506,220
1244,17,47317,3455,525,156
1245,56,47317,3455,525,370
1246,30,47382,3541,539,331
1247,1,47448,3683,556,333
1248,40,47448,3683,556,151
1249,23,47503,3708,565,283
1250,9,47555,3784,575,371
1251,49,47555,3784,575,158
1252,35,47608,3818,581,253
1253,18,47661,3864,585,357
1254,3,47714,3884,587,373
1255,41,47714,3884,587,405
1256,25,47765,3838,577,130
1257,12,47818,3764,567,451
1258,52,47818,3764,567,446
1259,38,47870,3709,553,360
1260,22,47923,3637,541,251
1261,8,47975,3514,527,194
1262,47,47975,3514,527,447
1263,35,48026,3515,523,220
1264,20,48077,3498,522,444
1265,8,48128,3520,520,244
1266,46,48128,3520,520,496
1267,33,48179,3543,518,343
1268,20,48231,3529,517,247
1269,8,48282,3508,517,221
1270,47,48282,3508,517,475
1271,31,48334,3476,516,255
1272,22,48383,3458,513,437
1273,6,48437,3467,514,529
1274,45,48437,3467,514,661
1275,34,48486,3475,511,280
1276,21,48535,3458,509,451
1277,9,48585,3443,508,657
1278,49,48585,3443,508,430
1279,34,48637,3456,509,273
1280,23,48685,3399,506,573
1281,13,48733,3374,502,187
1282,2,48782,3366,500,439
1283,37,48782,3366,500,287
1284,30,48826,3351,492,200
1285,20,48873,3374,490,138
1286,11,48920,3288,483,143
1287,2,48967,3269,481,112
1288,41,48967,3269,481,63
1289,29,49017,3260,482,388
1290,17,49066,3273,481,322
1291,7,49115,3270,478,255
1292,47,49115,3270,478,220
1293,35,49166,3275,481,240
1294,23,49218,3285,485,182
1295,12,49267,3279,485,153
1296,1,49316,3320,490,160
1297,37,49316,3320,490,229
1298,29,49362,3300,489,175
1299,20,49409,3344,489,92
1300,11,49457,3322,490,421
1301,1,49505,3333,488,424
1302,40,49505,3333,488,256
1303,28,49553,3308,487,128
1304,20,49600,3261,485,350
1305,12,49644,3230,478,160
1306,4,49689,3183,471,437
1307,44,49689,3183,471,321
1308,35,49737,3173,470,249
1309,24,49786,3129,470,494
1310,17,49833,3105,471,372
1311,8,49878,3103,469,298
1312,47,49878,3103,469,250
1313,35,49926,3158,469,240
1314,28,49971,3120,466,150
1315,20,50017,3146,464,447
1316,10,50065,3136,465,197
1317,3,50109,3159,465,449
1318,40,50109,3159,465,287
1319,32,50155,3173,466,584
1320,23,50200,3155,463,345
1321,15,50243,3144,457,589
1322,6,50289,3116,456,446
1323,43,50289,3116,456,639
1324,36,50336,3140,458,418
1325,24,50384,3095,458,243
1326,16,50428,3087,457,534
1327,8,50473,3032,456,262
1328,47,50473,3032,456,486
1329,37,50522,3049,457,325
1330,29,50567,3055,458,227
1331,21,50613,3056,458,469
1332,14,50658,3028,458,710
1333,2,50706,3091,463,83
1334,42,50706,3091,463,297
1335,34,50752,3113,463,45
1336,28,50797,3105,461,308
1337,21,50841,3089,457,165
1338,14,50886,3100,458,77
1339,8,50931,3096,458,37
1340,1,50974,3069,452,42
1341,41,50974,3069,452,370
1342,32,51023,3085,456,302
1343,23,51071,3079,458,284
1344,14,51119,3114,461,291
1345,4,51168,3099,462,142
1346,43,51168,3099,462,408
1347,31,51218,3123,466,274
1348,20,51266,3094,469,230
1349,12,51312,3122,471,222
1350,3,51360,3137,474,118
1351,42,51360,3137,474,312
1352,32,51410,3165,479,541
1353,22,51459,3182,485,324
1354,11,51508,3218,485,175
1355,47,51508,3218,485,462
1356,37,51556,3232,485,384
1357,27,51605,3221,486,204
1358,15,51655,3243,487,473
1359,2,51705,3234,487,349
1360,42,51705,3234,487,182
1361,23,51763,3326,497,388
1362,9,51814,3338,502,604
1363,47,51814,3338,502,255
1364,31,51867,3373,507,473
1365,23,51914,3387,504,293
1366,10,51965,3422,506,161
1367,49,51965,3422,506,451
1368,35,52016,3444,508,386
1369,22,52066,3456,510,220
1370,11,52116,3451,511,524
1371,49,52116,3451,511,445
1372,37,52166,3459,511,264
1373,23,52217,3484,512,559
1374,12,52263,3430,500,412
1375,3,52309,3400,495,299
1376,41,52309,3400,495,608
1377,30,52359,3363,492,398
1378,20,52407,3341,493,222
1379,11,52453,3298,488,485
1380,2,52501,3217,485,277
1381,39,52501,3217,485,529
1382,30,52549,3193,483,388
1383,25,52594,3194,478,243
1384,17,52640,3166,474,505
1385,11,52686,3113,469,214
1386,1,52731,3131,468,195
1387,40,52731,3131,468,449
1388,34,52776,3153,467,293
1389,26,52821,3149,462,180
1390,19,52867,3163,460,125
1391,9,52913,3158,460,124
1392,3,52958,3143,457,98
1393,41,52958,3143,457,413
1394,32,53005,3168,456,378
1395,25,53052,3183,458,399
1396,16,53096,3211,456,293
1397,9,53141,3225,455,198
1398,0,53187,3194,456,153
1399,37,53187,3194,456,152
1400,30,53233,3143,457,125
1401,21,53280,3139,459,436
1402,13,53327,3147,460,235
1403,5,53374,3137,461,92
1404,42,53374,3137,461,380
1405,32,53419,3132,461,306
1406,26,53463,3073,458,150
1407,18,53509,3063,457,423
1408,11,53556,3069,460,362
1409,2,53603,3055,462,343
1410,40,53603,3055,462,288
1411,31,53651,3065,464,186
1412,20,53701,3096,468,492
1413,11,53749,3119,469,440
1414,1,53798,3105,471,427
1415,40,53798,3105,471,327
1416,31,53847,3146,473,623
1417,17,53899,3210,480,365
1418,8,53947,3234,484,176
1419,46,53947,3234,484,446
1420,36,53996,3243,487,349
1421,23,54047,3275,491,569
1422,14,54092,3282,489,394
1423,4,54142,3312,491,186
1424,42,54142,3312,491,450
1425,33,54188,3278,487,305
1426,22,54237,3273,488,584
1427,16,54282,3219,484,347
1428,6,54328,3228,481,577
1429,40,54328,3228,481,408
1430,37,54370,3136,471,606
1431,27,54418,3115,471,359
1432,18,54465,3119,469,603
1433,9,54513,3098,466,449
1434,46,54513,3098,466,653
1435,35,54561,3119,469,424
1436,24,54609,3101,467,458
1437,14,54657,3135,469,202
1438,6,54704,3117,467,462
1439,40,54704,3117,467,296
1440,36,54746,3114,464,190
1441,26,54794,3087,466,134
1442,18,54841,3123,471,125
1443,5,54891,3163,473,157
1444,44,54891,3163,473,158
1445,37,54937,3155,472,135
1446,27,54986,3141,473,161
1447,16,55034,3127,473,100
1448,7,55081,3143,472,88
1449,45,55081,3143,472,106
1450,36,55129,3170,472,168
1451,28,55177,3169,473,114
1452,20,55224,3197,478,387
1453,9,55273,3249,479,241
1454,1,55319,3217,478,148
1455,38,55319,3217,478,99
1456,31,55365,3190,474,106
1457,19,55414,3172,477,399
1458,11,55461,3173,475,161
1459,2,55507,3183,473,399
1460,40,55507,3183,473,248
1461,30,55553,3143,472,153
1462,23,55600,3130,471,414
1463,14,55647,3102,470,220
1464,6,55693,3108,469,487
1465,42,55693,3108,469,376
1466,34,55737,3089,464,315
1467,24,55780,3117,461,133
1468,18,55825,3103,460,390
1469,9,55872,3094,458,257
1470,47,55872,3094,458,448
1471,36,55919,3091,458,226
1472,32,55963,3080,456,437
1473,21,56012,3090,459,183
1474,13,56059,3068,459,413
1475,3,56107,3092,460,258
1476,42,56107,3092,460,466
1477,34,56154,3076,461,236
1478,22,56201,3096,464,509
1479,15,56245,3093,465,381
1480,8,56289,3076,464,216
1481,0,56335,3056,463,467
1482,39,56335,3056,463,307
1483,29,56384,3113,465,217
1484,17,56434,3157,471,419
1485,8,56482,3182,470,268
1486,46,56482,3182,470,541
1487,38,56528,3216,469,378
1488,28,56578,3192,471,23
1489,18,56626,3189,472,185
1490,5,56677,3208,476,389
1491,42,56677,3208,476,155
1492,35,56721,3190,476,404
1493,27,56768,3229,479,280
1494,19,56815,3256,480,201
1495,8,56865,3233,481,175
1496,47,56865,3233,481,186
1497,38,56913,3194,479,220
1498,27,56962,3161,480,302
1499,18,57008,3108,480,147
1500,9,57054,3098,476,270
1501,46,57054,3098,476,368
1502,35,57102,3065,476,321
1503,28,57148,3022,471,225
1504,18,57197,3080,476,169
1505,6,57246,3102,478,134
1506,43,57246,3102,478,117
1507,35,57293,3085,478,92
1508,25,57342,3050,477,426
1509,11,57393,3059,480,363
1510,1,57443,3042,481,344
1511,38,57443,3042,481,360
1512,30,57490,3103,482,341
1513,18,57541,3149,487,326
1514,7,57590,3197,488,159
1515,46,57590,3197,488,387
1516,33,57642,3255,494,217
1517,21,57693,3260,496,509
1518,9,57743,3249,497,429
1519,45,57743,3249,497,392
1520,38,57789,3243,496,162
1521,27,57840,3266,498,380
1522,15,57890,3260,497,168
1523,3,57942,3336,499,428
1524,40,57942,3336,499,304
1525,29,57992,3313,502,232
1526,15,58043,3334,502,480
1527,6,58087,3308,497,318
1528,43,58087,3308,497,207
1529,32,58135,3275,493,525
1530,21,58184,3286,491,430
1531,11,58231,3259,488,679
1532,1,58278,3282,489,374
1533,39,58278,3282,489,600
1534,28,58327,3286,487,407
1535,19,58375,3244,485,270
1536,8,58423,3176,481,575
1537,2,58467,3152,475,354
1538,42,58467,3152,475,579
1539,30,58517,3156,474,398
1540,24,58560,3173,473,227
1541,14,58608,3189,473,477
1542,7,58652,3110,468,633
1543,44,58652,3110,468,51
1544,33,58702,3168,471,278
1545,24,58749,3112,471,57
1546,14,58796,3096,469,315
1547,5,58845,3130,470,184
1548,44,58845,3130,470,113
1549,34,58892,3158,469,87
1550,25,58936,3173,469,357
1551,14,58985,3183,468,273
1552,7,59029,3182,469,238
1553,45,59029,3182,469,251
1554,36,59076,3179,468,299
1555,27,59122,3193,470,267
1556,22,59165,3141,463,266
1557,15,59210,3132,461,230
1558,8,59256,3141,460,138
1559,2,59301,3178,456,454
1560,42,59301,3178,456,334
1561,33,59346,3157,454,196
1562,25,59393,3162,457,104
1563,16,59440,3104,455,412
1564,7,59487,3098,458,417
1565,45,59487,3098,458,385
1566,37,59535,3116,459,301
1567,29,59583,3126,461,533
1568,17,59630,3140,465,349
1569,11,59676,3169,466,228
1570,1,59723,3173,467,152
1571,36,59723,3173,467,471
1572,31,59766,3113,465,282
1573,21,59815,3105,469,186
1574,14,59861,3098,468,492
1575,7,59906,3056,466,463
1576,45,59906,3056,466,326
1577,36,59952,3042,465,600
1578,30,59995,2993,460,317
1579,23,60038,2953,455,541
1580,17,60082,2947,452,371
1581,9,60128,2914,452,254
1582,46,60128,2914,452,480
1583,31,60178,2927,455,263
1584,27,60220,2953,454,397
1585,18,60267,2984,452,565
1586,9,60312,3013,451,738
1587,47,60312,3013,451,764
1588,38,60360,3070,454,234
1589,29,60408,3106,456,348
1590,20,60456,3131,461,481
1591,11,60504,3200,466,647
1592,1,60553,3255,471,311
1593,41,60553,3255,471,525
1594,28,60603,3325,475,299
1595,16,60653,3339,475,572
1596,6,60702,3361,482,419
1597,44,60702,3361,482,619
1598,29,60756,3405,489,424
1599,13,60810,3432,498,458
1600,52,60810,3432,498,178
1601,37,60864,3430,504,432
1602,24,60916,3433,508,248
1603,10,60968,3446,512,135
1604,49,60968,3446,512,61
1605,34,61020,3471,516,389
1606,20,61074,3479,521,378
1607,7,61126,3463,523,113
1608,46,61126,3463,523,202
1609,32,61180,3546,527,62
1610,18,61233,3559,531,247
1611,3,61285,3533,529,111
1612,41,61285,3533,529,195
1613,28,61335,3529,525,264
1614,15,61385,3516,521,249
1615,2,61437,3501,521,258
1616,39,61437,3501,521,300
1617,26,61488,3498,520,121
1618,14,61538,3453,518,167
1619,2,61588,3425,514,172
1620,41,61588,3425,514,158
1621,29,61638,3410,512,176
1622,16,61690,3334,510,141
1623,6,61738,3327,505,164
1624,43,61738,3327,505,484
1625,34,61786,3302,501,383
1626,22,61837,3291,502,350
1627,10,61887,3324,502,314
1628,49,61887,3324,502,190
1629,33,61937,3331,500,483
1630,25,61984,3278,496,434
1631,15,62034,3310,496,214
1632,3,62085,3335,497,455
1633,39,62085,3335,497,261
1634,31,62133,3325,495,525
1635,18,62183,3298,493,380
1636,8,62232,3319,494,596
1637,46,62232,3319,494,379
1638,35,62280,3323,494,214
1639,23,62328,3312,491,492
1640,13,62376,3250,489,328
1641,3,62424,3233,487,582
1642,39,62424,3233,487,406
1643,28,62473,3246,489,297
1644,18,62522,3241,488,252
1645,6,62570,3244,485,591
1646,44,62570,3244,485,442
1647,34,62618,3242,485,200
1648,21,62668,3252,485,420
1649,12,62715,3212,483,200
1650,51,62715,3212,483,470
1651,37,62767,3223,487,232
1652,26,62816,3235,488,483
1653,13,62868,3258,492,678
1654,0,62917,3284,493,166
1655,39,62917,3284,493,397
1656,24,62968,3238,495,186
1657,14,63016,3226,494,43
1658,3,63065,3198,495,339
1659,40,63065,3198,495,280
1660,30,63111,3216,493,249
1661,20,63157,3182,489,299
1662,13,63203,3196,488,76
1663,2,63252,3200,485,196
1664,37,63252,3200,485,350
1665,32,63296,3186,480,127
1666,21,63344,3165,476,147
1667,14,63390,3108,473,197
1668,6,63436,3102,468,215
1669,45,63436,3102,468,217
1670,35,63483,3082,467,256
1671,27,63531,3101,466,257
1672,17,63579,3120,468,296
1673,7,63628,3174,471,318
1674,46,63628,3174,471,322
1675,35,63677,3173,474,346
1676,24,63725,3173,473,368
1677,13,63770,3161,474,350
1678,1,63819,3171,475,166
1679,41,63819,3171,475,424
1680,28,63869,3219,479,297
1681,15,63918,3284,482,223
1682,8,63965,3314,482,132
1683,46,63965,3314,482,370
1684,36,64014,3317,483,207
1685,23,64065,3332,486,496
1686,11,64115,3332,487,347
1687,1,64164,3351,487,245
1688,40,64164,3351,487,186
1689,30,64213,3348,488,462
1690,19,64263,3387,493,223
1691,11,64311,3416,492,470
1692,1,64359,3414,490,333
1693,38,64359,3414,490,540
1694,26,64406,3356,488,316
1695,21,64449,3312,484,575
1696,11,64497,3310,483,442
1697,2,64544,3298,479,348
1698,39,64544,3298,479,593
1699,32,64590,3242,475,431
1700,24,64636,3208,472,267
1701,15,64681,3176,468,534
1702,7,64726,3157,463,370
1703,45,64726,3157,463,208
1704,37,64774,3122,463,473
1705,25,64822,3129,463,312
1706,15,64870,3140,464,347
1707,5,64918,3167,469,36
1708,44,64918,3167,469,253
1709,33,64967,3147,470,56
1710,24,65014,3157,470,339
1711,15,65062,3189,472,232
1712,7,65110,3202,474,176
1713,44,65110,3202,474,158
1714,34,65158,3199,477,194
1715,24,65206,3186,480,261
1716,12,65255,3190,481,84
1717,5,65301,3182,479,190
1718,43,65301,3182,479,279
1719,35,65347,3203,477,219
1720,24,65395,3203,477,139
1721,15,65441,3188,474,105
1722,6,65489,3217,475,120
1723,43,65489,3217,475,409
1724,31,65540,3188,478,326
1725,20,65588,3195,478,283
1726,10,65637,3205,479,198
1727,1,65685,3226,479,446
1728,38,65685,3226,479,265
1729,25,65732,3224,477,160
1730,19,65776,3215,475,118
1731,9,65824,3228,477,116
1732,47,65824,3228,477,472
1733,36,65872,3275,477,356
1734,25,65921,3327,480,136
1735,14,65970,3311,481,379
1736,2,66020,3296,480,233
1737,38,66020,3296,480,143
1738,30,66067,3291,479,454
1739,19,66118,3296,481,375
1740,10,66166,3303,481,222
1741,45,66166,3303,481,403
1742,37,66211,3300,479,156
1743,28,66257,3305,481,404
1744,17,66303,3269,479,246
1745,10,66349,3208,477,542
1746,0,66395,3194,474,466
1747,37,66395,3194,474,258
1748,29,66442,3139,472,541
1749,19,66488,3145,468,395
1750,11,66535,3165,468,599
1751,2,66583,3163,465,395
1752,40,66583,3163,465,258
1753,32,66630,3129,464,513
1754,18,66680,3160,469,231
1755,10,66727,3168,470,477
1756,47,66727,3168,470,282
1757,33,66778,3195,475,575
1758,23,66827,3180,478,352
1759,12,66875,3170,480,483
1760,3,66920,3183,478,661
1761,39,66920,3183,478,79
1762,27,66970,3212,482,309
1763,17,67019,3242,484,107
1764,5,67067,3277,484,384
1765,1,67108,3271,478,289
1766,38,67108,3271,478,234
1767,30,67155,3222,475,226
1768,20,67202,3191,475,257
1769,12,67249,3147,471,334
1770,5,67296,3171,469,183
1771,44,67296,3171,469,346
1772,35,67342,3163,467,142
1773,26,67387,3129,467,221
1774,22,67429,3047,459,148
1775,16,67474,3019,455,126
1776,10,67519,2956,452,147
1777,4,67562,2972,454,127
1778,42,67562,2972,454,430
1779,36,67606,2946,451,348
1780,29,67651,2981,449,140
1781,22,67695,3005,446,422
1782,16,67738,2961,442,298
1783,13,67780,2923,438,172
1784,8,67822,2935,435,434
1785,6,67862,2891,433,325
1786,3,67902,2840,428,259
1787,0,67942,2812,423,534
1788,39,67942,2812,423,406
1789,36,67985,2806,423,343
1790,29,68029,2809,423,198
1791,25,68073,2740,422,512
1792,18,68119,2737,424,421
1793,10,68165,2775,427,312
1794,3,68209,2808,429,601
1795,40,68209,2808,429,352
1796,35,68253,2813,431,176
1797,25,68300,2919,438,462
1798,20,68344,2945,442,293
1799,12,68392,3010,450,553
1800,2,68438,3052,453,421
1801,38,68438,3052,453,336
1802,30,68482,3099,453,601
1803,23,68528,3137,455,338
1804,15,68574,3123,455,533
1805,9,68618,3099,453,282
1806,2,68664,3102,455,546
1807,37,68664,3102,455,398
1808,34,68707,3114,454,304
1809,24,68756,3123,456,549
1810,16,68803,3125,459,327
1811,8,68851,3114,459,587
1812,47,68851,3114,459,400
1813,38,68898,3104,460,635
1814,24,68947,3126,465,128
1815,17,68992,3137,464,326
1816,5,69042,3183,468,67
1817,44,69042,3183,468,318
1818,36,69089,3218,471,149
1819,24,69139,3263,475,62
1820,17,69184,3265,477,370
1821,9,69232,3237,476,340
1822,1,69278,3233,475,360
1823,40,69278,3233,475,403
1824,28,69327,3275,476,385
1825,22,69372,3234,474,79
1826,12,69420,3205,473,392
1827,3,69468,3192,476,361
1828,42,69468,3192,476,354
1829,31,69518,3140,476,106
1830,22,69566,3153,477,222
1831,12,69615,3141,476,315
1832,2,69662,3142,478,378
1833,42,69662,3142,478,407
1834,29,69710,3172,478,370
1835,22,69754,3162,476,384
1836,11,69800,3080,473,404
1837,6,69844,3111,472,442
1838,45,69844,3111,472,374
1839,37,69891,3129,471,180
1840,29,69937,3133,469,441
1841,19,69984,3130,466,279
1842,11,70028,3064,462,191
1843,3,70076,3059,461,498
1844,43,70076,3059,461,359
1845,32,70124,3083,462,272
1846,21,70173,3076,463,176
1847,12,70218,3117,464,496
1848,3,70266,3159,466,448
1849,42,70266,3159,466,318
1850,29,70318,3200,474,595
1851,19,70367,3192,476,297
1852,10,70416,3230,479,528
1853,49,70416,3230,479,322
1854,37,70467,3243,483,167
1855,26,70517,3302,489,393
1856,14,70567,3316,491,609
1857,4,70616,3331,492,402
1858,42,70616,3331,492,246
1859,33,70664,3310,491,547
1860,21,70714,3356,496,385
1861,9,70762,3363,496,607
1862,47,70762,3363,496,396
1863,33,70810,3341,492,556
1864,26,70856,3325,489,252
1865,14,70904,3293,488,479
1866,2,70954,3305,487,278
1867,40,70954,3305,487,552
1868,30,71002,3268,485,351
1869,18,71051,3242,484,562
1870,8,71099,3245,483,119
1871,47,71099,3245,483,394
1872,36,71148,3245,484,306
1873,28,71194,3208,480,242
1874,17,71243,3199,481,234
1875,9,71289,3170,479,284
1876,1,71335,3147,479,77
1877,40,71335,3147,479,213
1878,25,71384,3208,480,276
1879,21,71427,3150,473,307
1880,12,71474,3164,472,173
1881,2,71522,3167,471,452
1882,41,71522,3167,471,240
1883,27,71575,3167,476,97
1884,18,71624,3191,476,405
1885,8,71672,3183,478,345
1886,48,71672,3183,478,331
1887,36,71723,3184,480,358
1888,25,71772,3185,483,295
1889,16,71819,3193,484,280
1890,7,71868,3178,484,270
1891,47,71868,3178,484,257
1892,33,71918,3210,491,282
1893,23,71966,3229,492,276
1894,11,72016,3239,494,316
1895,1,72065,3197,490,416
1896,38,72065,3197,490,396
1897,29,72113,3161,489,390
1898,18,72163,3169,491,345
1899,7,72213,3193,490,146
1900,43,72213,3193,490,384
1901,31,72262,3196,490,223
1902,23,72308,3178,489,511
1903,11,72356,3188,488,420
1904,2,72404,3184,486,386
1905,39,72404,3184,486,311
1906,29,72453,3175,487,589
1907,19,72502,3202,486,329
1908,6,72550,3249,485,577
1909,43,72550,3249,485,423
1910,38,72594,3212,481,330
1911,28,72642,3207,479,584
1912,20,72689,3187,476,422
1913,8,72738,3193,476,303
1914,1,72784,3233,476,624
1915,41,72784,3233,476,447
1916,32,72832,3238,476,691
1917,22,72880,3255,476,344
1918,16,72924,3245,471,550
1919,8,72971,3161,469,307
1920,1,73012,3134,462,554
1921,41,73012,3134,462,390
1922,29,73061,3185,467,292
1923,22,73107,3128,465,516
1924,9,73157,3179,468,92
1925,1,73203,3160,465,387
1926,39,73203,3160,465,293
1927,28,73251,3146,467,267
1928,21,73295,3088,463,290
1929,12,73340,3118,460,43
1930,5,73385,3116,461,156
1931,42,73385,3116,461,290
1932,33,73432,3159,461,353
1933,24,73479,3200,467,384
1934,14,73527,3156,466,270
1935,5,73575,3213,468,164
1936,44,73575,3213,468,104
1937,33,73622,3159,465,93
1938,25,73667,3144,464,117
1939,15,73714,3123,463,424
1940,9,73759,3153,464,392
1941,47,73759,3153,464,351
1942,33,73807,3140,467,366
1943,31,73848,3103,463,316
1944,22,73896,3112,464,306
1945,15,73942,3098,463,293
1946,6,73986,3109,459,190
1947,46,73986,3109,459,399
1948,36,74034,3078,459,186
1949,27,74082,3098,460,471
1950,15,74129,3122,462,359
1951,8,74175,3158,461,300
1952,45,74175,3158,461,294
1953,35,74223,3157,464,323
1954,23,74272,3151,465,264
1955,15,74317,3203,469,244
1956,4,74366,3189,470,531
1957,42,74366,3189,470,320
1958,32,74416,3172,474,562
1959,18,74467,3193,481,378
1960,6,74517,3230,483,259
1961,42,74517,3230,483,565
1962,35,74562,3200,480,373
1963,25,74610,3177,481,237
1964,14,74660,3198,485,518
1965,1,74710,3247,487,460
1966,41,74710,3247,487,288
1967,27,74762,3241,490,566
1968,16,74810,3242,493,417
1969,5,74859,3238,493,671
1970,43,74859,3238,493,369
1971,30,74909,3277,493,604
1972,21,74957,3311,490,412
1973,10,75007,3281,490,284
1974,46,75007,3281,490,588
1975,34,75055,3324,493,126
1976,23,75106,3344,496,388
1977,11,75156,3335,496,269
1978,1,75203,3283,493,199
1979,39,75203,3283,493,185
1980,26,75252,3259,490,213
1981,21,75293,3246,483,132
1982,12,75342,3213,483,110
1983,4,75388,3202,479,125
1984,43,75388,3202,479,436
1985,37,75432,3155,475,349
1986,31,75476,3106,469,300
1987,25,75521,3080,466,309
1988,19,75564,3041,458,297
1989,12,75609,3024,453,225
1990,9,75647,2997,444,466
1991,5,75690,3004,438,305
1992,1,75730,3016,437,202
1993,38,75730,3016,437,135
1994,36,75772,3036,430,410
1995,30,75816,3003,428,261
1996,27,75858,2993,426,141
1997,22,75900,3017,424,461
1998,18,75943,3055,422,350
1999,12,75988,3090,424,143
2000,5,76032,3047,423,413
2001,42,76032,3047,423,310
2002,38,76075,3046,428,543
2003,30,76119,3013,429,342
2004,25,76163,2986,433,222
2005,18,76205,2947,433,536
2006,12,76250,2974,434,323
2007,5,76296,2992,438,177
2008,42,76296,2992,438,466
2009,35,76340,2979,440,261
2010,25,76385,2964,442,526
2011,18,76429,2926,441,336
2012,12,76474,2960,442,547
2013,4,76519,2977,444,296
2014,41,76519,2977,444,559
2015,31,76565,2984,446,427
2016,25,76610,2958,447,273
2017,17,76656,2977,451,506
2018,8,76704,2948,454,280
2019,46,76704,2948,454,511
2020,36,76752,2987,456,381
2021,29,76798,3044,458,610
2022,20,76845,3076,460,405
2023,9,76894,3111,465,667
2024,46,76894,3111,465,355
2025,37,76942,3117,468,591
2026,27,76990,3131,471,391
2027,14,77040,3160,475,662
2028,2,77089,3206,479,148
2029,38,77089,3206,479,371
2030,26,77137,3218,481,153
2031,19,77183,3232,479,434
2032,8,77234,3219,482,294
2033,45,77234,3219,482,216
2034,34,77282,3208,484,202
2035,23,77331,3198,486,236
2036,14,77376,3180,482,296
2037,3,77425,3210,483,332
2038,40,77425,3210,483,358
2039,33,77469,3198,479,104
2040,26,77515,3178,475,154
2041,14,77563,3147,474,87
2042,9,77608,3147,471,77
2043,1,77655,3152,472,445
2044,39,77655,3152,472,336
2045,28,77702,3130,468,250
2046,22,77745,3088,463,195
2047,11,77794,3058,463,208
2048,4,77840,3090,464,168
2049,42,77840,3090,464,141
2050,34,77887,3080,462,116
2051,24,77933,3086,464,397
2052,18,77977,3077,462,262
2053,9,78024,3119,461,154
2054,47,78024,3119,461,435
2055,38,78072,3142,464,221
2056,29,78120,3170,465,512
2057,18,78169,3171,467,399
2058,8,78214,3196,469,268
2059,47,78214,3196,469,533
2060,38,78262,3233,468,428
2061,27,78311,3242,471,371
2062,16,78360,3217,473,316
2063,6,78409,3202,476,162
2064,44,78409,3202,476,363
2065,33,78459,3265,482,586
2066,21,78511,3298,487,334
2067,5,78564,3299,492,566
2068,44,78564,3299,492,396
2069,31,78616,3292,496,281
2070,17,78667,3306,498,543
2071,5,78717,3346,503,374
2072,42,78717,3346,503,250
2073,30,78766,3357,504,194
2074,18,78817,3345,506,446
2075,5,78869,3360,509,700
2076,42,78869,3360,509,369
2077,31,78918,3367,509,592
2078,18,78969,3334,510,370
2079,8,79018,3293,507,217
2080,45,79018,3293,507,505
2081,34,79067,3289,503,22
2082,22,79118,3292,502,285
2083,9,79170,3332,503,119
2084,45,79170,3332,503,350
2085,31,79220,3304,503,290
2086,23,79267,3309,501,279
2087,13,79315,3331,498,315
2088,1,79365,3328,496,90
2089,39,79365,3328,496,219
2090,28,79413,3357,495,114
2091,19,79460,3344,491,220
2092,6,79511,3376,493,270
2093,42,79511,3376,493,312
2094,35,79555,3369,488,321
2095,26,79604,3389,486,310
2096,17,79651,3331,481,313
2097,7,79699,3307,479,323
2098,47,79699,3307,479,345
2099,35,79749,3320,482,359
2100,23,79797,3292,482,312
2101,15,79844,3305,479,303
2102,5,79890,3258,477,306
2103,42,79890,3258,477,304
2104,35,79936,3275,476,293
2105,25,79986,3232,475,234
2106,15,80035,3266,480,213
2107,5,80083,3274,479,166
2108,44,80083,3274,479,394
2109,31,80136,3296,485,573
2110,13,80190,3347,491,219
2111,3,80238,3322,489,448
2112,42,80238,3322,489,232
2113,29,80288,3322,491,500
2114,20,80332,3277,488,364
2115,9,80381,3330,491,205
2116,48,80381,3330,491,451
2117,36,80430,3350,494,299
2118,26,80478,3380,492,206
2119,15,80526,3380,491,457
2120,6,80573,3369,490,295
2121,45,80573,3369,490,177
2122,33,80623,3349,487,498
2123,23,80671,3306,481,395
2124,15,80718,3247,480,659
2125,5,80767,3250,479,356
2126,41,80767,3250,479,591
2127,35,80812,3268,480,398
2128,27,80860,3275,479,270
2129,17,80909,3250,479,566
2130,3,80962,3282,484,261
2131,40,80962,3282,484,426
2132,28,81013,3307,487,234
2133,18,81061,3276,488,522
2134,8,81109,3277,486,361
2135,46,81109,3277,486,629
2136,35,81158,3253,487,322
2137,25,81205,3273,487,263
2138,16,81252,3256,485,253
2139,8,81300,3269,488,191
2140,46,81300,3269,488,119
2141,36,81347,3259,487,105
2142,26,81393,3268,484,143
2143,20,81438,3171,476,83
2144,9,81487,3157,474,64
2145,0,81535,3190,474,413
2146,38,81535,3190,474,343
2147,29,81583,3180,474,336
2148,20,81628,3203,470,362
2149,10,81676,3187,471,386
2150,5,81718,3140,466,398
2151,45,81718,3140,466,82
2152,37,81765,3131,465,93
2153,30,81810,3155,463,146
2154,22,81854,3111,461,127
2155,18,81896,3083,458,448
2156,15,81936,3087,449,107
2157,9,81981,3102,446,408
2158,3,82025,3076,442,256
2159,40,82025,3076,442,441
2160,34,82069,3024,441,181
2161,29,82113,3037,437,438
2162,23,82158,3045,440,290
2163,15,82204,3064,439,192
2164,7,82250,3023,440,511
2165,44,82250,3023,440,330
2166,34,82297,3055,443,214
2167,28,82342,3108,446,462
2168,18,82389,3122,453,311
2169,11,82433,3099,452,542
2170,48,82433,3099,452,342
2171,38,82481,3170,456,196
2172,24,82531,3215,462,443
2173,15,82578,3215,465,235
2174,5,82623,3219,465,481
2175,43,82623,3219,465,305
2176,33,82671,3216,467,507
2177,23,82720,3260,470,235
2178,10,82768,3227,471,415
2179,1,82816,3202,474,625
2180,40,82816,3202,474,396
2181,31,82865,3200,476,260
2182,21,82915,3249,482,471
2183,11,82964,3195,483,262
2184,1,83013,3221,482,542
2185,39,83013,3221,482,335
2186,28,83061,3222,483,589
2187,17,83107,3204,484,174
2188,8,83155,3217,484,47
2189,46,83155,3217,484,343
2190,37,83202,3203,482,269
2191,27,83250,3215,482,266
2192,17,83300,3214,484,295
2193,6,83350,3255,485,65
2194,44,83350,3255,485,95
2195,31,83401,3233,486,129
2196,22,83449,3244,485,224
2197,12,83499,3187,486,67
2198,2,83545,3197,484,162
2199,41,83545,3197,484,243
2200,30,83595,3248,488,92
2201,18,83644,3281,489,163
2202,10,83688,3237,486,236
2203,47,83688,3237,486,230
2204,39,83735,3228,485,211
2205,29,83783,3259,483,222
2206,18,83831,3190,481,212
2207,10,83877,3161,476,187
2208,2,83924,3157,475,505
2209,40,83924,3157,475,303
2210,32,83971,3207,472,167
2211,22,84018,3215,473,478
2212,13,84067,3203,472,411
2213,2,84115,3200,471,404
2214,38,84115,3200,471,367
2215,32,84160,3217,472,141
2216,21,84209,3213,474,390
2217,11,84255,3212,472,231
2218,3,84301,3244,470,137
2219,41,84301,3244,470,461
2220,33,84349,3247,472,289
2221,21,84397,3276,473,186
2222,11,84445,3223,474,503
2223,0,84494,3237,476,415
2224,40,84494,3237,476,261
2225,28,84544,3228,477,513
2226,17,84591,3200,476,401
2227,10,84637,3200,477,297
2228,0,84686,3167,477,578
2229,37,84686,3167,477,278
2230,29,84733,3150,478,529
2231,20,84781,3117,480,360
2232,9,84830,3158,481,650
2233,2,84875,3158,478,420
2234,41,84875,3158,478,250
2235,29,84924,3178,479,495
2236,23,84968,3149,474,733
2237,13,85016,3159,472,356
2238,1,85066,3144,475,546
2239,39,85066,3144,475,49
2240,28,85115,3170,478,298
2241,18,85164,3183,478,153
2242,9,85212,3197,479,58
2243,46,85212,3197,479,375
2244,36,85259,3211,478,343
2245,28,85306,3194,476,43
2246,17,85354,3161,479,136
2247,9,85400,3137,476,254
2248,48,85400,3137,476,65
2249,39,85448,3124,480,145
2250,29,85496,3121,480,194
2251,20,85543,3090,477,91
2252,12,85590,3097,475,392
2253,1,85638,3110,474,355
2254,39,85638,3110,474,369
2255,31,85685,3096,473,288
2256,23,85732,3106,473,266
2257,15,85778,3099,472,296
2258,7,85826,3084,472,238
2259,46,85826,3084,472,227
2260,36,85873,3063,473,189
2261,31,85917,3032,469,456
2262,21,85965,3010,469,344
2263,14,86008,3006,465,246
2264,4,86056,3025,466,121
2265,43,86056,3025,466,400
2266,32,86103,3046,465,297
2267,23,86150,3037,465,206
2268,14,86198,3072,466,135
2269,4,86245,3125,467,458
2270,42,86245,3125,467,334
2271,34,86292,3143,466,612
2272,26,86338,3130,465,335
2273,18,86385,3174,468,559
2274,8,86434,3156,469,371
2275,47,86434,3156,469,244
2276,36,86481,3169,473,470
2277,29,86528,3133,472,278
2278,21,86573,3128,470,549
2279,14,86618,3184,468,455
2280,6,86664,3136,466,233
2281,42,86664,3136,466,463
2282,34,86710,3085,465,296
2283,27,86756,3097,464,601
2284,19,86801,3111,463,377
2285,12,86847,3113,462,617
2286,4,86894,3135,460,456
2287,41,86894,3135,460,238
2288,34,86939,3110,458,489
2289,24,86986,3129,458,316
2290,18,87030,3116,457,593
2291,12,87076,3076,458,407
2292,1,87124,3086,460,344
2293,36,87124,3086,460,55
2294,33,87165,3067,455,284
2295,26,87208,3024,452,103
2296,18,87254,3049,453,377
2297,11,87299,3060,452,275
2298,4,87343,3037,449,236
2299,43,87343,3037,449,248
2300,34,87389,3055,450,228
2301,29,87433,3027,447,480
2302,21,87480,3028,450,325
2303,13,87525,2987,449,206
2304,4,87573,2987,449,132
2305,41,87573,2987,449,132
2306,33,87618,2991,453,170
2307,29,87661,2993,453,124
2308,21,87707,2978,453,400
2309,11,87754,2966,455,196
2310,6,87799,2966,456,420
2311,45,87799,2966,456,179
2312,39,87845,2949,456,448
2313,32,87891,2963,458,309
2314,25,87937,2950,457,224
2315,15,87980,2980,455,540
2316,7,88025,2991,452,382
2317,43,88025,2991,452,245
2318,37,88069,2996,451,160
2319,29,88117,3049,456,427
2320,18,88165,3041,458,205
2321,11,88208,3034,454,425
2322,4,88252,3039,453,210
2323,42,88252,3039,453,480
2324,34,88298,3043,453,340
2325,28,88343,3008,452,281
2326,19,88388,3007,451,256
2327,13,88431,3013,451,213
2328,7,88475,2958,450,467
2329,46,88475,2958,450,228
2330,39,88522,2990,453,487
2331,29,88570,3000,453,326
2332,21,88615,3009,450,179
2333,12,88663,3045,455,426
2334,2,88713,3067,461,290
2335,39,88713,3067,461,547
2336,30,88758,3125,460,360
2337,23,88804,3136,461,630
2338,14,88851,3135,463,305
2339,4,88897,3148,466,515
2340,44,88897,3148,466,290
2341,33,88946,3212,471,567
2342,24,88994,3210,472,454
2343,11,89044,3205,474,71
2344,4,89091,3189,476,344
2345,43,89091,3189,476,207
2346,32,89141,3186,478,140
2347,24,89184,3170,471,109
2348,19,89228,3136,470,129
2349,10,89277,3158,473,178
2350,2,89323,3152,472,198
2351,41,89323,3152,472,180
2352,31,89370,3188,473,219
2353,22,89418,3186,472,177
2354,13,89465,3204,471,168
2355,2,89512,3152,468,142
2356,40,89512,3152,468,120
2357,31,89559,3169,468,142
2358,21,89604,3164,463,136
2359,12,89649,3153,465,178
2360,1,89698,3173,470,106
2361,39,89698,3173,470,443
2362,32,89744,3164,467,369
2363,20,89794,3194,471,370
2364,11,89842,3180,472,369
2365,1,89889,3170,471,371
2366,37,89889,3170,471,362
2367,29,89934,3156,469,266
2368,20,89981,3189,469,510
2369,12,90027,3229,468,338
2370,3,90076,3200,472,214
2371,42,90076,3200,472,162
2372,33,90122,3189,473,143
2373,23,90170,3228,472,507
2374,16,90217,3229,473,390
2375,5,90266,3257,472,137
2376,43,90266,3257,472,245
2377,32,90316,3274,474,403
2378,19,90365,3279,476,574
2379,12,90412,3282,478,287
2380,1,90461,3242,480,517
2381,39,90461,3242,480,328
2382,29,90510,3226,483,188
2383,17,90560,3251,484,484
2384,8,90609,3286,487,439
2385,47,90609,3286,487,418
2386,31,90661,3285,491,229
2387,22,90708,3288,491,439
2388,11,90757,3275,491,215
2389,2,90804,3238,488,470
2390,39,90804,3238,488,644
2391,32,90850,3249,485,366
2392,22,90899,3274,487,602
2393,13,90947,3258,486,420
2394,3,90995,3229,485,209
2395,42,90995,3229,485,420
2396,31,91043,3222,483,221
2397,21,91091,3232,482,505
2398,10,91139,3190,478,83
2399,0,91188,3198,480,326
2400,40,91188,3198,480,141
2401,30,91238,3194,481,437
2402,19,91287,3211,483,331
2403,9,91334,3156,484,269
2404,49,91334,3156,484,266
2405,39,91384,3174,485,301
2406,26,91434,3198,487,64
2407,14,91486,3233,491,193
2408,1,91537,3284,494,302
2409,39,91537,3284,494,90
2410,29,91586,3267,495,232
2411,16,91637,3320,498,294
2412,7,91685,3315,497,93
2413,45,91685,3315,497,167
2414,31,91736,3342,498,227
2415,22,91784,3331,497,321
2416,10,91833,3397,499,401
2417,46,91833,3397,499,151
2418,35,91880,3350,496,257
2419,26,91928,3333,494,324
2420,17,91976,3315,490,375
2421,6,92025,3300,488,338
2422,45,92025,3300,488,270
2423,33,92073,3283,487,253
2424,23,92119,3224,482,213
2425,16,92163,3208,478,213
2426,6,92213,3177,477,525
2427,44,92213,3177,477,411
2428,34,92261,3161,477,137
2429,24,92311,3127,478,375
2430,12,92359,3123,479,196
2431,1,92407,3148,479,477
2432,38,92407,3148,479,290
2433,26,92457,3189,481,538
2434,14,92507,3191,482,359
2435,3,92555,3249,482,641
2436,41,92555,3249,482,384
2437,30,92604,3271,485,187
2438,16,92654,3278,491,470
2439,7,92701,3267,488,274
2440,43,92701,3267,488,484
2441,35,92748,3279,487,212
2442,21,92798,3309,487,462
2443,15,92843,3297,484,300
2444,4,92893,3262,486,587
2445,42,92893,3262,486,373
2446,34,92939,3229,482,615
2447,25,92988,3186,481,445
2448,16,93036,3158,481,256
2449,5,93084,3165,480,525
2450,40,93084,3165,480,342
2451,35,93128,3136,474,611
2452,24,93177,3143,476,108
2453,14,93227,3155,479,318
2454,4,93275,3112,477,68
2455,43,93275,3112,477,319
2456,32,93324,3155,481,166
2457,23,93371,3152,478,78
2458,11,93422,3211,483,44
2459,0,93468,3244,480,42
2460,37,93468,3244,480,407
2461,27,93517,3248,481,307
2462,15,93568,3264,484,288
2463,3,93618,3286,490,300
2464,40,93618,3286,490,339
2465,28,93667,3292,490,151
2466,17,93717,3285,490,305
2467,3,93769,3328,494,100
2468,42,93769,3328,494,138
2469,28,93819,3341,495,165
2470,16,93867,3315,496,230
2471,7,93913,3292,491,335
2472,46,93913,3292,491,142
2473,34,93964,3301,496,229
2474,22,94014,3286,497,245
2475,12,94062,3261,494,293
2476,5,94107,3247,489,273
2477,42,94107,3247,489,254
2478,34,94154,3252,487,245
2479,25,94201,3281,484,215
2480,12,94251,3256,482,234
2481,4,94296,3229,477,140
2482,43,94296,3229,477,412
2483,35,94343,3265,476,155
2484,27,94391,3262,478,411
2485,15,94440,3256,476,259
2486,7,94483,3197,469,142
2487,44,94483,3197,469,447
2488,35,94530,3185,468,264
2489,27,94576,3187,469,541
2490,20,94621,3147,467,392
2491,13,94665,3117,464,272
2492,5,94711,3115,460,567
2493,40,94711,3115,460,406
2494,36,94752,3050,456,585
2495,30,94797,3040,454,337
2496,21,94844,3017,453,592
2497,12,94891,3021,451,440
2498,6,94934,3060,451,334
2499,45,94934,3060,451,566
2500,36,94981,3082,451,381
2501,26,95029,3087,453,613
2502,17,95076,3107,455,304
2503,9,95124,3123,459,530
2504,48,95124,3123,459,324
2505,39,95173,3161,462,598
2506,27,95223,3215,471,390
2507,15,95273,3247,476,621
2508,1,95324,3272,480,110
2509,39,95324,3272,480,268
2510,29,95372,3256,481,440
2511,17,95421,3282,487,144
2512,9,95466,3232,485,376
2513,0,95515,3259,486,188
2514,38,95515,3259,486,56
2515,29,95559,3210,483,374
2516,21,95606,3226,482,329
2517,13,95651,3165,478,332
2518,4,95697,3208,474,358
2519,42,95697,3208,474,72
2520,34,95744,3189,471,89
2521,23,95793,3191,469,137
2522,15,95840,3200,468,101
2523,5,95887,3202,466,103
2524,42,95887,3202,466,393
2525,28,95935,3263,469,246
2526,21,95980,3206,465,156
2527,10,96029,3263,470,106
2528,1,96076,3230,470,457
2529,35,96076,3230,470,311
2530,27,96122,3228,471,220
2531,18,96170,3233,473,196
2532,7,96221,3280,477,128
2533,45,96221,3280,477,439
2534,33,96270,3340,477,323
2535,23,96319,3341,479,541
2536,11,96368,3304,481,349
2537,47,96368,3304,481,205
2538,39,96415,3246,480,130
2539,27,96466,3283,486,450
2540,13,96518,3307,489,307
2541,2,96568,3276,492,572
2542,38,96568,3276,492,268
2543,28,96615,3304,493,493
2544,19,96663,3311,493,315
2545,7,96713,3303,492,175
2546,46,96713,3303,492,486
2547,36,96763,3274,493,267
2548,22,96814,3298,495,500
2549,10,96864,3314,496,324
2550,48,96864,3314,496,166
2551,39,96913,3358,498,437
2552,26,96962,3361,496,316
2553,16,97010,3320,492,208
2554,7,97058,3307,490,448
2555,46,97058,3307,490,686
2556,34,97109,3323,494,302
2557,25,97158,3325,495,503
2558,15,97206,3308,493,250
2559,6,97255,3313,492,495
2560,43,97255,3313,492,324
2561,33,97302,3303,488,214
2562,24,97349,3333,485,445
2563,14,97398,3320,485,655
2564,3,97444,3282,482,418
2565,43,97444,3282,482,249
2566,27,97494,3292,484,438
2567,20,97536,3289,478,399
2568,10,97585,3265,476,176
2569,3,97632,3276,474,22
2570,40,97632,3276,474,325
2571,33,97678,3257,472,258
2572,24,97725,3240,470,235
2573,14,97772,3192,470,240
2574,6,97816,3130,467,239
2575,42,97816,3130,467,203
2576,35,97861,3123,463,225
2577,30,97905,3130,461,287
2578,18,97952,3144,458,70
2579,11,97994,3106,458,93
2580,0,98042,3137,457,134
2581,39,98042,3137,457,239
2582,31,98088,3121,456,109
2583,24,98134,3167,456,130
2584,16,98181,3154,456,445
2585,7,98228,3176,456,405
2586,45,98228,3176,456,417
2587,36,98274,3169,458,280
2588,30,98319,3119,458,172
2589,23,98366,3131,461,501
2590,13,98412,3110,460,291
2591,6,98457,3154,463,164
2592,45,98457,3154,463,479
2593,37,98505,3124,463,431
2594,29,98552,3141,464,423
2595,19,98601,3143,467,391
2596,8,98650,3153,469,266
2597,48,98650,3153,469,453
2598,35,98700,3188,472,213
2599,27,98747,3220,473,482
2600,14,98796,3255,477,327
2601,7,98843,3262,477,245
2602,47,98843,3262,477,556
2603,35,98894,3284,482,384
2604,25,98941,3294,484,250
2605,15,98988,3295,483,190
2606,6,99037,3294,485,528
2607,45,99037,3294,485,378
2608,35,99086,3297,485,554
2609,24,99135,3284,485,260
2610,14,99183,3277,483,493
2611,3,99230,3221,483,299
2612,40,99230,3221,483,583
2613,28,99276,3215,480,391
2614,24,99320,3204,477,524
2615,14,99369,3218,475,668
2616,4,99417,3219,476,340
2617,42,99417,3219,476,564
2618,33,99464,3236,476,339
2619,24,99510,3188,473,592
2620,17,99554,3137,468,467
2621,10,99598,3138,463,295
2622,48,99598,3138,463,492
2623,37,99646,3111,463,82
2624,28,99691,3120,461,295
2625,18,99739,3141,463,49
2626,10,99785,3177,465,308
2627,0,99832,3137,463,165
2628,40,99832,3137,463,77
2629,30,99880,3155,463,403
2630,22,99926,3150,462,50
2631,10,99974,3161,464,333
2632,1,100022,3182,468,260
2633,39,100022,3182,468,238
2634,34,100066,3157,468,254
2635,22,100115,3207,469,187
2636,15,100161,3196,470,142
2637,5,100209,3207,470,166
2638,45,100209,3207,470,225
2639,35,100258,3194,473,296
2640,24,100309,3243,477,301
2641,13,100358,3219,478,351
2642,3,100406,3223,480,125
2643,40,100406,3223,480,124
2644,30,100452,3213,478,149
2645,22,100497,3215,475,466
2646,12,100545,3229,479,275
2647,3,100594,3213,479,529
2648,42,100594,3213,479,376
2649,33,100643,3213,482,265
2650,20,100692,3201,483,225
2651,14,100738,3185,480,223
2652,5,100785,3170,476,195
2653,44,100785,3170,476,479
2654,34,100832,3149,474,247
2655,26,100878,3137,472,478
2656,18,100924,3140,472,280
2657,10,100969,3089,472,533
2658,1,101015,3049,470,420
2659,38,101015,3049,470,348
2660,31,101060,3019,466,182
2661,22,101105,3065,462,468
2662,14,101150,3026,458,328
2663,6,101194,3031,456,552
2664,46,101194,3031,456,351
2665,36,101243,3056,458,224
2666,29,101289,3076,457,506
2667,20,101337,3062,459,378
2668,12,101384,3081,460,625
2669,3,101432,3173,463,421
2670,42,101432,3173,463,689
2671,33,101479,3197,464,378
2672,22,101529,3286,469,599
2673,16,101575,3260,470,399
2674,5,101624,3283,474,249
2675,43,101624,3283,474,556
2676,36,101670,3316,476,321
2677,24,101720,3280,477,520
2678,14,101768,3307,479,267
2679,51,101768,3307,479,251
2680,39,101819,3316,482,121
2681,30,101867,3318,483,45
2682,19,101914,3257,482,376
2683,8,101964,3260,485,312
2684,47,101964,3260,485,338
2685,36,102013,3203,484,107
2686,26,102061,3227,486,245
2687,16,102105,3190,481,352
2688,7,102153,3178,483,142
2689,45,102153,3178,483,89
2690,33,102200,3132,480,417
2691,27,102246,3082,478,392
2692,16,102294,3051,475,84
2693,6,102341,3024,474,148
2694,45,102341,3024,474,140
2695,37,102389,3039,475,147
2696,24,102438,3047,474,189
2697,15,102485,3043,472,232
2698,7,102529,3013,468,242
2699,45,102529,3013,468,251
2700,35,102576,3020,471,269
2701,25,102623,3030,470,283
2702,16,102668,3055,468,262
2703,8,102715,3075,469,134
2704,45,102715,3075,469,407
2705,39,102760,3068,466,229
2706,29,102808,3048,467,493
2707,19,102855,3054,466,392
2708,12,102902,3073,464,361
2709,49,102902,3073,464,279
2710,36,102953,3118,468,253
2711,28,103000,3136,471,559
2712,16,103049,3160,473,331
2713,8,103095,3137,472,195
2714,46,103095,3137,472,473
2715,36,103143,3130,475,417
2716,29,103189,3136,474,253
2717,18,103239,3203,479,169
2718,9,103285,3184,477,494
2719,45,103285,3184,477,338
2720,38,103331,3147,476,524
2721,29,103378,3149,476,241
2722,19,103426,3106,473,466
2723,9,103470,3049,470,274
2724,47,103470,3049,470,541
2725,37,103517,3035,468,343
2726,29,103564,3030,469,474
2727,18,103614,3055,471,585
2728,8,103662,3027,473,215
2729,45,103662,3027,473,392
2730,37,103708,2985,469,591
2731,26,103756,3032,471,338
2732,14,103805,3085,474,566
2733,5,103854,3064,476,419
2734,43,103854,3064,476,334
2735,34,103901,3064,475,565
2736,24,103950,3140,480,234
2737,11,103999,3149,482,388
2738,47,103999,3149,482,311
2739,38,104047,3190,483,45
2740,27,104097,3219,483,291
2741,15,104147,3276,485,111
2742,5,104195,3273,487,390
2743,43,104195,3273,487,297
2744,32,104244,3241,488,242
2745,22,104293,3239,488,248
2746,12,104342,3241,488,299
2747,50,104342,3241,488,58
2748,37,104392,3304,491,190
2749,28,104441,3302,491,248
2750,18,104489,3307,490,338
2751,7,104539,3300,492,248
2752,43,104539,3300,492,149
2753,34,104585,3251,488,106
2754,26,104628,3200,481,100
2755,18,104670,3210,475,405
2756,10,104716,3216,472,332
2757,2,104764,3221,471,301
2758,38,104764,3221,471,312
2759,31,104809,3235,467,346
2760,20,104859,3222,467,445
2761,12,104904,3179,463,405
2762,4,104951,3163,462,354
2763,42,104951,3163,462,333
2764,32,104998,3136,459,220
2765,25,105045,3115,460,515
2766,15,105092,3132,464,249
2767,8,105136,3163,466,489
2768,2,105182,3167,466,340
2769,40,105182,3167,466,224
2770,30,105229,3155,465,164
2771,25,105273,3098,464,407
2772,13,105321,3049,462,221
2773,10,105363,3022,459,514
2774,2,105409,3014,458,421
2775,40,105409,3014,458,379
2776,32,105455,2993,457,238
2777,26,105500,3018,455,519
2778,19,105545,2967,453,200
2779,10,105593,2988,457,406
2780,1,105641,2990,459,184
2781,40,105641,2990,459,447
2782,26,105690,2962,461,297
2783,15,105740,3032,467,456
2784,5,105790,3033,469,233
2785,43,105790,3033,469,459
2786,27,105842,3123,479,642
2787,16,105889,3150,480,357
2788,5,105938,3199,483,584
2789,43,105938,3199,483,355
2790,29,105991,3251,491,238
2791,17,106041,3318,496,446
2792,3,106091,3327,498,633
2793,40,106091,3327,498,122
2794,28,106141,3367,500,378
2795,16,106193,3447,503,186
2796,3,106244,3405,504,76
2797,42,106244,3405,504,396
2798,28,106296,3436,506,372
2799,13,106346,3413,504,43
2800,4,106393,3400,504,120
2801,42,106393,3400,504,244
2802,30,106442,3377,504,128
2803,19,106488,3342,497,222
2804,9,106537,3312,496,268
2805,46,106537,3312,496,304
2806,36,106586,3350,495,318
2807,26,106633,3309,492,140
2808,17,106679,3226,486,418
2809,8,106724,3222,480,333
2810,47,106724,3222,480,293
2811,37,106772,3194,476,229
2812,28,106818,3187,472,124
2813,20,106865,3186,472,439
2814,12,106913,3226,471,240
2815,2,106961,3218,473,492
2816,41,106961,3218,473,363
2817,30,107007,3208,470,307
2818,22,107055,3182,469,299
2819,12,107102,3181,469,260
2820,2,107151,3204,472,523
2821,41,107151,3204,472,278
2822,30,107200,3258,476,543
2823,20,107248,3228,476,392
2824,10,107294,3211,476,247
2825,1,107339,3199,474,514
2826,41,107339,3199,474,383
2827,33,107387,3224,474,264
2828,22,107434,3226,473,509
2829,13,107481,3187,474,338
2830,5,107527,3182,472,212
2831,43,107527,3182,472,523
2832,34,107574,3158,472,345
2833,23,107621,3151,470,236
2834,16,107667,3128,467,178
2835,4,107717,3180,469,518
2836,43,107717,3180,469,366
2837,34,107764,3158,470,640
2838,21,107813,3190,474,323
2839,13,107859,3153,472,537
2840,2,107909,3190,475,279
2841,40,107909,3190,475,529
2842,31,107957,3245,476,366
2843,18,108007,3254,480,558
2844,9,108056,3281,482,336
2845,46,108056,3281,482,578
2846,34,108106,3309,485,432
2847,24,108153,3294,486,341
2848,14,108202,3299,485,589
2849,5,108251,3308,487,229
2850,43,108251,3308,487,176
2851,31,108301,3301,488,416
2852,22,108348,3249,489,221
2853,13,108397,3247,488,84
2854,2,108446,3247,489,378
2855,38,108446,3247,489,295
2856,32,108490,3222,483,291
2857,25,108536,3241,480,319
2858,14,108583,3211,477,88
2859,6,108628,3189,475,213
2860,1,108672,3153,470,364
2861,41,108672,3153,470,379
2862,34,108718,3170,467,190
2863,25,108765,3152,464,457
2864,16,108809,3194,461,343
2865,10,108854,3155,457,260
2866,2,108899,3130,453,246
2867,37,108899,3130,453,254
2868,29,108945,3167,455,327
2869,21,108991,3151,455,430
2870,10,109038,3148,455,409
2871,3,109084,3156,456,387
2872,42,109084,3156,456,400
2873,33,109132,3204,460,341
2874,22,109179,3205,461,310
2875,12,109227,3215,462,261
2876,3,109275,3247,466,147
2877,42,109275,3247,466,352
2878,29,109326,3287,472,132
2879,22,109372,3243,473,388
2880,11,109420,3229,475,258
2881,2,109467,3210,476,177
2882,39,109467,3210,476,158
2883,28,109513,3174,475,190
2884,25,109555,3162,471,503
2885,16,109603,3158,471,297
2886,8,109649,3147,470,537
2887,47,109649,3147,470,361
2888,37,109697,3131,470,260
2889,29,109743,3124,468,520
2890,19,109789,3091,463,372
2891,12,109835,3140,463,243
2892,4,109878,3124,458,511
2893,42,109878,3124,458,351
2894,33,109925,3125,458,194
2895,24,109972,3156,459,476
2896,17,110015,3165,460,354
2897,10,110062,3170,459,631
2898,0,110109,3142,460,338
2899,38,110109,3142,460,569
2900,30,110155,3113,458,392
2901,24,110198,3089,455,279
2902,19,110242,3114,453,510
2903,9,110290,3112,455,84
2904,1,110336,3119,458,365
2905,39,110336,3119,458,263
2906,31,110381,3141,456,211
2907,25,110427,3106,455,218
2908,15,110476,3136,461,263
2909,4,110525,3132,463,274
2910,43,110525,3132,463,264
2911,31,110573,3163,464,285
2912,22,110620,3177,465,224
2913,13,110665,3166,467,218
2914,6,110712,3148,470,240
2915,44,110712,3148,470,300
2916,34,110760,3145,470,131
2917,26,110808,3136,472,298
2918,14,110854,3126,473,138
2919,7,110901,3096,474,216
2920,44,110901,3096,474,265
2921,37,110948,3098,472,275
2922,26,110997,3082,472,268
2923,19,111039,3070,466,275
2924,9,111088,3037,468,157
2925,2,111134,3054,469,433
2926,37,111134,3054,469,158
2927,28,111179,3071,467,400
2928,22,111222,3047,462,229
2929,14,111266,3037,458,125
2930,6,111312,3000,458,447
2931,45,111312,3000,458,405
2932,35,111360,3010,459,222
2933,24,111408,3022,460,497
2934,15,111457,3035,460,297
2935,5,111505,3069,466,538
2936,42,111505,3069,466,346
2937,33,111553,3111,465,218
2938,22,111603,3122,469,159
2939,11,111654,3169,475,496
2940,49,111654,3169,475,493
2941,37,111704,3223,482,321
2942,26,111751,3231,485,586
2943,11,111803,3300,491,239
2944,2,111852,3324,492,444
2945,37,111852,3324,492,202
2946,26,111901,3306,493,461
2947,16,111950,3290,493,328
2948,6,112000,3293,495,626
2949,44,112000,3293,495,400
2950,35,112048,3254,495,219
2951,23,112098,3272,495,508
2952,13,112145,3245,491,364
2953,5,112192,3253,488,628
2954,43,112192,3253,488,406
2955,30,112242,3277,491,565
2956,19,112288,3277,485,275
2957,8,112335,3261,483,256
2958,1,112382,3277,481,76
2959,39,112382,3277,481,348
2960,30,112429,3300,479,263
2961,20,112477,3340,477,224
2962,9,112525,3344,477,219
2963,49,112525,3344,477,269
2964,36,112574,3315,476,359
2965,27,112622,3323,477,364
2966,14,112672,3326,480,94
2967,4,112721,3287,479,190
2968,43,112721,3287,479,322
2969,31,112771,3257,483,361
2970,21,112820,3290,485,162
2971,10,112868,3269,486,243
2972,49,112868,3269,486,161
2973,38,112917,3270,488,96
2974,28,112965,3213,488,88
2975,17,113014,3215,489,384
2976,10,113061,3237,487,299
2977,48,113061,3237,487,270
2978,35,113109,3189,487,276
2979,30,113153,3180,481,165
2980,22,113200,3165,479,457
2981,12,113248,3212,477,272
2982,2,113295,3216,475,480
2983,38,113295,3216,475,260
2984,33,113339,3171,471,118
2985,24,113386,3169,469,427
2986,17,113432,3197,467,362
2987,6,113481,3221,467,253
2988,42,113481,3221,467,536
2989,35,113528,3223,467,453
2990,26,113575,3247,466,352
2991,15,113622,3229,469,629
2992,7,113669,3250,469,351
2993,46,113669,3250,469,590
2994,34,113717,3233,469,399
2995,27,113762,3181,467,270
2996,19,113808,3198,469,585
2997,9,113857,3166,471,372
2998,0,113901,3140,469,233
2999,36,113901,3140,469,479
3000,27,113946,3083,465,326
3001,18,113994,3096,466,608
3002,8,114040,3078,465,452
3003,47,114040,3078,465,636
3004,38,114089,3099,467,365
3005,25,114139,3093,470,614
3006,18,114185,3067,468,416
3007,6,114236,3113,474,297
3008,45,114236,3113,474,615
3009,35,114283,3135,475,370
3010,24,114332,3168,475,604
3011,12,114381,3206,480,496
3012,2,114430,3247,484,147
3013,41,114430,3247,484,360
3014,32,114477,3255,483,94
3015,21,114526,3255,486,331
3016,12,114573,3231,484,178
3017,2,114620,3230,481,77
3018,41,114620,3230,481,44
3019,29,114669,3268,484,48
3020,20,114716,3235,480,102
3021,8,114765,3266,482,193
3022,46,114765,3266,482,254
3023,37,114814,3235,482,295
3024,27,114863,3211,482,249
3025,16,114913,3238,483,242
3026,5,114964,3253,487,282
3027,42,114964,3253,487,352
3028,30,115013,3279,487,189
3029,21,115061,3282,488,243
3030,5,115117,3339,497,233
3031,43,115117,3339,497,341
3032,30,115168,3365,499,375
3033,16,115219,3416,503,135
3034,6,115268,3403,503,193
3035,44,115268,3403,503,496
3036,30,115318,3437,504,406
3037,20,115366,3475,503,364
3038,10,115415,3445,502,310
3039,47,115415,3445,502,281
3040,39,115463,3451,499,217
3041,26,115512,3397,499,512
3042,19,115557,3357,496,297
3043,9,115607,3329,490,528
3044,46,115607,3329,490,328
3045,38,115653,3268,485,177
3046,30,115699,3231,480,486
3047,21,115746,3218,478,348
3048,13,115792,3174,474,176
3049,5,115838,3114,472,468
3050,44,115838,3114,472,381
3051,36,115885,3115,470,212
3052,30,115931,3055,468,392
3053,21,115979,3083,467,602
3054,15,116023,3100,466,356
3055,5,116071,3083,464,184
3056,44,116071,3083,464,475
3057,35,116117,3101,464,234
3058,25,116163,3083,464,489
3059,20,116208,3076,462,344
3060,10,116258,3081,466,635
3061,2,116304,3129,466,422
3062,40,116304,3129,466,638
3063,28,116352,3137,467,435
3064,20,116396,3176,465,688
3065,12,116440,3128,461,387
3066,3,116488,3140,465,607
3067,40,116488,3140,465,156
3068,28,116537,3160,466,41
3069,22,116583,3143,466,342
3070,12,116631,3161,468,286
3071,2,116680,3153,472,268
3072,42,116680,3153,472,308
3073,32,116727,3170,469,111
3074,24,116773,3121,469,257
3075,14,116822,3089,470,64
3076,7,116868,3044,472,176
3077,46,116868,3044,472,323
3078,37,116915,3079,475,326
3079,28,116961,3072,473,239
3080,20,117005,3050,468,218
3081,12,117052,3060,469,158
3082,2,117102,3094,471,446
3083,39,117102,3094,471,234
3084,27,117152,3135,472,147
3085,19,117197,3103,470,119
3086,12,117239,3091,466,141
3087,4,117286,3088,464,133
3088,44,117286,3088,464,460
3089,35,117335,3128,467,412
3090,24,117383,3128,468,403
3091,15,117430,3124,469,290
3092,7,117478,3141,473,564
3093,45,117478,3141,473,334
3094,35,117525,3142,473,143
3095,26,117574,3110,472,441
3096,17,117622,3059,470,358
3097,9,117669,3089,472,182
3098,48,117669,3089,472,452
3099,39,117718,3123,479,364
3100,30,117766,3182,480,204
3101,22,117813,3146,478,395
3102,13,117859,3135,476,598
3103,6,117903,3137,473,357
3104,44,117903,3137,473,173
3105,37,117950,3121,472,459
3106,28,117999,3125,474,276
3107,19,118046,3116,472,520
3108,13,118091,3114,469,352
3109,5,118136,3095,467,239
3110,42,118136,3095,467,495
3111,34,118179,3066,461,291
3112,31,118221,3029,455,577
3113,24,118267,3041,454,283
3114,16,118314,3026,455,515
3115,8,118358,2981,455,321
3116,1,118402,2988,452,582
3117,38,118402,2988,452,282
3118,29,118449,2947,450,516
3119,21,118495,2955,449,333
3120,10,118542,2999,451,394
3121,2,118589,3010,453,159
3122,41,118589,3010,453,434
3123,32,118635,3029,456,267
3124,21,118682,3050,461,166
3125,14,118728,3035,461,135
3126,4,118776,3033,462,149
3127,43,118776,3033,462,209
3128,35,118821,3080,463,302
3129,27,118868,3102,466,318
3130,15,118916,3141,467,62
3131,7,118962,3126,467,165
3132,44,118962,3126,467,142
3133,37,119008,3122,466,107
3134,24,119057,3135,468,141
3135,18,119102,3126,467,82
3136,8,119152,3142,470,419
3137,47,119152,3142,470,425
3138,33,119201,3204,473,394
3139,22,119247,3203,471,396
3140,8,119300,3209,479,263
3141,47,119300,3209,479,542
3142,35,119351,3224,483,312
3143,23,119400,3173,484,145
3144,9,119450,3241,488,432
3145,49,119450,3241,488,355
3146,34,119500,3282,492,310
3147,22,119550,3261,493,182
3148,10,119601,3295,499,490
3149,50,119601,3295,499,442
3150,38,119652,3307,500,431
3151,25,119702,3333,501,316
3152,12,119752,3385,505,271
3153,1,119801,3371,501,190
3154,40,119801,3371,501,149
3155,29,119848,3349,497,501
3156,20,119897,3364,497,316
3157,9,119948,3319,498,569
3158,48,119948,3319,498,394
3159,38,119997,3271,497,203
3160,27,120046,3279,496,366
3161,15,120096,3262,495,563
3162,5,120144,3274,492,306
3163,43,120144,3274,492,550
3164,36,120190,3245,488,379
3165,26,120237,3244,485,279
3166,19,120283,3222,482,234
3167,12,120329,3241,481,571
3168,2,120377,3267,480,431
3169,41,120377,3267,480,658
3170,33,120423,3242,475,442
3171,25,120470,3268,473,710
3172,16,120518,3276,472,413
3173,7,120565,3263,469,636
3174,43,120565,3263,469,423
3175,36,120610,3230,466,51
3176,25,120659,3206,469,272
3177,14,120707,3190,470,48
3178,7,120751,3214,468,311
3179,43,120751,3214,468,194
3180,37,120796,3177,467,113
3181,29,120842,3155,465,85
3182,19,120890,3217,467,120
3183,9,120936,3174,466,181
3184,48,120936,3174,466,222
3185,38,120985,3186,467,242
3186,28,121033,3189,468,285
3187,18,121082,3174,472,88
3188,9,121130,3157,471,117
3189,1,121173,3163,466,117
3190,39,121173,3163,466,98
3191,31,121219,3169,468,127
3192,22,121267,3189,471,455
3193,9,121316,3227,474,319
3194,0,121362,3179,472,172
3195,39,121362,3179,472,476
3196,26,121412,3236,476,406
3197,16,121460,3238,475,403
3198,7,121506,3253,473,290
3199,40,121506,3253,473,208
3200,35,121549,3219,467,176
3201,26,121597,3192,467,444
3202,14,121647,3227,474,238
3203,4,121695,3233,476,525
3204,40,121695,3233,476,310
3205,31,121743,3217,476,562
3206,21,121792,3176,476,369
3207,9,121843,3200,481,240
3208,46,121843,3200,481,167
3209,36,121889,3160,477,149
3210,29,121936,3123,476,492
3211,17,121985,3120,479,346
3212,10,122031,3133,482,559
3213,0,122076,3140,479,310
3214,37,122076,3140,479,563
3215,32,122121,3124,474,387
3216,22,122169,3113,474,180
3217,14,122213,3119,470,422
3218,6,122260,3150,468,680
3219,42,122260,3150,468,314
3220,38,122303,3090,460,533
3221,28,122348,3088,459,291
3222,21,122392,3078,456,546
3223,15,122435,3046,450,398
3224,5,122482,3044,451,231
3225,42,122482,3044,451,458
3226,37,122525,3034,449,674
3227,28,122572,3039,451,314
3228,19,122620,3069,451,504
3229,10,122666,3088,453,245
3230,1,122714,3107,454,497
3231,39,122714,3107,454,328
3232,31,122762,3171,459,22
3233,21,122809,3198,461,260
3234,13,122857,3194,465,89
3235,4,122904,3210,469,379
3236,41,122904,3210,469,278
3237,35,122949,3215,467,239
3238,28,122993,3202,468,251
3239,18,123040,3170,468,307
3240,10,123087,3129,467,301
3241,1,123136,3133,470,297
3242,37,123136,3133,470,338
3243,30,123180,3109,466,259
3244,21,123226,3093,464,231
3245,12,123272,3095,463,251
3246,2,123317,3068,460,249
3247,38,123317,3068,460,222
3248,29,123361,3099,457,251
3249,21,123406,3083,457,238
3250,14,123452,3104,459,272
3251,4,123499,3145,459,306
3252,42,123499,3145,459,362
3253,33,123545,3153,458,143
3254,25,123591,3126,455,142
3255,16,123637,3105,457,151
3256,7,123681,3107,455,125
3257,45,123681,3107,455,400
3258,36,123728,3116,456,166
3259,24,123778,3160,461,441
3260,14,123827,3188,466,297
3261,2,123876,3187,470,212
3262,40,123876,3187,470,176
3263,31,123923,3167,471,188
3264,21,123971,3162,472,494
3265,10,124021,3124,476,351
3266,49,124021,3124,476,242
3267,39,124070,3149,479,191
3268,29,124120,3189,483,449
3269,18,124169,3184,488,248
3270,9,124217,3145,489,486
3271,48,124217,3145,489,294
3272,35,124267,3128,489,181
3273,26,124312,3103,485,480
3274,18,124358,3123,482,347
3275,10,124405,3168,482,180
3276,1,124452,3174,481,459
3277,38,124452,3174,481,330
3278,30,124497,3175,476,603
3279,20,124544,3179,474,474
3280,11,124592,3154,472,228
3281,1,124641,3170,472,452
3282,40,124641,3170,472,239
3283,30,124689,3195,472,470
3284,18,124739,3225,472,348
3285,10,124786,3241,474,661
3286,48,124786,3241,474,440
3287,38,124834,3223,476,669
3288,22,124884,3242,479,212
3289,14,124931,3220,479,55
3290,5,124979,3277,482,334
3291,44,124979,3277,482,252
3292,33,125028,3254,484,215
3293,26,125075,3245,483,228
3294,16,125123,3239,482,284
3295,8,125169,3239,480,312
3296,0,125215,3215,476,307
3297,39,125215,3215,476,333
3298,29,125263,3275,477,113
3299,23,125308,3277,474,257
3300,15,125356,3257,472,355
3301,4,125404,3260,473,104
3302,43,125404,3260,473,156
3303,35,125450,3230,471,201
3304,27,125497,3255,469,205
3305,16,125546,3223,471,136
3306,9,125590,3166,467,110
3307,0,125639,3158,470,461
3308,38,125639,3158,470,380
3309,31,125685,3162,470,206
3310,16,125739,3137,476,125
3311,5,125786,3146,478,445
3312,45,125786,3146,478,355
3313,30,125839,3135,483,147
3314,20,125889,3147,485,431
3315,8,125938,3166,488,318
3316,43,125938,3166,488,260
3317,35,125984,3138,487,252
3318,24,126033,3196,487,534
3319,12,126080,3234,490,408
3320,2,126126,3205,487,319
3321,41,126126,3205,487,272
3322,30,126177,3215,492,541
3323,17,126229,3179,490,244
3324,5,126280,3217,494,429
3325,43,126280,3217,494,165
3326,36,126326,3212,487,393
3327,23,126378,3245,489,208
3328,13,126427,3224,489,497
3329,3,126477,3300,493,309
3330,43,126477,3300,493,558
3331,32,126527,3291,494,380
3332,21,126575,3325,495,662
3333,9,126625,3339,499,414
3334,1,126669,3306,492,212
3335,39,126669,3306,492,480
3336,27,126719,3317,490,365
3337,17,126768,3298,488,288
3338,3,126820,3308,494,526
3339,42,126820,3308,494,214
3340,30,126869,3274,491,438
3341,18,126918,3307,491,231
3342,7,126967,3292,490,494
3343,45,126967,3292,490,351
3344,33,127016,3294,489,570
3345,22,127066,3314,491,322
3346,10,127116,3329,491,302
3347,47,127116,3329,491,415
3348,35,127165,3337,496,559
3349,27,127211,3300,492,166
3350,17,127258,3319,490,360
3351,8,127304,3328,484,92
3352,46,127304,3328,484,323
3353,35,127352,3321,483,141
3354,25,127400,3259,482,418
3355,17,127446,3257,479,322
3356,7,127495,3246,479,269
3357,46,127495,3246,479,261
3358,34,127545,3258,479,303
3359,25,127594,3280,478,90
3360,12,127645,3303,480,203
3361,49,127645,3303,480,312
3362,39,127694,3321,483,100
3363,26,127744,3302,486,229
3364,16,127792,3315,488,293
3365,6,127840,3339,488,85
3366,45,127840,3339,488,194
3367,32,127892,3362,492,359
3368,21,127940,3352,494,145
3369,10,127989,3353,494,153
3370,1,128036,3311,491,193
3371,39,128036,3311,491,283
3372,29,128084,3287,490,268
3373,19,128131,3247,486,256
3374,11,128175,3230,481,219
3375,3,128223,3192,479,518
3376,42,128223,3192,479,276
3377,31,128274,3199,482,547
3378,20,128322,3220,482,422
3379,8,128370,3218,478,322
3380,45,128370,3218,478,273
3381,37,128417,3204,477,214
3382,24,128469,3215,480,494
3383,12,128520,3221,484,220
3384,0,128571,3206,487,474
3385,40,128571,3206,487,308
3386,28,128623,3236,492,203
3387,14,128675,3289,500,501
3388,1,128725,3331,502,443
3389,38,128725,3331,502,433
3390,26,128775,3298,501,337
3391,15,128826,3311,504,282
3392,2,128876,3331,506,197
3393,40,128876,3331,506,448
3394,29,128925,3353,508,326
3395,15,128975,3383,506,234
3396,4,129024,3411,504,564
3397,43,129024,3411,504,339
3398,31,129076,3465,505,527
3399,16,129129,3474,506,232
3400,5,129179,3457,504,473
3401,45,129179,3457,504,284
3402,31,129232,3453,507,579
3403,19,129283,3495,508,478
3404,7,129333,3484,507,267
3405,46,129333,3484,507,540
3406,33,129384,3465,508,392
3407,17,129437,3494,512,642
3408,4,129484,3469,509,194
3409,43,129484,3469,509,87
3410,32,129534,3450,510,44
3411,23,129582,3395,506,27
3412,11,129633,3361,504,57
3413,48,129633,3361,504,122
3414,37,129681,3341,502,231
3415,27,129730,3313,498,105
3416,19,129777,3268,494,196
3417,7,129825,3263,492,301
3418,46,129825,3263,492,114
3419,38,129873,3229,489,199
3420,27,129921,3195,484,331
3421,18,129969,3170,485,109
3422,8,130018,3169,484,205
3423,48,130018,3169,484,275
3424,36,130067,3222,485,368
3425,29,130114,3205,481,355
3426,17,130163,3236,482,397
3427,8,130208,3216,478,395
3428,46,130208,3216,478,397
3429,34,130257,3216,480,271
3430,26,130303,3203,478,512
3431,16,130352,3243,479,330
3432,7,130400,3219,479,195
3433,44,130400,3219,479,116
3434,37,130446,3200,477,449
3435,27,130494,3194,476,126
3436,18,130541,3196,474,432
3437,8,130589,3242,475,294
3438,48,130589,3242,475,196
3439,33,130639,3247,476,141
3440,25,130684,3254,476,392
3441,15,130733,3321,476,160
3442,3,130783,3336,480,405
3443,43,130783,3336,480,596
3444,30,130835,3337,483,334
3445,19,130886,3363,486,583
3446,6,130936,3410,490,420
3447,45,130936,3410,490,311
3448,35,130986,3413,492,556
3449,21,131036,3427,495,349
3450,12,131084,3393,495,628
3451,1,131134,3389,495,432
3452,40,131134,3389,495,287
3453,28,131185,3452,501,537
3454,13,131236,3410,503,366
3455,2,131284,3366,501,615
3456,40,131284,3366,501,255
3457,28,131336,3384,501,451
3458,14,131389,3422,503,657
3459,0,131440,3455,504,431
3460,40,131440,3455,504,682
3461,26,131492,3480,506,386
3462,14,131541,3492,505,594
3463,1,131592,3491,508,387
3464,39,131592,3491,508,570
3465,27,131642,3469,508,256
3466,13,131691,3433,506,467
3467,1,131740,3416,504,26
3468,39,131740,3416,504,281
3469,29,131789,3453,505,177
3470,18,131837,3406,501,128
3471,11,131879,3333,490,120
3472,3,131924,3290,484,141
3473,39,131924,3290,484,212
3474,34,131969,3254,477,326
3475,25,132015,3205,474,340
3476,16,132059,3221,467,327
3477,10,132103,3139,461,209
3478,1,132147,3102,456,68
3479,37,132147,3102,456,369
3480,34,132190,3051,450,318
3481,25,132238,3082,449,308
3482,16,132285,3087,448,269
3483,7,132333,3092,454,220
3484,43,132333,3092,454,87
3485,37,132377,3114,453,370
3486,28,132425,3100,456,321
3487,20,132472,3072,457,309
3488,10,132520,3113,461,108
3489,1,132567,3184,464,348
3490,39,132567,3184,464,170
3491,31,132614,3206,467,471
3492,23,132660,3211,470,380
3493,12,132710,3166,472,161
3494,2,132759,3178,474,434
3495,40,132759,3178,474,294
3496,29,132807,3207,474,145
3497,19,132852,3234,475,406
3498,10,132900,3214,475,273
3499,1,132947,3245,475,568
3500,40,132947,3245,475,326
3501,29,132996,3211,476,163
3502,19,133045,3171,478,454
3503,8,133091,3162,477,313
3504,48,133091,3162,477,560
3505,40,133139,3203,479,440
3506,29,133188,3208,478,280
3507,19,133236,3194,477,178
3508,10,133281,3164,474,496
3509,3,133326,3147,474,422
3510,42,133326,3147,474,219
3511,34,133373,3170,473,447
3512,26,133419,3146,472,216
3513,18,133465,3155,469,468
3514,9,133512,3129,467,658
3515,48,133512,3129,467,371
3516,38,133561,3108,470,603
3517,29,133609,3077,470,405
3518,20,133657,3086,469,218
3519,11,133705,3080,469,438
3520,2,133752,3099,471,239
3521,40,133752,3099,471,486
3522,29,133803,3103,477,686
3523,18,133851,3063,478,423
3524,6,133899,3109,480,425
3525,43,133899,3109,480,263
3526,30,133947,3120,482,145
3527,21,133995,3171,483,99
3528,11,134044,3247,483,99
3529,0,134090,3282,481,146
3530,40,134090,3282,481,228
3531,26,134141,3297,484,63
3532,16,134189,3311,484,233
3533,5,134239,3303,487,56
3534,43,134239,3303,487,124
3535,32,134288,3272,485,180
3536,23,134336,3287,485,278
3537,12,134382,3270,483,343
3538,2,134432,3302,485,351
3539,37,134432,3302,485,426
3540,31,134477,3252,482,408
3541,19,134528,3238,484,123
3542,10,134574,3223,484,220
3543,46,134574,3223,484,223
3544,38,134622,3170,481,293
3545,28,134670,3168,481,228
3546,17,134720,3193,481,238
3547,8,134766,3203,478,229
3548,45,134766,3203,478,134
3549,34,134813,3196,477,468
3550,29,134857,3168,475,437
3551,19,134904,3133,472,390
3552,11,134950,3154,473,160
3553,3,134995,3144,467,392
3554,42,134995,3144,467,211
3555,32,135041,3136,467,497
3556,27,135084,3127,462,388
3557,19,135132,3076,462,324
3558,12,135177,3032,457,155
3559,7,135222,3006,456,428
3560,1,135267,3000,454,323
3561,37,135267,3000,454,165
3562,35,135308,2994,451,449
3563,27,135353,2969,449,328
3564,20,135398,2982,448,242
3565,15,135437,2968,442,547
3566,8,135481,2949,440,443
3567,3,135524,2935,440,343
3568,41,135524,2935,440,568
3569,31,135570,2938,438,301
3570,27,135613,2905,436,552
3571,18,135660,2902,438,395
3572,12,135704,2902,437,217
3573,5,135751,2964,443,466
3574,43,135751,2964,443,295
3575,36,135797,2966,444,594
3576,27,135842,2942,444,406
3577,23,135885,2948,448,659
3578,17,135930,2969,449,369
3579,8,135978,3001,454,592
3580,43,135978,3001,454,140
3581,38,136023,2972,453,25
3582,26,136070,3004,457,338
3583,23,136113,3019,453,287
3584,15,136160,3050,456,289
3585,9,136203,3031,452,256
3586,3,136247,3045,450,203
3587,40,136247,3045,450,198
3588,32,136291,3036,449,225
3589,24,136336,3062,451,175
3590,19,136381,3073,451,165
3591,11,136426,3051,448,201
3592,4,136472,3075,449,90
3593,42,136472,3075,449,384
3594,32,136519,3072,449,308
3595,25,136565,3087,452,270
3596,16,136612,3062,452,278
3597,8,136657,3038,454,197
3598,46,136657,3038,454,419
3599,37,136704,3036,457,241
3600,31,136749,3019,458,117
